%YAML 1.1
%TAG !u! tag:unity3d.com,2011:
--- !u!74 &7400000
AnimationClip:
  m_ObjectHideFlags: 0
  m_PrefabParentObject: {fileID: 0}
  m_PrefabInternal: {fileID: 0}
  m_Name: LaserRaysInit
  serializedVersion: 6
  m_Legacy: 0
  m_Compressed: 0
  m_UseHighQualityCurve: 1
  m_RotationCurves: []
  m_CompressedRotationCurves: []
  m_EulerCurves: []
  m_PositionCurves: []
  m_ScaleCurves: []
  m_FloatCurves:
  - curve:
      serializedVersion: 2
      m_Curve:
      - serializedVersion: 2
        time: 0
        value: 0
        inSlope: 1.2
        outSlope: 1.2
        tangentMode: 34
      - serializedVersion: 2
        time: 0.41666666
        value: 0.5
        inSlope: 1.2
        outSlope: 1.2
        tangentMode: 34
      m_PreInfinity: 2
      m_PostInfinity: 2
      m_RotationOrder: 4
    attribute: m_Parameters.endWidth
    path: Laser0
    classID: 120
    script: {fileID: 0}
  - curve:
      serializedVersion: 2
      m_Curve:
      - serializedVersion: 2
        time: 0
        value: 0
        inSlope: 1.2
        outSlope: 1.2
        tangentMode: 34
      - serializedVersion: 2
        time: 0.41666666
        value: 0.5
        inSlope: 1.2
        outSlope: 1.2
        tangentMode: 34
      m_PreInfinity: 2
      m_PostInfinity: 2
      m_RotationOrder: 4
    attribute: m_Parameters.startWidth
    path: Laser0
    classID: 120
    script: {fileID: 0}
  - curve:
      serializedVersion: 2
      m_Curve:
      - serializedVersion: 2
        time: 0
        value: 0
        inSlope: 0
        outSlope: 0
        tangentMode: 5
      - serializedVersion: 2
        time: 0.083333336
        value: 0
        inSlope: 0
        outSlope: 0.75000006
        tangentMode: 5
      - serializedVersion: 2
        time: 0.41666666
        value: 0.5
        inSlope: 1.5
        outSlope: 1.5000001
        tangentMode: 5
      m_PreInfinity: 2
      m_PostInfinity: 2
      m_RotationOrder: 4
    attribute: m_Parameters.endWidth
    path: Laser1
    classID: 120
    script: {fileID: 0}
  - curve:
      serializedVersion: 2
      m_Curve:
      - serializedVersion: 2
        time: 0
        value: 0
        inSlope: 0
        outSlope: 0
        tangentMode: 5
      - serializedVersion: 2
        time: 0.083333336
        value: 0
        inSlope: 0
        outSlope: 0.75000006
        tangentMode: 5
      - serializedVersion: 2
        time: 0.41666666
        value: 0.5
        inSlope: 1.5
        outSlope: 1.5000001
        tangentMode: 5
      m_PreInfinity: 2
      m_PostInfinity: 2
      m_RotationOrder: 4
    attribute: m_Parameters.startWidth
    path: Laser1
    classID: 120
    script: {fileID: 0}
  - curve:
      serializedVersion: 2
      m_Curve:
      - serializedVersion: 2
        time: 0
        value: 0
        inSlope: 3
        outSlope: 3
        tangentMode: 34
      - serializedVersion: 2
        time: 0.16666667
        value: 0.5
        inSlope: 0.29999995
        outSlope: -2.4
        tangentMode: 65
      - serializedVersion: 2
        time: 0.25
        value: 0.3
        inSlope: -0.6
        outSlope: 1.2
        tangentMode: 65
      - serializedVersion: 2
        time: 0.41666666
        value: 0.5
        inSlope: 1.2
        outSlope: 1.2
        tangentMode: 34
      m_PreInfinity: 2
      m_PostInfinity: 2
      m_RotationOrder: 4
    attribute: m_Parameters.endWidth
    path: Laser2
    classID: 120
    script: {fileID: 0}
  - curve:
      serializedVersion: 2
      m_Curve:
      - serializedVersion: 2
        time: 0
        value: 0
        inSlope: 3
        outSlope: 3
        tangentMode: 34
      - serializedVersion: 2
        time: 0.16666667
        value: 0.5
        inSlope: 0.29999995
        outSlope: -2.4
        tangentMode: 65
      - serializedVersion: 2
        time: 0.25
        value: 0.3
        inSlope: -0.6
        outSlope: 1.2
        tangentMode: 65
      - serializedVersion: 2
        time: 0.41666666
        value: 0.5
        inSlope: 1.2
        outSlope: 1.2
        tangentMode: 34
      m_PreInfinity: 2
      m_PostInfinity: 2
      m_RotationOrder: 4
    attribute: m_Parameters.startWidth
    path: Laser2
    classID: 120
    script: {fileID: 0}
  - curve:
      serializedVersion: 2
      m_Curve:
      - serializedVersion: 2
        time: 0
        value: 0
        inSlope: 0
        outSlope: 0
        tangentMode: 34
      - serializedVersion: 2
        time: 0.083333336
        value: 0
        inSlope: 0
        outSlope: 0.75000006
        tangentMode: 5
      - serializedVersion: 2
        time: 0.41666666
        value: 0.5
        inSlope: 1.5000001
        outSlope: 1.5000001
        tangentMode: 34
      m_PreInfinity: 2
      m_PostInfinity: 2
      m_RotationOrder: 4
    attribute: m_Parameters.endWidth
    path: Laser3
    classID: 120
    script: {fileID: 0}
  - curve:
      serializedVersion: 2
      m_Curve:
      - serializedVersion: 2
        time: 0
        value: 0
        inSlope: 0
        outSlope: 0
        tangentMode: 34
      - serializedVersion: 2
        time: 0.083333336
        value: 0
        inSlope: 0
        outSlope: 0.75000006
        tangentMode: 5
      - serializedVersion: 2
        time: 0.41666666
        value: 0.5
        inSlope: 1.5000001
        outSlope: 1.5000001
        tangentMode: 34
      m_PreInfinity: 2
      m_PostInfinity: 2
      m_RotationOrder: 4
    attribute: m_Parameters.startWidth
    path: Laser3
    classID: 120
    script: {fileID: 0}
  - curve:
      serializedVersion: 2
      m_Curve:
      - serializedVersion: 2
        time: 0
        value: 0
        inSlope: 0
        outSlope: 1.2
        tangentMode: 65
      - serializedVersion: 2
        time: 0.41666666
        value: 0.5
        inSlope: 1.2
        outSlope: 0
        tangentMode: 5
      m_PreInfinity: 2
      m_PostInfinity: 2
      m_RotationOrder: 4
    attribute: m_Parameters.widthMultiplier
    path: Laser0
    classID: 120
    script: {fileID: 0}
  - curve:
      serializedVersion: 2
      m_Curve:
      - serializedVersion: 2
        time: 0
        value: 0
        inSlope: 0
        outSlope: 1.2
        tangentMode: 65
      - serializedVersion: 2
        time: 0.41666666
        value: 0.5
        inSlope: 1.2
        outSlope: 0
        tangentMode: 5
      m_PreInfinity: 2
      m_PostInfinity: 2
      m_RotationOrder: 4
    attribute: m_Parameters.widthMultiplier
    path: Laser1
    classID: 120
    script: {fileID: 0}
  - curve:
      serializedVersion: 2
      m_Curve:
      - serializedVersion: 2
        time: 0
        value: 0
        inSlope: 0
        outSlope: 1.2
        tangentMode: 65
      - serializedVersion: 2
        time: 0.41666666
        value: 0.5
        inSlope: 1.2
        outSlope: 0
        tangentMode: 5
      m_PreInfinity: 2
      m_PostInfinity: 2
      m_RotationOrder: 4
    attribute: m_Parameters.widthMultiplier
    path: Laser2
    classID: 120
    script: {fileID: 0}
  - curve:
      serializedVersion: 2
      m_Curve:
      - serializedVersion: 2
        time: 0
        value: 0
        inSlope: 0
        outSlope: 1.2
        tangentMode: 65
      - serializedVersion: 2
        time: 0.41666666
        value: 0.5
        inSlope: 1.2
        outSlope: 0
        tangentMode: 5
      m_PreInfinity: 2
      m_PostInfinity: 2
      m_RotationOrder: 4
    attribute: m_Parameters.widthMultiplier
    path: Laser3
    classID: 120
    script: {fileID: 0}
  m_PPtrCurves: []
  m_SampleRate: 60
  m_WrapMode: 0
  m_Bounds:
    m_Center: {x: 0, y: 0, z: 0}
    m_Extent: {x: 0, y: 0, z: 0}
  m_ClipBindingConstant:
    genericBindings:
    - serializedVersion: 2
      path: 1632376872
      attribute: 2227219958
      script: {fileID: 0}
      typeID: 120
      customType: 0
      isPPtrCurve: 0
    - serializedVersion: 2
      path: 1632376872
      attribute: 2549735139
      script: {fileID: 0}
      typeID: 120
      customType: 0
      isPPtrCurve: 0
    - serializedVersion: 2
      path: 374024382
      attribute: 2227219958
      script: {fileID: 0}
      typeID: 120
      customType: 0
      isPPtrCurve: 0
    - serializedVersion: 2
      path: 374024382
      attribute: 2549735139
      script: {fileID: 0}
      typeID: 120
      customType: 0
      isPPtrCurve: 0
    - serializedVersion: 2
      path: 2403498244
      attribute: 2227219958
      script: {fileID: 0}
      typeID: 120
      customType: 0
      isPPtrCurve: 0
    - serializedVersion: 2
      path: 2403498244
      attribute: 2549735139
      script: {fileID: 0}
      typeID: 120
      customType: 0
      isPPtrCurve: 0
    - serializedVersion: 2
      path: 4165290386
      attribute: 2227219958
      script: {fileID: 0}
      typeID: 120
      customType: 0
      isPPtrCurve: 0
    - serializedVersion: 2
      path: 4165290386
      attribute: 2549735139
      script: {fileID: 0}
      typeID: 120
      customType: 0
      isPPtrCurve: 0
    - serializedVersion: 2
      path: 1632376872
      attribute: 3982886636
      script: {fileID: 0}
      typeID: 120
      customType: 29
      isPPtrCurve: 0
    - serializedVersion: 2
      path: 374024382
      attribute: 3982886636
      script: {fileID: 0}
      typeID: 120
      customType: 29
      isPPtrCurve: 0
    - serializedVersion: 2
      path: 2403498244
      attribute: 3982886636
      script: {fileID: 0}
      typeID: 120
      customType: 29
      isPPtrCurve: 0
    - serializedVersion: 2
      path: 4165290386
      attribute: 3982886636
      script: {fileID: 0}
      typeID: 120
      customType: 29
      isPPtrCurve: 0
    pptrCurveMapping: []
  m_AnimationClipSettings:
    serializedVersion: 2
    m_AdditiveReferencePoseClip: {fileID: 0}
    m_AdditiveReferencePoseTime: 0
    m_StartTime: 0
    m_StopTime: 0.41666666
    m_OrientationOffsetY: 0
    m_Level: 0
    m_CycleOffset: 0
    m_HasAdditiveReferencePose: 0
    m_LoopTime: 0
    m_LoopBlend: 0
    m_LoopBlendOrientation: 0
    m_LoopBlendPositionY: 0
    m_LoopBlendPositionXZ: 0
    m_KeepOriginalOrientation: 0
    m_KeepOriginalPositionY: 1
    m_KeepOriginalPositionXZ: 0
    m_HeightFromFeet: 0
    m_Mirror: 0
  m_EditorCurves:
  - curve:
      serializedVersion: 2
      m_Curve:
      - serializedVersion: 2
        time: 0
        value: 0
        inSlope: 1.2
        outSlope: 1.2
        tangentMode: 34
      - serializedVersion: 2
        time: 0.41666666
        value: 0.5
        inSlope: 1.2
        outSlope: 1.2
        tangentMode: 34
      m_PreInfinity: 2
      m_PostInfinity: 2
      m_RotationOrder: 4
    attribute: m_Parameters.endWidth
    path: Laser0
    classID: 120
    script: {fileID: 0}
  - curve:
      serializedVersion: 2
      m_Curve:
      - serializedVersion: 2
        time: 0
        value: 0
        inSlope: 1.2
        outSlope: 1.2
        tangentMode: 34
      - serializedVersion: 2
        time: 0.41666666
        value: 0.5
        inSlope: 1.2
        outSlope: 1.2
        tangentMode: 34
      m_PreInfinity: 2
      m_PostInfinity: 2
      m_RotationOrder: 4
    attribute: m_Parameters.startWidth
    path: Laser0
    classID: 120
    script: {fileID: 0}
  - curve:
      serializedVersion: 2
      m_Curve:
      - serializedVersion: 2
        time: 0
        value: 0
        inSlope: 0
        outSlope: 0
        tangentMode: 5
      - serializedVersion: 2
        time: 0.083333336
        value: 0
        inSlope: 0
        outSlope: 0.75000006
        tangentMode: 5
      - serializedVersion: 2
        time: 0.41666666
        value: 0.5
        inSlope: 1.5
        outSlope: 1.5000001
        tangentMode: 5
      m_PreInfinity: 2
      m_PostInfinity: 2
      m_RotationOrder: 4
    attribute: m_Parameters.endWidth
    path: Laser1
    classID: 120
    script: {fileID: 0}
  - curve:
      serializedVersion: 2
      m_Curve:
      - serializedVersion: 2
        time: 0
        value: 0
        inSlope: 0
        outSlope: 0
        tangentMode: 5
      - serializedVersion: 2
        time: 0.083333336
        value: 0
        inSlope: 0
        outSlope: 0.75000006
        tangentMode: 5
      - serializedVersion: 2
        time: 0.41666666
        value: 0.5
        inSlope: 1.5
        outSlope: 1.5000001
        tangentMode: 5
      m_PreInfinity: 2
      m_PostInfinity: 2
      m_RotationOrder: 4
    attribute: m_Parameters.startWidth
    path: Laser1
    classID: 120
    script: {fileID: 0}
  - curve:
      serializedVersion: 2
      m_Curve:
      - serializedVersion: 2
        time: 0
        value: 0
        inSlope: 3
        outSlope: 3
        tangentMode: 34
      - serializedVersion: 2
        time: 0.16666667
        value: 0.5
        inSlope: 0.29999995
        outSlope: -2.4
        tangentMode: 65
      - serializedVersion: 2
        time: 0.25
        value: 0.3
        inSlope: -0.6
        outSlope: 1.2
        tangentMode: 65
      - serializedVersion: 2
        time: 0.41666666
        value: 0.5
        inSlope: 1.2
        outSlope: 1.2
        tangentMode: 34
      m_PreInfinity: 2
      m_PostInfinity: 2
      m_RotationOrder: 4
    attribute: m_Parameters.endWidth
    path: Laser2
    classID: 120
    script: {fileID: 0}
  - curve:
      serializedVersion: 2
      m_Curve:
      - serializedVersion: 2
        time: 0
        value: 0
        inSlope: 3
        outSlope: 3
        tangentMode: 34
      - serializedVersion: 2
        time: 0.16666667
        value: 0.5
        inSlope: 0.29999995
        outSlope: -2.4
        tangentMode: 65
      - serializedVersion: 2
        time: 0.25
        value: 0.3
        inSlope: -0.6
        outSlope: 1.2
        tangentMode: 65
      - serializedVersion: 2
        time: 0.41666666
        value: 0.5
        inSlope: 1.2
        outSlope: 1.2
        tangentMode: 34
      m_PreInfinity: 2
      m_PostInfinity: 2
      m_RotationOrder: 4
    attribute: m_Parameters.startWidth
    path: Laser2
    classID: 120
    script: {fileID: 0}
  - curve:
      serializedVersion: 2
      m_Curve:
      - serializedVersion: 2
        time: 0
        value: 0
        inSlope: 0
        outSlope: 0
        tangentMode: 34
      - serializedVersion: 2
        time: 0.083333336
        value: 0
        inSlope: 0
        outSlope: 0.75000006
        tangentMode: 5
      - serializedVersion: 2
        time: 0.41666666
        value: 0.5
        inSlope: 1.5000001
        outSlope: 1.5000001
        tangentMode: 34
      m_PreInfinity: 2
      m_PostInfinity: 2
      m_RotationOrder: 4
    attribute: m_Parameters.endWidth
    path: Laser3
    classID: 120
    script: {fileID: 0}
  - curve:
      serializedVersion: 2
      m_Curve:
      - serializedVersion: 2
        time: 0
        value: 0
        inSlope: 0
        outSlope: 0
        tangentMode: 34
      - serializedVersion: 2
        time: 0.083333336
        value: 0
        inSlope: 0
        outSlope: 0.75000006
        tangentMode: 5
      - serializedVersion: 2
        time: 0.41666666
        value: 0.5
        inSlope: 1.5000001
        outSlope: 1.5000001
        tangentMode: 34
      m_PreInfinity: 2
      m_PostInfinity: 2
      m_RotationOrder: 4
    attribute: m_Parameters.startWidth
    path: Laser3
    classID: 120
    script: {fileID: 0}
  - curve:
      serializedVersion: 2
      m_Curve:
      - serializedVersion: 2
        time: 0
        value: 0
        inSlope: 0
        outSlope: 1.2
        tangentMode: 65
      - serializedVersion: 2
        time: 0.41666666
        value: 0.5
        inSlope: 1.2
        outSlope: 0
        tangentMode: 5
      m_PreInfinity: 2
      m_PostInfinity: 2
      m_RotationOrder: 4
    attribute: m_Parameters.widthMultiplier
    path: Laser0
    classID: 120
    script: {fileID: 0}
  - curve:
      serializedVersion: 2
      m_Curve:
      - serializedVersion: 2
        time: 0
        value: 0
        inSlope: 0
        outSlope: 1.2
        tangentMode: 65
      - serializedVersion: 2
        time: 0.41666666
        value: 0.5
        inSlope: 1.2
        outSlope: 0
        tangentMode: 5
      m_PreInfinity: 2
      m_PostInfinity: 2
      m_RotationOrder: 4
    attribute: m_Parameters.widthMultiplier
    path: Laser1
    classID: 120
    script: {fileID: 0}
  - curve:
      serializedVersion: 2
      m_Curve:
      - serializedVersion: 2
        time: 0
        value: 0
        inSlope: 0
        outSlope: 1.2
        tangentMode: 65
      - serializedVersion: 2
        time: 0.41666666
        value: 0.5
        inSlope: 1.2
        outSlope: 0
        tangentMode: 5
      m_PreInfinity: 2
      m_PostInfinity: 2
      m_RotationOrder: 4
    attribute: m_Parameters.widthMultiplier
    path: Laser2
    classID: 120
    script: {fileID: 0}
  - curve:
      serializedVersion: 2
      m_Curve:
      - serializedVersion: 2
        time: 0
        value: 0
        inSlope: 0
        outSlope: 1.2
        tangentMode: 65
      - serializedVersion: 2
        time: 0.41666666
        value: 0.5
        inSlope: 1.2
        outSlope: 0
        tangentMode: 5
      m_PreInfinity: 2
      m_PostInfinity: 2
      m_RotationOrder: 4
    attribute: m_Parameters.widthMultiplier
    path: Laser3
    classID: 120
    script: {fileID: 0}
  m_EulerEditorCurves: []
  m_HasGenericRootTransform: 0
  m_HasMotionFloatCurves: 0
  m_GenerateMotionCurves: 0
  m_Events: []
