%YAML 1.1
%TAG !u! tag:unity3d.com,2011:
--- !u!21 &2100000
Material:
  serializedVersion: 6
  m_ObjectHideFlags: 0
  m_PrefabParentObject: {fileID: 0}
  m_PrefabInternal: {fileID: 0}
  m_Name: 5
  m_Shader: {fileID: 4800000, guid: 8646b94581e141643bf879ee12c59c88, type: 3}
  m_ShaderKeywords: 
  m_LightmapFlags: 5
  m_CustomRenderQueue: -1
  stringTagMap: {}
  m_SavedProperties:
    serializedVersion: 2
    m_TexEnvs:
    - first:
        name: _Bands
      second:
        m_Texture: {fileID: 0}
        m_Scale: {x: 1, y: 1}
        m_Offset: {x: 0, y: 0}
    - first:
        name: _MainTex
      second:
        m_Texture: {fileID: 2800000, guid: 1b1ced5443a67fa4895824608bf04653, type: 3}
        m_Scale: {x: 1, y: 1}
        m_Offset: {x: 0, y: 0}
    - first:
        name: _OverlayBands
      second:
        m_Texture: {fileID: 0}
        m_Scale: {x: 1, y: 1}
        m_Offset: {x: 0, y: 0}
    m_Floats:
    - first:
        name: _BandingVelocity
      second: 0
    - first:
        name: _BandsTiling
      second: 1
    - first:
        name: _CenterReference
      second: 0
    - first:
        name: _ClipRadius
      second: 2
    - first:
        name: _GlobalAlpha
      second: 1
    - first:
        name: _MinOpacity
      second: 0
    - first:
        name: _OverlayBandsOffset
      second: 0
    - first:
        name: _VisPower
      second: 1
    - first:
        name: _VisRadius
      second: 1.5
    - first:
        name: _VisScale
      second: 1
    m_Colors:
    - first:
        name: _Color
      second: {r: 1, g: 1, b: 1, a: 1}
    - first:
        name: _MarginColor
      second: {r: 1, g: 1, b: 1, a: 1}
