%YAML 1.1
%TAG !u! tag:unity3d.com,2011:
--- !u!114 &11400000
MonoBehaviour:
  m_ObjectHideFlags: 0
  m_PrefabParentObject: {fileID: 0}
  m_PrefabInternal: {fileID: 0}
  m_GameObject: {fileID: 0}
  m_Enabled: 1
  m_EditorHideFlags: 0
  m_Script: {fileID: 11500000, guid: 461feef47f5e4a345b5085e037955361, type: 3}
  m_Name: ShopData
  m_EditorClassIdentifier: 
  readableCurrencyNames:
  - Diamonds
  - Stars
  - Fragments
  readableCategoryNames:
  - Body skins
  - Weapon skins
  - Skate skins
  standardShopItems:
  - category: 0
    standardItemList:
    - hidden: 0
      itemId: 1
      itemName: DISSIDENT
      itemDescription: 
      itemThumbnail: {fileID: 21300000, guid: 59263fbfb7b5ea74d9d348ad48bf70c7, type: 3}
      itemPresentation: {fileID: 1000010931371050, guid: 01ae46cc66d9ec14184d63a2a00280b6,
        type: 2}
      itemOverrideMaterial: {fileID: 2100000, guid: 1a3195847a074f44988f0982eb18fce0,
        type: 2}
      costPacks:
      - currency: 0
        cost: 0
        gotDiscount: 0
      onSale: 0
      salePercentage: 0.5
      hasLowpolyVersion: 0
      lowpolyItemPresentation: {fileID: 0}
      lowpolyItemOverrideMaterial: {fileID: 0}
      hasUnlockEvent: 0
      unlockItemEvent:
        specialLevel: 0
        levelId: -1
    - hidden: 0
      itemId: 2
      itemName: HALLOWEEN
      itemDescription: 
      itemThumbnail: {fileID: 21300004, guid: ffec7d4bb0a8c914696739328a76ade0, type: 3}
      itemPresentation: {fileID: 1000010931371050, guid: 01ae46cc66d9ec14184d63a2a00280b6,
        type: 2}
      itemOverrideMaterial: {fileID: 2100000, guid: 2a54d50f8d16fc940a9edcd48695ccdb,
        type: 2}
      costPacks:
      - currency: 0
        cost: 22
        gotDiscount: 0
      onSale: 0
      salePercentage: 0
      hasLowpolyVersion: 0
      lowpolyItemPresentation: {fileID: 0}
      lowpolyItemOverrideMaterial: {fileID: 0}
      hasUnlockEvent: 0
      unlockItemEvent:
        specialLevel: 0
        levelId: -1
    - hidden: 0
      itemId: 3
      itemName: ALASKA
      itemDescription: 
      itemThumbnail: {fileID: 21300012, guid: 59263fbfb7b5ea74d9d348ad48bf70c7, type: 3}
      itemPresentation: {fileID: 1000010931371050, guid: 01ae46cc66d9ec14184d63a2a00280b6,
        type: 2}
      itemOverrideMaterial: {fileID: 2100000, guid: 3c8a8b674bb0de6479614ffedd2a809a,
        type: 2}
      costPacks:
      - currency: 0
        cost: 18
        gotDiscount: 0
      onSale: 0
      salePercentage: 0
      hasLowpolyVersion: 0
      lowpolyItemPresentation: {fileID: 0}
      lowpolyItemOverrideMaterial: {fileID: 0}
      hasUnlockEvent: 0
      unlockItemEvent:
        specialLevel: 0
        levelId: -1
    - hidden: 0
      itemId: 4
      itemName: SKATEPUNK
      itemDescription: 
      itemThumbnail: {fileID: 21300018, guid: 59263fbfb7b5ea74d9d348ad48bf70c7, type: 3}
      itemPresentation: {fileID: 1000010931371050, guid: 01ae46cc66d9ec14184d63a2a00280b6,
        type: 2}
      itemOverrideMaterial: {fileID: 2100000, guid: 0f8f2b0a7089a754d8aa755f35caed85,
        type: 2}
      costPacks:
      - currency: 0
        cost: 20
        gotDiscount: 0
      onSale: 0
      salePercentage: 0
      hasLowpolyVersion: 0
      lowpolyItemPresentation: {fileID: 0}
      lowpolyItemOverrideMaterial: {fileID: 0}
      hasUnlockEvent: 0
      unlockItemEvent:
        specialLevel: 0
        levelId: -1
    - hidden: 0
      itemId: 5
      itemName: WAKA-RAIDER
      itemDescription: 
      itemThumbnail: {fileID: 21300014, guid: 59263fbfb7b5ea74d9d348ad48bf70c7, type: 3}
      itemPresentation: {fileID: 1000010931371050, guid: 01ae46cc66d9ec14184d63a2a00280b6,
        type: 2}
      itemOverrideMaterial: {fileID: 2100000, guid: 671a2a725c98a4e478ff8fcc57564712,
        type: 2}
      costPacks:
      - currency: 0
        cost: 18
        gotDiscount: 0
      onSale: 0
      salePercentage: 0
      hasLowpolyVersion: 0
      lowpolyItemPresentation: {fileID: 0}
      lowpolyItemOverrideMaterial: {fileID: 0}
      hasUnlockEvent: 0
      unlockItemEvent:
        specialLevel: 0
        levelId: -1
    - hidden: 0
      itemId: 6
      itemName: BRANDINE
      itemDescription: 
      itemThumbnail: {fileID: 21300016, guid: 59263fbfb7b5ea74d9d348ad48bf70c7, type: 3}
      itemPresentation: {fileID: 1000010931371050, guid: 01ae46cc66d9ec14184d63a2a00280b6,
        type: 2}
      itemOverrideMaterial: {fileID: 2100000, guid: 233eb366c4069df43880212147d713ec,
        type: 2}
      costPacks:
      - currency: 0
        cost: 20
        gotDiscount: 0
      onSale: 0
      salePercentage: 0
      hasLowpolyVersion: 0
      lowpolyItemPresentation: {fileID: 0}
      lowpolyItemOverrideMaterial: {fileID: 0}
      hasUnlockEvent: 0
      unlockItemEvent:
        specialLevel: 0
        levelId: -1
    - hidden: 0
      itemId: 7
      itemName: RED VELVET
      itemDescription: 
      itemThumbnail: {fileID: 21300024, guid: 59263fbfb7b5ea74d9d348ad48bf70c7, type: 3}
      itemPresentation: {fileID: 1000010724695300, guid: 4b32aa294f088264f9b73ab38bba6882,
        type: 2}
      itemOverrideMaterial: {fileID: 2100000, guid: 03a31a73b1368ad4fa88bfb78851ecbb,
        type: 2}
      costPacks:
      - currency: 0
        cost: 22
        gotDiscount: 0
      onSale: 0
      salePercentage: 0
      hasLowpolyVersion: 0
      lowpolyItemPresentation: {fileID: 0}
      lowpolyItemOverrideMaterial: {fileID: 0}
      hasUnlockEvent: 0
      unlockItemEvent:
        specialLevel: 0
        levelId: -1
    - hidden: 0
      itemId: 8
      itemName: CONQUISTADOR
      itemDescription: 
      itemThumbnail: {fileID: 21300002, guid: 59263fbfb7b5ea74d9d348ad48bf70c7, type: 3}
      itemPresentation: {fileID: 1000010724695300, guid: 4b32aa294f088264f9b73ab38bba6882,
        type: 2}
      itemOverrideMaterial: {fileID: 2100000, guid: abf10e2e9c186174eb2551bf258990ab,
        type: 2}
      costPacks:
      - currency: 0
        cost: 22
        gotDiscount: 0
      onSale: 0
      salePercentage: 0
      hasLowpolyVersion: 0
      lowpolyItemPresentation: {fileID: 0}
      lowpolyItemOverrideMaterial: {fileID: 0}
      hasUnlockEvent: 0
      unlockItemEvent:
        specialLevel: 0
        levelId: -1
    - hidden: 0
      itemId: 9
      itemName: YLDOONITE
      itemDescription: 
      itemThumbnail: {fileID: 21300006, guid: 59263fbfb7b5ea74d9d348ad48bf70c7, type: 3}
      itemPresentation: {fileID: 1000011797294924, guid: 476b62c5a3e478845b92b42935574ec3,
        type: 2}
      itemOverrideMaterial: {fileID: 2100000, guid: 67be44e4a8523a84da5961d6e155c56a,
        type: 2}
      costPacks:
      - currency: 0
        cost: 20
        gotDiscount: 0
      - currency: 1
        cost: 35
        gotDiscount: 0
      onSale: 0
      salePercentage: 0
      hasLowpolyVersion: 0
      lowpolyItemPresentation: {fileID: 0}
      lowpolyItemOverrideMaterial: {fileID: 0}
      hasUnlockEvent: 0
      unlockItemEvent:
        specialLevel: 0
        levelId: -1
    - hidden: 0
      itemId: 10
      itemName: LAUTREC
      itemDescription: 
      itemThumbnail: {fileID: 21300006, guid: ffec7d4bb0a8c914696739328a76ade0, type: 3}
      itemPresentation: {fileID: 1000010892800242, guid: fdabe17ef3af64f4088343440ae150c7,
        type: 2}
      itemOverrideMaterial: {fileID: 2100000, guid: 37a631a4582471643857902ec0d98123,
        type: 2}
      costPacks:
      - currency: 0
        cost: 22
        gotDiscount: 0
      onSale: 0
      salePercentage: 0
      hasLowpolyVersion: 0
      lowpolyItemPresentation: {fileID: 0}
      lowpolyItemOverrideMaterial: {fileID: 0}
      hasUnlockEvent: 0
      unlockItemEvent:
        specialLevel: 0
        levelId: -1
    - hidden: 0
      itemId: 11
      itemName: HAWAII 3.0
      itemDescription: 
      itemThumbnail: {fileID: 21300014, guid: ffec7d4bb0a8c914696739328a76ade0, type: 3}
      itemPresentation: {fileID: 1000010892800242, guid: fdabe17ef3af64f4088343440ae150c7,
        type: 2}
      itemOverrideMaterial: {fileID: 2100000, guid: 9b354e521962a5a44843e07635c29a81,
        type: 2}
      costPacks:
      - currency: 0
        cost: 22
        gotDiscount: 0
      onSale: 0
      salePercentage: 0
      hasLowpolyVersion: 0
      lowpolyItemPresentation: {fileID: 0}
      lowpolyItemOverrideMaterial: {fileID: 0}
      hasUnlockEvent: 0
      unlockItemEvent:
        specialLevel: 0
        levelId: -1
    - hidden: 0
      itemId: 12
      itemName: CUPID
      itemDescription: 
      itemThumbnail: {fileID: 21300008, guid: ffec7d4bb0a8c914696739328a76ade0, type: 3}
      itemPresentation: {fileID: 1000010892800242, guid: fdabe17ef3af64f4088343440ae150c7,
        type: 2}
      itemOverrideMaterial: {fileID: 2100000, guid: 902d350c5b0f94848851558e00c532c2,
        type: 2}
      costPacks:
      - currency: 0
        cost: 22
        gotDiscount: 0
      onSale: 0
      salePercentage: 0
      hasLowpolyVersion: 0
      lowpolyItemPresentation: {fileID: 0}
      lowpolyItemOverrideMaterial: {fileID: 0}
      hasUnlockEvent: 0
      unlockItemEvent:
        specialLevel: 0
        levelId: -1
    - hidden: 0
      itemId: 13
      itemName: SKATE CHANNEL 5
      itemDescription: 
      itemThumbnail: {fileID: 21300026, guid: 59263fbfb7b5ea74d9d348ad48bf70c7, type: 3}
      itemPresentation: {fileID: 1000010892800242, guid: fdabe17ef3af64f4088343440ae150c7,
        type: 2}
      itemOverrideMaterial: {fileID: 2100000, guid: 5363a75001fa9394dbe0b686652b8965,
        type: 2}
      costPacks:
      - currency: 0
        cost: 18
        gotDiscount: 0
      - currency: 1
        cost: 10
        gotDiscount: 0
      onSale: 0
      salePercentage: 0
      hasLowpolyVersion: 0
      lowpolyItemPresentation: {fileID: 0}
      lowpolyItemOverrideMaterial: {fileID: 0}
      hasUnlockEvent: 0
      unlockItemEvent:
        specialLevel: 0
        levelId: -1
    - hidden: 0
      itemId: 14
      itemName: TRINITY
      itemDescription: 
      itemThumbnail: {fileID: 21300030, guid: 59263fbfb7b5ea74d9d348ad48bf70c7, type: 3}
      itemPresentation: {fileID: 1000010892800242, guid: fdabe17ef3af64f4088343440ae150c7,
        type: 2}
      itemOverrideMaterial: {fileID: 2100000, guid: 7db2d41440d738248bf55deeb92af8e4,
        type: 2}
      costPacks:
      - currency: 0
        cost: 20
        gotDiscount: 0
      onSale: 0
      salePercentage: 0
      hasLowpolyVersion: 0
      lowpolyItemPresentation: {fileID: 0}
      lowpolyItemOverrideMaterial: {fileID: 0}
      hasUnlockEvent: 0
      unlockItemEvent:
        specialLevel: 0
        levelId: -1
    - hidden: 0
      itemId: 15
      itemName: MATADOR
      itemDescription: 
      itemThumbnail: {fileID: 21300020, guid: 59263fbfb7b5ea74d9d348ad48bf70c7, type: 3}
      itemPresentation: {fileID: 1000012745461060, guid: 1a992826919004549987e10812fec9eb,
        type: 2}
      itemOverrideMaterial: {fileID: 2100000, guid: f16c199f5a4bbb04788142e8672e8e91,
        type: 2}
      costPacks:
      - currency: 0
        cost: 22
        gotDiscount: 0
      onSale: 0
      salePercentage: 0
      hasLowpolyVersion: 0
      lowpolyItemPresentation: {fileID: 0}
      lowpolyItemOverrideMaterial: {fileID: 0}
      hasUnlockEvent: 0
      unlockItemEvent:
        specialLevel: 0
        levelId: -1
    - hidden: 0
      itemId: 16
      itemName: GOTHIC CROCODILE
      itemDescription: 
      itemThumbnail: {fileID: 21300000, guid: ffec7d4bb0a8c914696739328a76ade0, type: 3}
      itemPresentation: {fileID: 1000012745461060, guid: 1a992826919004549987e10812fec9eb,
        type: 2}
      itemOverrideMaterial: {fileID: 2100000, guid: 3175ff40ab27ed14ab14bd2c153a2996,
        type: 2}
      costPacks:
      - currency: 0
        cost: 20
        gotDiscount: 0
      onSale: 0
      salePercentage: 0
      hasLowpolyVersion: 0
      lowpolyItemPresentation: {fileID: 0}
      lowpolyItemOverrideMaterial: {fileID: 0}
      hasUnlockEvent: 0
      unlockItemEvent:
        specialLevel: 0
        levelId: -1
    - hidden: 0
      itemId: 17
      itemName: PAPILLON
      itemDescription: 
      itemThumbnail: {fileID: 21300010, guid: ffec7d4bb0a8c914696739328a76ade0, type: 3}
      itemPresentation: {fileID: 1000012745461060, guid: 1a992826919004549987e10812fec9eb,
        type: 2}
      itemOverrideMaterial: {fileID: 2100000, guid: c86f2b3071f7b1443824566037149a8c,
        type: 2}
      costPacks:
      - currency: 0
        cost: 22
        gotDiscount: 0
      onSale: 0
      salePercentage: 0
      hasLowpolyVersion: 0
      lowpolyItemPresentation: {fileID: 0}
      lowpolyItemOverrideMaterial: {fileID: 0}
      hasUnlockEvent: 0
      unlockItemEvent:
        specialLevel: 0
        levelId: -1
    - hidden: 0
      itemId: 18
      itemName: SKELLINGTON
      itemDescription: 
      itemThumbnail: {fileID: 21300002, guid: ffec7d4bb0a8c914696739328a76ade0, type: 3}
      itemPresentation: {fileID: 1000012745461060, guid: 1a992826919004549987e10812fec9eb,
        type: 2}
      itemOverrideMaterial: {fileID: 2100000, guid: 0d91c87c446ddf846a75d2a03286fb27,
        type: 2}
      costPacks:
      - currency: 0
        cost: 22
        gotDiscount: 0
      onSale: 0
      salePercentage: 0
      hasLowpolyVersion: 0
      lowpolyItemPresentation: {fileID: 0}
      lowpolyItemOverrideMaterial: {fileID: 0}
      hasUnlockEvent: 0
      unlockItemEvent:
        specialLevel: 0
        levelId: -1
    - hidden: 0
      itemId: 19
      itemName: MAVERICK
      itemDescription: 
      itemThumbnail: {fileID: 21300004, guid: 59263fbfb7b5ea74d9d348ad48bf70c7, type: 3}
      itemPresentation: {fileID: 1000012143177202, guid: 4e2e8990301159e4d9511b9fbf599b5a,
        type: 2}
      itemOverrideMaterial: {fileID: 2100000, guid: f452653d3b21d64408cb0a4961c90bd8,
        type: 2}
      costPacks:
      - currency: 0
        cost: 22
        gotDiscount: 0
      onSale: 0
      salePercentage: 0
      hasLowpolyVersion: 0
      lowpolyItemPresentation: {fileID: 0}
      lowpolyItemOverrideMaterial: {fileID: 0}
      hasUnlockEvent: 0
      unlockItemEvent:
        specialLevel: 0
        levelId: -1
    - hidden: 0
      itemId: 20
      itemName: NEMO
      itemDescription: 
      itemThumbnail: {fileID: 21300008, guid: 59263fbfb7b5ea74d9d348ad48bf70c7, type: 3}
      itemPresentation: {fileID: 1000012143177202, guid: 4e2e8990301159e4d9511b9fbf599b5a,
        type: 2}
      itemOverrideMaterial: {fileID: 2100000, guid: 23ce944e727fbeb4e8ddda8955d8b5af,
        type: 2}
      costPacks:
      - currency: 0
        cost: 22
        gotDiscount: 0
      onSale: 0
      salePercentage: 0
      hasLowpolyVersion: 0
      lowpolyItemPresentation: {fileID: 0}
      lowpolyItemOverrideMaterial: {fileID: 0}
      hasUnlockEvent: 0
      unlockItemEvent:
        specialLevel: 0
        levelId: -1
  - category: 1
    standardItemList:
    - hidden: 0
      itemId: 41
      itemName: ESCARCHA
      itemDescription: HEAL
      itemThumbnail: {fileID: 21300100, guid: 18391725d8281894cbe1048ca09a013c, type: 3}
      itemPresentation: {fileID: 1000010680192392, guid: 0f2d94aae681a3b42a86810c5eefbad1,
        type: 2}
      itemOverrideMaterial: {fileID: 2100000, guid: 250f9969c3ee2124ba7af9a2713591ab,
        type: 2}
      costPacks:
      - currency: 0
        cost: 14
        gotDiscount: 0
      onSale: 0
      salePercentage: 0
      hasLowpolyVersion: 1
      lowpolyItemPresentation: {fileID: 1000011951444126, guid: 7eb9059de48d2464e94865afbcd2a963,
        type: 2}
      lowpolyItemOverrideMaterial: {fileID: 2100000, guid: 2328176e1c47cac439bab172ec4d7c0b,
        type: 2}
      hasUnlockEvent: 0
      unlockItemEvent:
        specialLevel: 0
        levelId: -1
    - hidden: 0
      itemId: 42
      itemName: SNAKEBITE
      itemDescription: HEAL
      itemThumbnail: {fileID: 21300090, guid: 18391725d8281894cbe1048ca09a013c, type: 3}
      itemPresentation: {fileID: 1000010680192392, guid: 0f2d94aae681a3b42a86810c5eefbad1,
        type: 2}
      itemOverrideMaterial: {fileID: 2100000, guid: cae8b0541f09620499e8e82bef530afc,
        type: 2}
      costPacks:
      - currency: 0
        cost: 10
        gotDiscount: 0
      - currency: 1
        cost: 1
        gotDiscount: 0
      onSale: 0
      salePercentage: 0
      hasLowpolyVersion: 1
      lowpolyItemPresentation: {fileID: 1000011951444126, guid: c6c0ece992b83604c844d5a8ff31559e,
        type: 2}
      lowpolyItemOverrideMaterial: {fileID: 2100000, guid: 431a3046d20b06c4eb4200fd78f21f7e,
        type: 2}
      hasUnlockEvent: 0
      unlockItemEvent:
        specialLevel: 0
        levelId: -1
    - hidden: 0
      itemId: 43
      itemName: CORLEONE
      itemDescription: AMMO
      itemThumbnail: {fileID: 21300080, guid: 18391725d8281894cbe1048ca09a013c, type: 3}
      itemPresentation: {fileID: 1000014113376114, guid: 22bb21aace485684fb79bd966f2a923b,
        type: 2}
      itemOverrideMaterial: {fileID: 2100000, guid: cae8b0541f09620499e8e82bef530afc,
        type: 2}
      costPacks:
      - currency: 0
        cost: 10
        gotDiscount: 0
      onSale: 0
      salePercentage: 0
      hasLowpolyVersion: 1
      lowpolyItemPresentation: {fileID: 1000012364484374, guid: aa3262881b787024ea116631838cbd11,
        type: 2}
      lowpolyItemOverrideMaterial: {fileID: 2100000, guid: 431a3046d20b06c4eb4200fd78f21f7e,
        type: 2}
      hasUnlockEvent: 0
      unlockItemEvent:
        specialLevel: 0
        levelId: -1
    - hidden: 0
      itemId: 44
      itemName: URQUIJO & MARCH
      itemDescription: AMMO
      itemThumbnail: {fileID: 21300086, guid: 18391725d8281894cbe1048ca09a013c, type: 3}
      itemPresentation: {fileID: 1000014113376114, guid: 22bb21aace485684fb79bd966f2a923b,
        type: 2}
      itemOverrideMaterial: {fileID: 2100000, guid: 7a1a12afb9bfeb64bbcd7197a417f4dc,
        type: 2}
      costPacks:
      - currency: 0
        cost: 18
        gotDiscount: 0
      onSale: 0
      salePercentage: 0
      hasLowpolyVersion: 1
      lowpolyItemPresentation: {fileID: 1000012364484374, guid: 87834464af2f4ce4aa0594758263fd18,
        type: 2}
      lowpolyItemOverrideMaterial: {fileID: 2100000, guid: b4ebebbf47834fc4ab07f0afab521a49,
        type: 2}
      hasUnlockEvent: 0
      unlockItemEvent:
        specialLevel: 0
        levelId: -1
    - hidden: 0
      itemId: 45
      itemName: EL DORADO
      itemDescription: HEAL
      itemThumbnail: {fileID: 21300118, guid: 18391725d8281894cbe1048ca09a013c, type: 3}
      itemPresentation: {fileID: 1000010311509396, guid: 02f32f255adf1bc49b7ab270b7b8478e,
        type: 2}
      itemOverrideMaterial: {fileID: 2100000, guid: 250f9969c3ee2124ba7af9a2713591ab,
        type: 2}
      costPacks:
      - currency: 0
        cost: 18
        gotDiscount: 0
      - currency: 1
        cost: 50
        gotDiscount: 0
      onSale: 0
      salePercentage: 0
      hasLowpolyVersion: 1
      lowpolyItemPresentation: {fileID: 1000013874177546, guid: b7cca1bedd05d10439afe5e26d211154,
        type: 2}
      lowpolyItemOverrideMaterial: {fileID: 2100000, guid: 2328176e1c47cac439bab172ec4d7c0b,
        type: 2}
      hasUnlockEvent: 0
      unlockItemEvent:
        specialLevel: 0
        levelId: -1
    - hidden: 0
      itemId: 46
      itemName: THE QUICK & THE DEAD
      itemDescription: HEAL
      itemThumbnail: {fileID: 21300070, guid: 18391725d8281894cbe1048ca09a013c, type: 3}
      itemPresentation: {fileID: 1000010311509396, guid: 02f32f255adf1bc49b7ab270b7b8478e,
        type: 2}
      itemOverrideMaterial: {fileID: 2100000, guid: cae8b0541f09620499e8e82bef530afc,
        type: 2}
      costPacks:
      - currency: 0
        cost: 25
        gotDiscount: 0
      onSale: 0
      salePercentage: 0
      hasLowpolyVersion: 1
      lowpolyItemPresentation: {fileID: 1000013874177546, guid: 10c3a141911d9374787e22c85cf29bb9,
        type: 2}
      lowpolyItemOverrideMaterial: {fileID: 2100000, guid: 431a3046d20b06c4eb4200fd78f21f7e,
        type: 2}
      hasUnlockEvent: 0
      unlockItemEvent:
        specialLevel: 0
        levelId: -1
    - hidden: 0
      itemId: 47
      itemName: PECADORL
      itemDescription: SCORE
      itemThumbnail: {fileID: 21300114, guid: 18391725d8281894cbe1048ca09a013c, type: 3}
      itemPresentation: {fileID: 1000013592344440, guid: 54ded12716bfa3e4ab3f5a1748a2e424,
        type: 2}
      itemOverrideMaterial: {fileID: 2100000, guid: 250f9969c3ee2124ba7af9a2713591ab,
        type: 2}
      costPacks:
      - currency: 0
        cost: 10
        gotDiscount: 0
      onSale: 0
      salePercentage: 0
      hasLowpolyVersion: 1
      lowpolyItemPresentation: {fileID: 1000013356227666, guid: 73b4109685f2e97448c1da74a4f8ea90,
        type: 2}
      lowpolyItemOverrideMaterial: {fileID: 2100000, guid: 2328176e1c47cac439bab172ec4d7c0b,
        type: 2}
      hasUnlockEvent: 0
      unlockItemEvent:
        specialLevel: 0
        levelId: -1
    - hidden: 0
      itemId: 48
      itemName: UNFORGIVEN
      itemDescription: SCORE
      itemThumbnail: {fileID: 21300060, guid: 18391725d8281894cbe1048ca09a013c, type: 3}
      itemPresentation: {fileID: 1000013592344440, guid: 54ded12716bfa3e4ab3f5a1748a2e424,
        type: 2}
      itemOverrideMaterial: {fileID: 2100000, guid: cae8b0541f09620499e8e82bef530afc,
        type: 2}
      costPacks:
      - currency: 0
        cost: 21
        gotDiscount: 0
      onSale: 0
      salePercentage: 0
      hasLowpolyVersion: 1
      lowpolyItemPresentation: {fileID: 1000013356227666, guid: 5660a50033a101f4fbe64d9d66471985,
        type: 2}
      lowpolyItemOverrideMaterial: {fileID: 2100000, guid: 431a3046d20b06c4eb4200fd78f21f7e,
        type: 2}
      hasUnlockEvent: 0
      unlockItemEvent:
        specialLevel: 0
        levelId: -1
    - hidden: 0
      itemId: 49
      itemName: METAL SLUG
      itemDescription: IDOL
      itemThumbnail: {fileID: 21300104, guid: 18391725d8281894cbe1048ca09a013c, type: 3}
      itemPresentation: {fileID: 1000010126391344, guid: 8d42f5b37bccbca4da655dbb6629b381,
        type: 2}
      itemOverrideMaterial: {fileID: 2100000, guid: 250f9969c3ee2124ba7af9a2713591ab,
        type: 2}
      costPacks:
      - currency: 0
        cost: 10
        gotDiscount: 0
      onSale: 0
      salePercentage: 0
      hasLowpolyVersion: 1
      lowpolyItemPresentation: {fileID: 1000013226430302, guid: feafe3b0e2cca6f4eb80585c9100c995,
        type: 2}
      lowpolyItemOverrideMaterial: {fileID: 2100000, guid: 2328176e1c47cac439bab172ec4d7c0b,
        type: 2}
      hasUnlockEvent: 0
      unlockItemEvent:
        specialLevel: 0
        levelId: -1
    - hidden: 0
      itemId: 50
      itemName: W.A.S.P.
      itemDescription: IDOL
      itemThumbnail: {fileID: 21300058, guid: 18391725d8281894cbe1048ca09a013c, type: 3}
      itemPresentation: {fileID: 1000010126391344, guid: 8d42f5b37bccbca4da655dbb6629b381,
        type: 2}
      itemOverrideMaterial: {fileID: 2100000, guid: d4536b28e8481a548ad6386b943484fb,
        type: 2}
      costPacks:
      - currency: 0
        cost: 18
        gotDiscount: 0
      onSale: 0
      salePercentage: 0
      hasLowpolyVersion: 1
      lowpolyItemPresentation: {fileID: 1000013226430302, guid: 8ddddd789b2e17e45b242a3c7d617f10,
        type: 2}
      lowpolyItemOverrideMaterial: {fileID: 2100000, guid: 798bc279ff09cb143910bc16b03054e5,
        type: 2}
      hasUnlockEvent: 0
      unlockItemEvent:
        specialLevel: 0
        levelId: -1
    - hidden: 0
      itemId: 51
      itemName: SNOWPIERCER
      itemDescription: AMMO
      itemThumbnail: {fileID: 21300106, guid: 18391725d8281894cbe1048ca09a013c, type: 3}
      itemPresentation: {fileID: 1000013062736786, guid: 43210341bb1b49d4e81f36e2f738cb2b,
        type: 2}
      itemOverrideMaterial: {fileID: 2100000, guid: 250f9969c3ee2124ba7af9a2713591ab,
        type: 2}
      costPacks:
      - currency: 0
        cost: 14
        gotDiscount: 0
      - currency: 1
        cost: 100
        gotDiscount: 0
      onSale: 0
      salePercentage: 0
      hasLowpolyVersion: 1
      lowpolyItemPresentation: {fileID: 1000012177151942, guid: 40adbdc6c8daa0e4fa70d2adb1c7ac7a,
        type: 2}
      lowpolyItemOverrideMaterial: {fileID: 2100000, guid: 2328176e1c47cac439bab172ec4d7c0b,
        type: 2}
      hasUnlockEvent: 0
      unlockItemEvent:
        specialLevel: 0
        levelId: -1
    - hidden: 0
      itemId: 52
      itemName: MOCTEZUMA
      itemDescription: AMMO
      itemThumbnail: {fileID: 21300048, guid: 18391725d8281894cbe1048ca09a013c, type: 3}
      itemPresentation: {fileID: 1000013062736786, guid: 43210341bb1b49d4e81f36e2f738cb2b,
        type: 2}
      itemOverrideMaterial: {fileID: 2100000, guid: 500fc02c89e663c43bdc1cb3f0f5e28b,
        type: 2}
      costPacks:
      - currency: 0
        cost: 22
        gotDiscount: 0
      onSale: 0
      salePercentage: 0
      hasLowpolyVersion: 1
      lowpolyItemPresentation: {fileID: 1000012177151942, guid: ce9fa2977d6d1a843be49e0c6fe9da30,
        type: 2}
      lowpolyItemOverrideMaterial: {fileID: 2100000, guid: b8a7e93d5575b1547b716dddbf496527,
        type: 2}
      hasUnlockEvent: 0
      unlockItemEvent:
        specialLevel: 0
        levelId: -1
    - hidden: 0
      itemId: 53
      itemName: KANZLER
      itemDescription: SCORE
      itemThumbnail: {fileID: 21300116, guid: 18391725d8281894cbe1048ca09a013c, type: 3}
      itemPresentation: {fileID: 1000014119067260, guid: 8b2ac1c2ad5736d4da41f80986e9fd8a,
        type: 2}
      itemOverrideMaterial: {fileID: 2100000, guid: 250f9969c3ee2124ba7af9a2713591ab,
        type: 2}
      costPacks:
      - currency: 0
        cost: 13
        gotDiscount: 0
      onSale: 0
      salePercentage: 0
      hasLowpolyVersion: 1
      lowpolyItemPresentation: {fileID: 1000014287408790, guid: 3932b73f7c04c1141a3eff3cf9980d07,
        type: 2}
      lowpolyItemOverrideMaterial: {fileID: 2100000, guid: 2328176e1c47cac439bab172ec4d7c0b,
        type: 2}
      hasUnlockEvent: 0
      unlockItemEvent:
        specialLevel: 0
        levelId: -1
    - hidden: 0
      itemId: 54
      itemName: FAT & FURIOUS
      itemDescription: SCORE
      itemThumbnail: {fileID: 21300030, guid: 18391725d8281894cbe1048ca09a013c, type: 3}
      itemPresentation: {fileID: 1000014119067260, guid: 8b2ac1c2ad5736d4da41f80986e9fd8a,
        type: 2}
      itemOverrideMaterial: {fileID: 2100000, guid: cae8b0541f09620499e8e82bef530afc,
        type: 2}
      costPacks:
      - currency: 0
        cost: 18
        gotDiscount: 0
      onSale: 0
      salePercentage: 0
      hasLowpolyVersion: 1
      lowpolyItemPresentation: {fileID: 1000014287408790, guid: caa290779e21ff442951017c9df6e4b2,
        type: 2}
      lowpolyItemOverrideMaterial: {fileID: 2100000, guid: 431a3046d20b06c4eb4200fd78f21f7e,
        type: 2}
      hasUnlockEvent: 0
      unlockItemEvent:
        specialLevel: 0
        levelId: -1
    - hidden: 0
      itemId: 55
      itemName: BONNIE & CLYDE
      itemDescription: IDOL
      itemThumbnail: {fileID: 21300110, guid: 18391725d8281894cbe1048ca09a013c, type: 3}
      itemPresentation: {fileID: 1000013296051594, guid: e567c3d763730b143947dad3c4e94c76,
        type: 2}
      itemOverrideMaterial: {fileID: 2100000, guid: 250f9969c3ee2124ba7af9a2713591ab,
        type: 2}
      costPacks:
      - currency: 0
        cost: 12
        gotDiscount: 0
      onSale: 0
      salePercentage: 0
      hasLowpolyVersion: 1
      lowpolyItemPresentation: {fileID: 1000010861134396, guid: 9f688f5caabd7434fb2d83fb5c09eccb,
        type: 2}
      lowpolyItemOverrideMaterial: {fileID: 2100000, guid: 2328176e1c47cac439bab172ec4d7c0b,
        type: 2}
      hasUnlockEvent: 0
      unlockItemEvent:
        specialLevel: 0
        levelId: -1
    - hidden: 0
      itemId: 56
      itemName: DUNE 2049
      itemDescription: IDOL
      itemThumbnail: {fileID: 21300020, guid: 18391725d8281894cbe1048ca09a013c, type: 3}
      itemPresentation: {fileID: 1000013296051594, guid: e567c3d763730b143947dad3c4e94c76,
        type: 2}
      itemOverrideMaterial: {fileID: 2100000, guid: cae8b0541f09620499e8e82bef530afc,
        type: 2}
      costPacks:
      - currency: 0
        cost: 15
        gotDiscount: 0
      onSale: 0
      salePercentage: 0
      hasLowpolyVersion: 1
      lowpolyItemPresentation: {fileID: 1000010861134396, guid: 2f09c811a44d1ce4ba1cba01fa65b5e2,
        type: 2}
      lowpolyItemOverrideMaterial: {fileID: 2100000, guid: 431a3046d20b06c4eb4200fd78f21f7e,
        type: 2}
      hasUnlockEvent: 0
      unlockItemEvent:
        specialLevel: 0
        levelId: -1
    - hidden: 0
      itemId: 57
      itemName: L.A. WOOKIE
      itemDescription: RICOCHET
      itemThumbnail: {fileID: 21300102, guid: 18391725d8281894cbe1048ca09a013c, type: 3}
      itemPresentation: {fileID: 1000011009246124, guid: 2ac6b60d4abb39e46bb0dee7708bc5eb,
        type: 2}
      itemOverrideMaterial: {fileID: 2100000, guid: 250f9969c3ee2124ba7af9a2713591ab,
        type: 2}
      costPacks:
      - currency: 0
        cost: 20
        gotDiscount: 0
      onSale: 0
      salePercentage: 0
      hasLowpolyVersion: 1
      lowpolyItemPresentation: {fileID: 1000010770282038, guid: 3b35effe16ca2b6408d3d44fa5a60e15,
        type: 2}
      lowpolyItemOverrideMaterial: {fileID: 2100000, guid: 2328176e1c47cac439bab172ec4d7c0b,
        type: 2}
      hasUnlockEvent: 0
      unlockItemEvent:
        specialLevel: 0
        levelId: -1
    - hidden: 0
      itemId: 58
      itemName: QUICKSILVER
      itemDescription: RICOCHET
      itemThumbnail: {fileID: 21300010, guid: 18391725d8281894cbe1048ca09a013c, type: 3}
      itemPresentation: {fileID: 1000011009246124, guid: 2ac6b60d4abb39e46bb0dee7708bc5eb,
        type: 2}
      itemOverrideMaterial: {fileID: 2100000, guid: cae8b0541f09620499e8e82bef530afc,
        type: 2}
      costPacks:
      - currency: 0
        cost: 30
        gotDiscount: 0
      onSale: 0
      salePercentage: 0
      hasLowpolyVersion: 1
      lowpolyItemPresentation: {fileID: 1000010770282038, guid: 89639a03dc860854c904a0959e959365,
        type: 2}
      lowpolyItemOverrideMaterial: {fileID: 2100000, guid: 431a3046d20b06c4eb4200fd78f21f7e,
        type: 2}
      hasUnlockEvent: 0
      unlockItemEvent:
        specialLevel: 0
        levelId: -1
    - hidden: 0
      itemId: 59
      itemName: HEAVENLY CREATURES
      itemDescription: RICOCHET
      itemThumbnail: {fileID: 21300108, guid: 18391725d8281894cbe1048ca09a013c, type: 3}
      itemPresentation: {fileID: 1000010986798362, guid: 946f1d43508921c4fb1caa9db8bc1033,
        type: 2}
      itemOverrideMaterial: {fileID: 2100000, guid: 250f9969c3ee2124ba7af9a2713591ab,
        type: 2}
      costPacks:
      - currency: 0
        cost: 25
        gotDiscount: 0
      onSale: 0
      salePercentage: 0
      hasLowpolyVersion: 1
      lowpolyItemPresentation: {fileID: 1000010768019378, guid: 37c2efbf52b4ac04599a03ee5d4c1035,
        type: 2}
      lowpolyItemOverrideMaterial: {fileID: 2100000, guid: 2328176e1c47cac439bab172ec4d7c0b,
        type: 2}
      hasUnlockEvent: 0
      unlockItemEvent:
        specialLevel: 0
        levelId: -1
    - hidden: 0
      itemId: 60
      itemName: WIDOWMAKER
      itemDescription: RICOCHET
      itemThumbnail: {fileID: 21300006, guid: 18391725d8281894cbe1048ca09a013c, type: 3}
      itemPresentation: {fileID: 1000010986798362, guid: 946f1d43508921c4fb1caa9db8bc1033,
        type: 2}
      itemOverrideMaterial: {fileID: 2100000, guid: cae8b0541f09620499e8e82bef530afc,
        type: 2}
      costPacks:
      - currency: 0
        cost: 15
        gotDiscount: 0
      - currency: 1
        cost: 25
        gotDiscount: 0
      onSale: 0
      salePercentage: 0
      hasLowpolyVersion: 1
      lowpolyItemPresentation: {fileID: 1000010768019378, guid: a116441824afb7544ae26d51d7b4f8e3,
        type: 2}
      lowpolyItemOverrideMaterial: {fileID: 2100000, guid: 431a3046d20b06c4eb4200fd78f21f7e,
        type: 2}
      hasUnlockEvent: 0
      unlockItemEvent:
        specialLevel: 0
        levelId: -1
    - hidden: 0
      itemId: 71
      itemName: DISSIDENT
      itemDescription: 
      itemThumbnail: {fileID: 21300120, guid: 18391725d8281894cbe1048ca09a013c, type: 3}
      itemPresentation: {fileID: 1000011437705598, guid: 0b8855a4a1f3f6f4cb3a68ad6487cb45,
        type: 2}
      itemOverrideMaterial: {fileID: 2100000, guid: cae8b0541f09620499e8e82bef530afc,
        type: 2}
      costPacks:
      - currency: 0
        cost: 0
        gotDiscount: 0
      onSale: 0
      salePercentage: 0
      hasLowpolyVersion: 1
      lowpolyItemPresentation: {fileID: 1000013602592030, guid: b4b24ef75a14ae94b96f74ea2e51c927,
        type: 2}
      lowpolyItemOverrideMaterial: {fileID: 2100000, guid: 431a3046d20b06c4eb4200fd78f21f7e,
        type: 2}
      hasUnlockEvent: 0
      unlockItemEvent:
        specialLevel: 0
        levelId: -1
  - category: 2
    standardItemList:
    - hidden: 0
      itemId: 21
      itemName: ARCTIC
      itemDescription: 
      itemThumbnail: {fileID: 21300048, guid: f9bd1db68aeffcc4b9d9ccc6a27a8708, type: 3}
      itemPresentation: {fileID: 1000013437628936, guid: 32094196c501912499e6c6bbca362bf7,
        type: 2}
      itemOverrideMaterial: {fileID: 2100000, guid: ce28301c7d383fb4f86db157aff9f213,
        type: 2}
      costPacks:
      - currency: 0
        cost: 15
        gotDiscount: 0
      onSale: 0
      salePercentage: 0
      hasLowpolyVersion: 0
      lowpolyItemPresentation: {fileID: 0}
      lowpolyItemOverrideMaterial: {fileID: 0}
      hasUnlockEvent: 0
      unlockItemEvent:
        specialLevel: 0
        levelId: -1
    - hidden: 0
      itemId: 72
      itemName: DISSIDENT
      itemDescription: 
      itemThumbnail: {fileID: 21300042, guid: f9bd1db68aeffcc4b9d9ccc6a27a8708, type: 3}
      itemPresentation: {fileID: 1000011202625720, guid: c7283c50bd8538c48acb3e2f0f818007,
        type: 2}
      itemOverrideMaterial: {fileID: 2100000, guid: a8e9c55a1f1613e4a9075be0bbfcee8a,
        type: 2}
      costPacks:
      - currency: 0
        cost: 0
        gotDiscount: 0
      onSale: 0
      salePercentage: 0
      hasLowpolyVersion: 0
      lowpolyItemPresentation: {fileID: 0}
      lowpolyItemOverrideMaterial: {fileID: 0}
      hasUnlockEvent: 0
      unlockItemEvent:
        specialLevel: 0
        levelId: -1
    - hidden: 0
      itemId: 22
      itemName: BUCEFALO
      itemDescription: 
      itemThumbnail: {fileID: 21300020, guid: f9bd1db68aeffcc4b9d9ccc6a27a8708, type: 3}
      itemPresentation: {fileID: 1000013437628936, guid: 32094196c501912499e6c6bbca362bf7,
        type: 2}
      itemOverrideMaterial: {fileID: 2100000, guid: 43319485779616040a1a46f6172760dc,
        type: 2}
      costPacks:
      - currency: 0
        cost: 13
        gotDiscount: 0
      - currency: 1
        cost: 2
        gotDiscount: 0
      onSale: 0
      salePercentage: 0
      hasLowpolyVersion: 0
      lowpolyItemPresentation: {fileID: 0}
      lowpolyItemOverrideMaterial: {fileID: 0}
      hasUnlockEvent: 0
      unlockItemEvent:
        specialLevel: 0
        levelId: -1
    - hidden: 0
      itemId: 23
      itemName: ESCAMOTAGE
      itemDescription: 
      itemThumbnail: {fileID: 21300050, guid: f9bd1db68aeffcc4b9d9ccc6a27a8708, type: 3}
      itemPresentation: {fileID: 1000010303244944, guid: f6ce67e2ece7ccc44a1223846c82b37f,
        type: 2}
      itemOverrideMaterial: {fileID: 2100000, guid: ce28301c7d383fb4f86db157aff9f213,
        type: 2}
      costPacks:
      - currency: 0
        cost: 15
        gotDiscount: 0
      onSale: 0
      salePercentage: 0
      hasLowpolyVersion: 0
      lowpolyItemPresentation: {fileID: 0}
      lowpolyItemOverrideMaterial: {fileID: 0}
      hasUnlockEvent: 0
      unlockItemEvent:
        specialLevel: 0
        levelId: -1
    - hidden: 0
      itemId: 24
      itemName: ZICATELA
      itemDescription: 
      itemThumbnail: {fileID: 21300012, guid: f9bd1db68aeffcc4b9d9ccc6a27a8708, type: 3}
      itemPresentation: {fileID: 1000010303244944, guid: f6ce67e2ece7ccc44a1223846c82b37f,
        type: 2}
      itemOverrideMaterial: {fileID: 2100000, guid: bdfbed54a7a622c40ba8debf0317c780,
        type: 2}
      costPacks:
      - currency: 0
        cost: 15
        gotDiscount: 0
      onSale: 0
      salePercentage: 0
      hasLowpolyVersion: 0
      lowpolyItemPresentation: {fileID: 0}
      lowpolyItemOverrideMaterial: {fileID: 0}
      hasUnlockEvent: 0
      unlockItemEvent:
        specialLevel: 0
        levelId: -1
    - hidden: 0
      itemId: 25
      itemName: VESPUCIO
      itemDescription: 
      itemThumbnail: {fileID: 21300052, guid: f9bd1db68aeffcc4b9d9ccc6a27a8708, type: 3}
      itemPresentation: {fileID: 1000012881705742, guid: 2845c0cbd772a8040a8c2ca3300329df,
        type: 2}
      itemOverrideMaterial: {fileID: 2100000, guid: ce28301c7d383fb4f86db157aff9f213,
        type: 2}
      costPacks:
      - currency: 0
        cost: 13
        gotDiscount: 0
      onSale: 0
      salePercentage: 0
      hasLowpolyVersion: 0
      lowpolyItemPresentation: {fileID: 0}
      lowpolyItemOverrideMaterial: {fileID: 0}
      hasUnlockEvent: 0
      unlockItemEvent:
        specialLevel: 0
        levelId: -1
    - hidden: 0
      itemId: 26
      itemName: R3-D3
      itemDescription: 
      itemThumbnail: {fileID: 21300024, guid: f9bd1db68aeffcc4b9d9ccc6a27a8708, type: 3}
      itemPresentation: {fileID: 1000012881705742, guid: 2845c0cbd772a8040a8c2ca3300329df,
        type: 2}
      itemOverrideMaterial: {fileID: 2100000, guid: 43319485779616040a1a46f6172760dc,
        type: 2}
      costPacks:
      - currency: 0
        cost: 17
        gotDiscount: 0
      onSale: 0
      salePercentage: 0
      hasLowpolyVersion: 0
      lowpolyItemPresentation: {fileID: 0}
      lowpolyItemOverrideMaterial: {fileID: 0}
      hasUnlockEvent: 0
      unlockItemEvent:
        specialLevel: 0
        levelId: -1
    - hidden: 0
      itemId: 27
      itemName: PREDATOR
      itemDescription: 
      itemThumbnail: {fileID: 21300054, guid: f9bd1db68aeffcc4b9d9ccc6a27a8708, type: 3}
      itemPresentation: {fileID: 1000010068961458, guid: 7a3b9003adcc1994891fb063ffde5bd5,
        type: 2}
      itemOverrideMaterial: {fileID: 2100000, guid: ce28301c7d383fb4f86db157aff9f213,
        type: 2}
      costPacks:
      - currency: 0
        cost: 17
        gotDiscount: 0
      - currency: 1
        cost: 125
        gotDiscount: 0
      onSale: 0
      salePercentage: 0
      hasLowpolyVersion: 0
      lowpolyItemPresentation: {fileID: 0}
      lowpolyItemOverrideMaterial: {fileID: 0}
      hasUnlockEvent: 0
      unlockItemEvent:
        specialLevel: 0
        levelId: -1
    - hidden: 0
      itemId: 28
      itemName: ZAPHYR
      itemDescription: 
      itemThumbnail: {fileID: 21300016, guid: f9bd1db68aeffcc4b9d9ccc6a27a8708, type: 3}
      itemPresentation: {fileID: 1000010068961458, guid: 7a3b9003adcc1994891fb063ffde5bd5,
        type: 2}
      itemOverrideMaterial: {fileID: 2100000, guid: bdfbed54a7a622c40ba8debf0317c780,
        type: 2}
      costPacks:
      - currency: 0
        cost: 15
        gotDiscount: 0
      onSale: 0
      salePercentage: 0
      hasLowpolyVersion: 0
      lowpolyItemPresentation: {fileID: 0}
      lowpolyItemOverrideMaterial: {fileID: 0}
      hasUnlockEvent: 0
      unlockItemEvent:
        specialLevel: 0
        levelId: -1
    - hidden: 0
      itemId: 29
      itemName: DRAKUL
      itemDescription: 
      itemThumbnail: {fileID: 21300056, guid: f9bd1db68aeffcc4b9d9ccc6a27a8708, type: 3}
      itemPresentation: {fileID: 1000011250784426, guid: 3f922d5f02c954d4db2f4e4ffddf5e22,
        type: 2}
      itemOverrideMaterial: {fileID: 2100000, guid: ce28301c7d383fb4f86db157aff9f213,
        type: 2}
      costPacks:
      - currency: 0
        cost: 17
        gotDiscount: 0
      onSale: 0
      salePercentage: 0
      hasLowpolyVersion: 0
      lowpolyItemPresentation: {fileID: 0}
      lowpolyItemOverrideMaterial: {fileID: 0}
      hasUnlockEvent: 0
      unlockItemEvent:
        specialLevel: 0
        levelId: -1
    - hidden: 0
      itemId: 30
      itemName: SHURIKEN
      itemDescription: 
      itemThumbnail: {fileID: 21300028, guid: f9bd1db68aeffcc4b9d9ccc6a27a8708, type: 3}
      itemPresentation: {fileID: 1000011250784426, guid: 3f922d5f02c954d4db2f4e4ffddf5e22,
        type: 2}
      itemOverrideMaterial: {fileID: 2100000, guid: 43319485779616040a1a46f6172760dc,
        type: 2}
      costPacks:
      - currency: 0
        cost: 17
        gotDiscount: 0
      - currency: 1
        cost: 70
        gotDiscount: 0
      onSale: 0
      salePercentage: 0
      hasLowpolyVersion: 0
      lowpolyItemPresentation: {fileID: 0}
      lowpolyItemOverrideMaterial: {fileID: 0}
      hasUnlockEvent: 0
      unlockItemEvent:
        specialLevel: 0
        levelId: -1
    - hidden: 0
      itemId: 31
      itemName: JOLLY JUMPER
      itemDescription: 
      itemThumbnail: {fileID: 21300058, guid: f9bd1db68aeffcc4b9d9ccc6a27a8708, type: 3}
      itemPresentation: {fileID: 1000011860592534, guid: f3348be30d71ea94ab782e8ff344f55e,
        type: 2}
      itemOverrideMaterial: {fileID: 2100000, guid: ce28301c7d383fb4f86db157aff9f213,
        type: 2}
      costPacks:
      - currency: 0
        cost: 15
        gotDiscount: 0
      onSale: 0
      salePercentage: 0
      hasLowpolyVersion: 0
      lowpolyItemPresentation: {fileID: 0}
      lowpolyItemOverrideMaterial: {fileID: 0}
      hasUnlockEvent: 0
      unlockItemEvent:
        specialLevel: 0
        levelId: -1
    - hidden: 0
      itemId: 32
      itemName: I CHING
      itemDescription: 
      itemThumbnail: {fileID: 21300000, guid: f9bd1db68aeffcc4b9d9ccc6a27a8708, type: 3}
      itemPresentation: {fileID: 1000011860592534, guid: f3348be30d71ea94ab782e8ff344f55e,
        type: 2}
      itemOverrideMaterial: {fileID: 2100000, guid: bdfbed54a7a622c40ba8debf0317c780,
        type: 2}
      costPacks:
      - currency: 0
        cost: 13
        gotDiscount: 0
      - currency: 1
        cost: 5
        gotDiscount: 0
      onSale: 0
      salePercentage: 0
      hasLowpolyVersion: 0
      lowpolyItemPresentation: {fileID: 0}
      lowpolyItemOverrideMaterial: {fileID: 0}
      hasUnlockEvent: 0
      unlockItemEvent:
        specialLevel: 0
        levelId: -1
    - hidden: 0
      itemId: 33
      itemName: THE BIG WAVE
      itemDescription: 
      itemThumbnail: {fileID: 21300060, guid: f9bd1db68aeffcc4b9d9ccc6a27a8708, type: 3}
      itemPresentation: {fileID: 1000012141387502, guid: 7052d736f8b90c0459cca86c9719cc5f,
        type: 2}
      itemOverrideMaterial: {fileID: 2100000, guid: ce28301c7d383fb4f86db157aff9f213,
        type: 2}
      costPacks:
      - currency: 0
        cost: 15
        gotDiscount: 0
      onSale: 0
      salePercentage: 0
      hasLowpolyVersion: 0
      lowpolyItemPresentation: {fileID: 0}
      lowpolyItemOverrideMaterial: {fileID: 0}
      hasUnlockEvent: 0
      unlockItemEvent:
        specialLevel: 0
        levelId: -1
    - hidden: 0
      itemId: 34
      itemName: ALLIGATOR
      itemDescription: 
      itemThumbnail: {fileID: 21300002, guid: f9bd1db68aeffcc4b9d9ccc6a27a8708, type: 3}
      itemPresentation: {fileID: 1000012141387502, guid: 7052d736f8b90c0459cca86c9719cc5f,
        type: 2}
      itemOverrideMaterial: {fileID: 2100000, guid: bdfbed54a7a622c40ba8debf0317c780,
        type: 2}
      costPacks:
      - currency: 0
        cost: 15
        gotDiscount: 0
      onSale: 0
      salePercentage: 0
      hasLowpolyVersion: 0
      lowpolyItemPresentation: {fileID: 0}
      lowpolyItemOverrideMaterial: {fileID: 0}
      hasUnlockEvent: 0
      unlockItemEvent:
        specialLevel: 0
        levelId: -1
    - hidden: 0
      itemId: 35
      itemName: MIURA
      itemDescription: 
      itemThumbnail: {fileID: 21300062, guid: f9bd1db68aeffcc4b9d9ccc6a27a8708, type: 3}
      itemPresentation: {fileID: 1000010253242158, guid: 4d9f56ad99494d94a9be4df125ae2ea6,
        type: 2}
      itemOverrideMaterial: {fileID: 2100000, guid: ce28301c7d383fb4f86db157aff9f213,
        type: 2}
      costPacks:
      - currency: 0
        cost: 17
        gotDiscount: 0
      onSale: 0
      salePercentage: 0
      hasLowpolyVersion: 0
      lowpolyItemPresentation: {fileID: 0}
      lowpolyItemOverrideMaterial: {fileID: 0}
      hasUnlockEvent: 0
      unlockItemEvent:
        specialLevel: 0
        levelId: -1
    - hidden: 0
      itemId: 36
      itemName: VENDAVAL
      itemDescription: 
      itemThumbnail: {fileID: 21300030, guid: f9bd1db68aeffcc4b9d9ccc6a27a8708, type: 3}
      itemPresentation: {fileID: 1000010253242158, guid: 4d9f56ad99494d94a9be4df125ae2ea6,
        type: 2}
      itemOverrideMaterial: {fileID: 2100000, guid: 43319485779616040a1a46f6172760dc,
        type: 2}
      costPacks:
      - currency: 0
        cost: 13
        gotDiscount: 0
      - currency: 1
        cost: 15
        gotDiscount: 0
      onSale: 0
      salePercentage: 0
      hasLowpolyVersion: 0
      lowpolyItemPresentation: {fileID: 0}
      lowpolyItemOverrideMaterial: {fileID: 0}
      hasUnlockEvent: 0
      unlockItemEvent:
        specialLevel: 0
        levelId: -1
    - hidden: 0
      itemId: 37
      itemName: SE-30
      itemDescription: 
      itemThumbnail: {fileID: 21300064, guid: f9bd1db68aeffcc4b9d9ccc6a27a8708, type: 3}
      itemPresentation: {fileID: 1000013231712170, guid: f31a858132ec41e4d9eb194ff5900870,
        type: 2}
      itemOverrideMaterial: {fileID: 2100000, guid: ce28301c7d383fb4f86db157aff9f213,
        type: 2}
      costPacks:
      - currency: 0
        cost: 13
        gotDiscount: 0
      onSale: 0
      salePercentage: 0
      hasLowpolyVersion: 0
      lowpolyItemPresentation: {fileID: 0}
      lowpolyItemOverrideMaterial: {fileID: 0}
      hasUnlockEvent: 0
      unlockItemEvent:
        specialLevel: 0
        levelId: -1
    - hidden: 0
      itemId: 38
      itemName: ROCINANTE
      itemDescription: 
      itemThumbnail: {fileID: 21300006, guid: f9bd1db68aeffcc4b9d9ccc6a27a8708, type: 3}
      itemPresentation: {fileID: 1000013231712170, guid: f31a858132ec41e4d9eb194ff5900870,
        type: 2}
      itemOverrideMaterial: {fileID: 2100000, guid: bdfbed54a7a622c40ba8debf0317c780,
        type: 2}
      costPacks:
      - currency: 0
        cost: 15
        gotDiscount: 0
      onSale: 0
      salePercentage: 0
      hasLowpolyVersion: 0
      lowpolyItemPresentation: {fileID: 0}
      lowpolyItemOverrideMaterial: {fileID: 0}
      hasUnlockEvent: 0
      unlockItemEvent:
        specialLevel: 0
        levelId: -1
    - hidden: 0
      itemId: 39
      itemName: SANDSTORM
      itemDescription: 
      itemThumbnail: {fileID: 21300066, guid: f9bd1db68aeffcc4b9d9ccc6a27a8708, type: 3}
      itemPresentation: {fileID: 1000013860854448, guid: ef34051b6ea6c4b4198545f9d21f02dc,
        type: 2}
      itemOverrideMaterial: {fileID: 2100000, guid: ce28301c7d383fb4f86db157aff9f213,
        type: 2}
      costPacks:
      - currency: 0
        cost: 17
        gotDiscount: 0
      onSale: 0
      salePercentage: 0
      hasLowpolyVersion: 0
      lowpolyItemPresentation: {fileID: 0}
      lowpolyItemOverrideMaterial: {fileID: 0}
      hasUnlockEvent: 0
      unlockItemEvent:
        specialLevel: 0
        levelId: -1
    - hidden: 0
      itemId: 40
      itemName: NAUTILUS
      itemDescription: 
      itemThumbnail: {fileID: 21300004, guid: f9bd1db68aeffcc4b9d9ccc6a27a8708, type: 3}
      itemPresentation: {fileID: 1000013860854448, guid: ef34051b6ea6c4b4198545f9d21f02dc,
        type: 2}
      itemOverrideMaterial: {fileID: 2100000, guid: bdfbed54a7a622c40ba8debf0317c780,
        type: 2}
      costPacks:
      - currency: 0
        cost: 15
        gotDiscount: 0
      onSale: 0
      salePercentage: 0
      hasLowpolyVersion: 0
      lowpolyItemPresentation: {fileID: 0}
      lowpolyItemOverrideMaterial: {fileID: 0}
      hasUnlockEvent: 0
      unlockItemEvent:
        specialLevel: 0
        levelId: -1
  displayStandardItems: 1
  shopItemSets:
  - hidden: 0
    itemId: 61
    itemName: SKATEPUNK
    itemDescription: 
    itemThumbnail: {fileID: 0}
    itemPresentation: {fileID: 0}
    itemOverrideMaterial: {fileID: 0}
    costPacks:
    - currency: 0
      cost: 38
      gotDiscount: 0
    onSale: 0
    salePercentage: 0
    linkedItemIds: 040000002500000035000000
  - hidden: 0
    itemId: 62
    itemName: IL BUONO, IL BRUTTO, IL CATTIVO
    itemDescription: 
    itemThumbnail: {fileID: 0}
    itemPresentation: {fileID: 0}
    itemOverrideMaterial: {fileID: 0}
    costPacks:
    - currency: 0
      cost: 40
      gotDiscount: 0
    - currency: 1
      cost: 150
      gotDiscount: 0
    onSale: 0
    salePercentage: 0
    linkedItemIds: 130000001f00000037000000
  - hidden: 0
    itemId: 63
    itemName: YETI HUNTER
    itemDescription: 
    itemThumbnail: {fileID: 0}
    itemPresentation: {fileID: 0}
    itemOverrideMaterial: {fileID: 0}
    costPacks:
    - currency: 0
      cost: 42
      gotDiscount: 0
    onSale: 0
    salePercentage: 0
    linkedItemIds: 140000001b00000033000000
  - hidden: 0
    itemId: 64
    itemName: SAND DWELLER
    itemDescription: 
    itemThumbnail: {fileID: 0}
    itemPresentation: {fileID: 0}
    itemOverrideMaterial: {fileID: 0}
    costPacks:
    - currency: 0
      cost: 44
      gotDiscount: 0
    onSale: 0
    salePercentage: 0
    linkedItemIds: 09000000270000002d000000
  - hidden: 0
    itemId: 65
    itemName: MAESTRANZA
    itemDescription: 
    itemThumbnail: {fileID: 0}
    itemPresentation: {fileID: 0}
    itemOverrideMaterial: {fileID: 0}
    costPacks:
    - currency: 0
      cost: 39
      gotDiscount: 0
    onSale: 0
    salePercentage: 0
    linkedItemIds: 0f000000230000002f000000
  - hidden: 0
    itemId: 66
    itemName: POLIDORI
    itemDescription: 
    itemThumbnail: {fileID: 0}
    itemPresentation: {fileID: 0}
    itemOverrideMaterial: {fileID: 0}
    costPacks:
    - currency: 0
      cost: 50
      gotDiscount: 0
    onSale: 0
    salePercentage: 0
    linkedItemIds: 070000001d0000003b000000
  - hidden: 0
    itemId: 67
    itemName: METROPOLIS
    itemDescription: 
    itemThumbnail: {fileID: 0}
    itemPresentation: {fileID: 0}
    itemOverrideMaterial: {fileID: 0}
    costPacks:
    - currency: 0
      cost: 37
      gotDiscount: 0
    onSale: 0
    salePercentage: 0
    linkedItemIds: 080000001900000031000000
  - hidden: 0
    itemId: 68
    itemName: FROZEN DEATH
    itemDescription: 
    itemThumbnail: {fileID: 0}
    itemPresentation: {fileID: 0}
    itemOverrideMaterial: {fileID: 0}
    costPacks:
    - currency: 0
      cost: 38
      gotDiscount: 0
    - currency: 1
      cost: 85
      gotDiscount: 0
    onSale: 0
    salePercentage: 0
    linkedItemIds: 030000001500000029000000
  - hidden: 0
    itemId: 69
    itemName: REDNECK
    itemDescription: 
    itemThumbnail: {fileID: 0}
    itemPresentation: {fileID: 0}
    itemOverrideMaterial: {fileID: 0}
    costPacks:
    - currency: 0
      cost: 36
      gotDiscount: 0
    onSale: 0
    salePercentage: 0
    linkedItemIds: 06000000210000002b000000
  - hidden: 0
    itemId: 70
    itemName: INDIANA CROFT
    itemDescription: 
    itemThumbnail: {fileID: 0}
    itemPresentation: {fileID: 0}
    itemOverrideMaterial: {fileID: 0}
    costPacks:
    - currency: 0
      cost: 43
      gotDiscount: 0
    onSale: 0
    salePercentage: 0
    linkedItemIds: 050000001700000039000000
  displaySets: 1
  upgradeItems:
  - hidden: 0
    itemId: 73
    itemName: MAX. HEALTH (LEVEL I)
    itemDescription: 
    itemThumbnail: {fileID: 21300006, guid: 06b1dffb8ab606e4dbe6fdd2125913b2, type: 3}
    itemPresentation: {fileID: 115050, guid: 61056594f0d9131438c2adb0a0da8fd3, type: 2}
    itemOverrideMaterial: {fileID: 0}
    costPacks:
    - currency: 0
      cost: 10
      gotDiscount: 0
    onSale: 0
    salePercentage: 0
    updgradeType: 0
    extraLife: 4
    maxAmmo: 0
    worldIdToUnlock: -1
    worldBackground: {fileID: 0}
  - hidden: 0
    itemId: 74
    itemName: MAX. HEALTH (LEVEL II)
    itemDescription: 
    itemThumbnail: {fileID: 21300006, guid: 06b1dffb8ab606e4dbe6fdd2125913b2, type: 3}
    itemPresentation: {fileID: 115050, guid: 61056594f0d9131438c2adb0a0da8fd3, type: 2}
    itemOverrideMaterial: {fileID: 0}
    costPacks:
    - currency: 0
      cost: 50
      gotDiscount: 0
    onSale: 0
    salePercentage: 0
    updgradeType: 0
    extraLife: 5
    maxAmmo: 0
    worldIdToUnlock: -1
    worldBackground: {fileID: 0}
  - hidden: 0
    itemId: 75
    itemName: MAX. HEALTH (LEVEL III)
    itemDescription: 
    itemThumbnail: {fileID: 21300006, guid: 06b1dffb8ab606e4dbe6fdd2125913b2, type: 3}
    itemPresentation: {fileID: 115050, guid: 61056594f0d9131438c2adb0a0da8fd3, type: 2}
    itemOverrideMaterial: {fileID: 0}
    costPacks:
    - currency: 0
      cost: 70
      gotDiscount: 0
    onSale: 0
    salePercentage: 0
    updgradeType: 0
    extraLife: 6
    maxAmmo: 0
    worldIdToUnlock: -1
    worldBackground: {fileID: 0}
  - hidden: 0
    itemId: 76
    itemName: MAX. AMMO (LEVEL I)
    itemDescription: 
    itemThumbnail: {fileID: 21300012, guid: 06b1dffb8ab606e4dbe6fdd2125913b2, type: 3}
    itemPresentation: {fileID: 149138, guid: eabf2c899754beb4fb8ca48cabded17a, type: 2}
    itemOverrideMaterial: {fileID: 0}
    costPacks:
    - currency: 0
      cost: 10
      gotDiscount: 0
    onSale: 0
    salePercentage: 0
    updgradeType: 1
    extraLife: 0
    maxAmmo: 18
    worldIdToUnlock: -1
    worldBackground: {fileID: 0}
  - hidden: 0
    itemId: 77
    itemName: MAX. AMMO (LEVEL II)
    itemDescription: 
    itemThumbnail: {fileID: 21300012, guid: 06b1dffb8ab606e4dbe6fdd2125913b2, type: 3}
    itemPresentation: {fileID: 149138, guid: eabf2c899754beb4fb8ca48cabded17a, type: 2}
    itemOverrideMaterial: {fileID: 0}
    costPacks:
    - currency: 0
      cost: 50
      gotDiscount: 0
    onSale: 0
    salePercentage: 0
    updgradeType: 1
    extraLife: 0
    maxAmmo: 21
    worldIdToUnlock: -1
    worldBackground: {fileID: 0}
  - hidden: 0
    itemId: 78
    itemName: MAX. AMMO (LEVEL III)
    itemDescription: 
    itemThumbnail: {fileID: 21300012, guid: 06b1dffb8ab606e4dbe6fdd2125913b2, type: 3}
    itemPresentation: {fileID: 149138, guid: eabf2c899754beb4fb8ca48cabded17a, type: 2}
    itemOverrideMaterial: {fileID: 0}
    costPacks:
    - currency: 0
      cost: 70
      gotDiscount: 0
    onSale: 0
    salePercentage: 0
    updgradeType: 1
    extraLife: 0
    maxAmmo: 24
    worldIdToUnlock: -1
    worldBackground: {fileID: 0}
  - hidden: 0
    itemId: 79
    itemName: YLDOON WORLD
    itemDescription: 
    itemThumbnail: {fileID: 21300166, guid: 45998502a6ee3694585120413b2c4df0, type: 3}
    itemPresentation: {fileID: 0}
    itemOverrideMaterial: {fileID: 0}
    costPacks:
    - currency: 0
      cost: 130
      gotDiscount: 0
    - currency: 1
      cost: 45
      gotDiscount: 0
    onSale: 0
    salePercentage: 0
    updgradeType: 2
    extraLife: 0
    maxAmmo: 0
    worldIdToUnlock: 1
    worldBackground: {fileID: 21300000, guid: f124ff550d1c0aa428d526c5e824d9d3, type: 3}
  - hidden: 0
    itemId: 80
    itemName: "MYR\xC4KK\xC4 WORLD"
    itemDescription: 
    itemThumbnail: {fileID: 21300164, guid: 45998502a6ee3694585120413b2c4df0, type: 3}
    itemPresentation: {fileID: 0}
    itemOverrideMaterial: {fileID: 0}
    costPacks:
    - currency: 0
      cost: 260
      gotDiscount: 0
    - currency: 1
      cost: 90
      gotDiscount: 0
    onSale: 0
    salePercentage: 0
    updgradeType: 2
    extraLife: 0
    maxAmmo: 0
    worldIdToUnlock: 2
    worldBackground: {fileID: 21300000, guid: 98a15ce91fe4c6b41a5b9f3eea47a4b7, type: 3}
  displayUpgrades: 0
  virtualMoneyPacks: []
  displayVirtualMoneyPacks: 0
  foldoutList: 000100
  selectedCurrency: 02000000020000000200000000000000000000000000000001000000010000000000000000000000010000000000000000000000000000000000000000000000000000000000000002000000010000000000000000000000000000000000000000000000000000000000000000000000000000000000000000000000000000000000000000000000000000000000000000000000000000000000000000000000000000000000000000000000000000000000000000000000000000000000000000000000000000000000000000000000000000000000000000000000000000000000000000000000000000000000000000000000000000000000000000000000000000000000000000000000000000000000000000000000000000000000000000000000000000000000000000000000000000000000000000000000000000000000000000000000000000000000000000000000000000000000000000000000000000000000000000000000
