%YAML 1.1
%TAG !u! tag:unity3d.com,2011:
--- !u!1 &101144
GameObject:
  m_ObjectHideFlags: 1
  m_PrefabParentObject: {fileID: 0}
  m_PrefabInternal: {fileID: 100100000}
  serializedVersion: 4
  m_Component:
  - 4: {fileID: 446538}
  m_Layer: 0
  m_Name: spine2
  m_TagString: Untagged
  m_Icon: {fileID: 0}
  m_NavMeshLayer: 0
  m_StaticEditorFlags: 0
  m_IsActive: 1
--- !u!1 &102110
GameObject:
  m_ObjectHideFlags: 1
  m_PrefabParentObject: {fileID: 0}
  m_PrefabInternal: {fileID: 100100000}
  serializedVersion: 4
  m_Component:
  - 4: {fileID: 402008}
  - 65: {fileID: 6591544}
  - 114: {fileID: 11436514}
  m_Layer: 0
  m_Name: LaegooRunArea
  m_TagString: Untagged
  m_Icon: {fileID: 0}
  m_NavMeshLayer: 0
  m_StaticEditorFlags: 0
  m_IsActive: 1
--- !u!1 &102752
GameObject:
  m_ObjectHideFlags: 1
  m_PrefabParentObject: {fileID: 0}
  m_PrefabInternal: {fileID: 100100000}
  serializedVersion: 4
  m_Component:
  - 4: {fileID: 457078}
  m_Layer: 0
  m_Name: right_leg1
  m_TagString: Untagged
  m_Icon: {fileID: 0}
  m_NavMeshLayer: 0
  m_StaticEditorFlags: 0
  m_IsActive: 1
--- !u!1 &103104
GameObject:
  m_ObjectHideFlags: 1
  m_PrefabParentObject: {fileID: 0}
  m_PrefabInternal: {fileID: 100100000}
  serializedVersion: 4
  m_Component:
  - 4: {fileID: 468810}
  m_Layer: 0
  m_Name: spine1
  m_TagString: Untagged
  m_Icon: {fileID: 0}
  m_NavMeshLayer: 0
  m_StaticEditorFlags: 0
  m_IsActive: 1
--- !u!1 &104080
GameObject:
  m_ObjectHideFlags: 1
  m_PrefabParentObject: {fileID: 0}
  m_PrefabInternal: {fileID: 100100000}
  serializedVersion: 4
  m_Component:
  - 4: {fileID: 489370}
  m_Layer: 0
  m_Name: root
  m_TagString: Untagged
  m_Icon: {fileID: 0}
  m_NavMeshLayer: 0
  m_StaticEditorFlags: 0
  m_IsActive: 1
--- !u!1 &104136
GameObject:
  m_ObjectHideFlags: 1
  m_PrefabParentObject: {fileID: 0}
  m_PrefabInternal: {fileID: 100100000}
  serializedVersion: 4
  m_Component:
  - 4: {fileID: 466520}
  m_Layer: 0
  m_Name: right_leg4
  m_TagString: Untagged
  m_Icon: {fileID: 0}
  m_NavMeshLayer: 0
  m_StaticEditorFlags: 0
  m_IsActive: 1
--- !u!1 &107740
GameObject:
  m_ObjectHideFlags: 1
  m_PrefabParentObject: {fileID: 0}
  m_PrefabInternal: {fileID: 100100000}
  serializedVersion: 4
  m_Component:
  - 4: {fileID: 475310}
  - 137: {fileID: 13761718}
  m_Layer: 12
  m_Name: laegoo
  m_TagString: Untagged
  m_Icon: {fileID: 0}
  m_NavMeshLayer: 0
  m_StaticEditorFlags: 0
  m_IsActive: 1
--- !u!1 &110776
GameObject:
  m_ObjectHideFlags: 1
  m_PrefabParentObject: {fileID: 0}
  m_PrefabInternal: {fileID: 100100000}
  serializedVersion: 4
  m_Component:
  - 4: {fileID: 477936}
  m_Layer: 0
  m_Name: spine3
  m_TagString: Untagged
  m_Icon: {fileID: 0}
  m_NavMeshLayer: 0
  m_StaticEditorFlags: 0
  m_IsActive: 1
--- !u!1 &113158
GameObject:
  m_ObjectHideFlags: 1
  m_PrefabParentObject: {fileID: 0}
  m_PrefabInternal: {fileID: 100100000}
  serializedVersion: 4
  m_Component:
  - 4: {fileID: 458772}
  m_Layer: 0
  m_Name: right_leg5
  m_TagString: Untagged
  m_Icon: {fileID: 0}
  m_NavMeshLayer: 0
  m_StaticEditorFlags: 0
  m_IsActive: 1
--- !u!1 &113768
GameObject:
  m_ObjectHideFlags: 1
  m_PrefabParentObject: {fileID: 0}
  m_PrefabInternal: {fileID: 100100000}
  serializedVersion: 4
  m_Component:
  - 4: {fileID: 488582}
  - 119: {fileID: 11945672}
  m_Layer: 0
  m_Name: ProjectorBlob
  m_TagString: Untagged
  m_Icon: {fileID: 0}
  m_NavMeshLayer: 0
  m_StaticEditorFlags: 0
  m_IsActive: 1
--- !u!1 &114432
GameObject:
  m_ObjectHideFlags: 1
  m_PrefabParentObject: {fileID: 0}
  m_PrefabInternal: {fileID: 100100000}
  serializedVersion: 4
  m_Component:
  - 4: {fileID: 475548}
  m_Layer: 0
  m_Name: tail3
  m_TagString: Untagged
  m_Icon: {fileID: 0}
  m_NavMeshLayer: 0
  m_StaticEditorFlags: 0
  m_IsActive: 1
--- !u!1 &124278
GameObject:
  m_ObjectHideFlags: 1
  m_PrefabParentObject: {fileID: 0}
  m_PrefabInternal: {fileID: 100100000}
  serializedVersion: 4
  m_Component:
  - 4: {fileID: 445860}
  - 119: {fileID: 11936134}
  m_Layer: 0
  m_Name: ProjectorBlob
  m_TagString: Untagged
  m_Icon: {fileID: 0}
  m_NavMeshLayer: 0
  m_StaticEditorFlags: 0
  m_IsActive: 1
--- !u!1 &125832
GameObject:
  m_ObjectHideFlags: 1
  m_PrefabParentObject: {fileID: 0}
  m_PrefabInternal: {fileID: 100100000}
  serializedVersion: 4
  m_Component:
  - 4: {fileID: 450714}
  m_Layer: 0
  m_Name: left_leg1
  m_TagString: Untagged
  m_Icon: {fileID: 0}
  m_NavMeshLayer: 0
  m_StaticEditorFlags: 0
  m_IsActive: 1
--- !u!1 &129798
GameObject:
  m_ObjectHideFlags: 1
  m_PrefabParentObject: {fileID: 0}
  m_PrefabInternal: {fileID: 100100000}
  serializedVersion: 4
  m_Component:
  - 4: {fileID: 444034}
  m_Layer: 0
  m_Name: spine6
  m_TagString: Untagged
  m_Icon: {fileID: 0}
  m_NavMeshLayer: 0
  m_StaticEditorFlags: 0
  m_IsActive: 1
--- !u!1 &131176
GameObject:
  m_ObjectHideFlags: 1
  m_PrefabParentObject: {fileID: 0}
  m_PrefabInternal: {fileID: 100100000}
  serializedVersion: 4
  m_Component:
  - 4: {fileID: 428958}
  m_Layer: 0
  m_Name: left_leg3
  m_TagString: Untagged
  m_Icon: {fileID: 0}
  m_NavMeshLayer: 0
  m_StaticEditorFlags: 0
  m_IsActive: 1
--- !u!1 &133108
GameObject:
  m_ObjectHideFlags: 1
  m_PrefabParentObject: {fileID: 0}
  m_PrefabInternal: {fileID: 100100000}
  serializedVersion: 4
  m_Component:
  - 4: {fileID: 470166}
  m_Layer: 0
  m_Name: tail1
  m_TagString: Untagged
  m_Icon: {fileID: 0}
  m_NavMeshLayer: 0
  m_StaticEditorFlags: 0
  m_IsActive: 1
--- !u!1 &133860
GameObject:
  m_ObjectHideFlags: 1
  m_PrefabParentObject: {fileID: 0}
  m_PrefabInternal: {fileID: 100100000}
  serializedVersion: 4
  m_Component:
  - 4: {fileID: 453466}
  m_Layer: 0
  m_Name: spine3
  m_TagString: Untagged
  m_Icon: {fileID: 0}
  m_NavMeshLayer: 0
  m_StaticEditorFlags: 0
  m_IsActive: 1
--- !u!1 &136602
GameObject:
  m_ObjectHideFlags: 1
  m_PrefabParentObject: {fileID: 0}
  m_PrefabInternal: {fileID: 100100000}
  serializedVersion: 4
  m_Component:
  - 4: {fileID: 474530}
  m_Layer: 0
  m_Name: tail2
  m_TagString: Untagged
  m_Icon: {fileID: 0}
  m_NavMeshLayer: 0
  m_StaticEditorFlags: 0
  m_IsActive: 1
--- !u!1 &138204
GameObject:
  m_ObjectHideFlags: 1
  m_PrefabParentObject: {fileID: 0}
  m_PrefabInternal: {fileID: 100100000}
  serializedVersion: 4
  m_Component:
  - 4: {fileID: 494858}
  m_Layer: 0
  m_Name: right_leg1
  m_TagString: Untagged
  m_Icon: {fileID: 0}
  m_NavMeshLayer: 0
  m_StaticEditorFlags: 0
  m_IsActive: 1
--- !u!1 &139944
GameObject:
  m_ObjectHideFlags: 1
  m_PrefabParentObject: {fileID: 0}
  m_PrefabInternal: {fileID: 100100000}
  serializedVersion: 4
  m_Component:
  - 4: {fileID: 415636}
  m_Layer: 0
  m_Name: tail4
  m_TagString: Untagged
  m_Icon: {fileID: 0}
  m_NavMeshLayer: 0
  m_StaticEditorFlags: 0
  m_IsActive: 1
--- !u!1 &140048
GameObject:
  m_ObjectHideFlags: 1
  m_PrefabParentObject: {fileID: 0}
  m_PrefabInternal: {fileID: 100100000}
  serializedVersion: 4
  m_Component:
  - 4: {fileID: 422690}
  m_Layer: 0
  m_Name: left_leg1
  m_TagString: Untagged
  m_Icon: {fileID: 0}
  m_NavMeshLayer: 0
  m_StaticEditorFlags: 0
  m_IsActive: 1
--- !u!1 &140586
GameObject:
  m_ObjectHideFlags: 0
  m_PrefabParentObject: {fileID: 0}
  m_PrefabInternal: {fileID: 100100000}
  serializedVersion: 4
  m_Component:
  - 4: {fileID: 435382}
  - 135: {fileID: 13560316}
  - 114: {fileID: 11462060}
  - 114: {fileID: 11442292}
  - 114: {fileID: 11405318}
  m_Layer: 8
  m_Name: Laegoo (1)
  m_TagString: Untagged
  m_Icon: {fileID: 0}
  m_NavMeshLayer: 0
  m_StaticEditorFlags: 0
  m_IsActive: 1
--- !u!1 &141470
GameObject:
  m_ObjectHideFlags: 0
  m_PrefabParentObject: {fileID: 0}
  m_PrefabInternal: {fileID: 100100000}
  serializedVersion: 4
  m_Component:
  - 4: {fileID: 405464}
  m_Layer: 0
  m_Name: Atrezzo_FamilyLaegoo
  m_TagString: Untagged
  m_Icon: {fileID: 0}
  m_NavMeshLayer: 0
  m_StaticEditorFlags: 0
  m_IsActive: 1
--- !u!1 &143208
GameObject:
  m_ObjectHideFlags: 1
  m_PrefabParentObject: {fileID: 0}
  m_PrefabInternal: {fileID: 100100000}
  serializedVersion: 4
  m_Component:
  - 4: {fileID: 444646}
  m_Layer: 0
  m_Name: right_leg4
  m_TagString: Untagged
  m_Icon: {fileID: 0}
  m_NavMeshLayer: 0
  m_StaticEditorFlags: 0
  m_IsActive: 1
--- !u!1 &144252
GameObject:
  m_ObjectHideFlags: 1
  m_PrefabParentObject: {fileID: 0}
  m_PrefabInternal: {fileID: 100100000}
  serializedVersion: 4
  m_Component:
  - 4: {fileID: 412878}
  m_Layer: 0
  m_Name: tail2
  m_TagString: Untagged
  m_Icon: {fileID: 0}
  m_NavMeshLayer: 0
  m_StaticEditorFlags: 0
  m_IsActive: 1
--- !u!1 &146910
GameObject:
  m_ObjectHideFlags: 1
  m_PrefabParentObject: {fileID: 0}
  m_PrefabInternal: {fileID: 100100000}
  serializedVersion: 4
  m_Component:
  - 4: {fileID: 498344}
  m_Layer: 0
  m_Name: spine4
  m_TagString: Untagged
  m_Icon: {fileID: 0}
  m_NavMeshLayer: 0
  m_StaticEditorFlags: 0
  m_IsActive: 1
--- !u!1 &148806
GameObject:
  m_ObjectHideFlags: 1
  m_PrefabParentObject: {fileID: 0}
  m_PrefabInternal: {fileID: 100100000}
  serializedVersion: 4
  m_Component:
  - 4: {fileID: 498644}
  m_Layer: 0
  m_Name: left_leg2
  m_TagString: Untagged
  m_Icon: {fileID: 0}
  m_NavMeshLayer: 0
  m_StaticEditorFlags: 0
  m_IsActive: 1
--- !u!1 &149062
GameObject:
  m_ObjectHideFlags: 1
  m_PrefabParentObject: {fileID: 0}
  m_PrefabInternal: {fileID: 100100000}
  serializedVersion: 4
  m_Component:
  - 4: {fileID: 465386}
  m_Layer: 0
  m_Name: spine5
  m_TagString: Untagged
  m_Icon: {fileID: 0}
  m_NavMeshLayer: 0
  m_StaticEditorFlags: 0
  m_IsActive: 1
--- !u!1 &149564
GameObject:
  m_ObjectHideFlags: 0
  m_PrefabParentObject: {fileID: 0}
  m_PrefabInternal: {fileID: 100100000}
  serializedVersion: 4
  m_Component:
  - 4: {fileID: 479652}
  - 135: {fileID: 13526098}
  - 114: {fileID: 11417922}
  - 114: {fileID: 11434886}
  - 114: {fileID: 11436370}
  m_Layer: 8
  m_Name: Laegoo
  m_TagString: Untagged
  m_Icon: {fileID: 0}
  m_NavMeshLayer: 0
  m_StaticEditorFlags: 0
  m_IsActive: 1
--- !u!1 &150248
GameObject:
  m_ObjectHideFlags: 1
  m_PrefabParentObject: {fileID: 0}
  m_PrefabInternal: {fileID: 100100000}
  serializedVersion: 4
  m_Component:
  - 4: {fileID: 427942}
  - 95: {fileID: 9513068}
  m_Layer: 0
  m_Name: Graphics
  m_TagString: Untagged
  m_Icon: {fileID: 0}
  m_NavMeshLayer: 0
  m_StaticEditorFlags: 0
  m_IsActive: 1
--- !u!1 &152744
GameObject:
  m_ObjectHideFlags: 1
  m_PrefabParentObject: {fileID: 0}
  m_PrefabInternal: {fileID: 100100000}
  serializedVersion: 4
  m_Component:
  - 4: {fileID: 465094}
  m_Layer: 0
  m_Name: tail4
  m_TagString: Untagged
  m_Icon: {fileID: 0}
  m_NavMeshLayer: 0
  m_StaticEditorFlags: 0
  m_IsActive: 1
--- !u!1 &154362
GameObject:
  m_ObjectHideFlags: 1
  m_PrefabParentObject: {fileID: 0}
  m_PrefabInternal: {fileID: 100100000}
  serializedVersion: 4
  m_Component:
  - 4: {fileID: 497076}
  m_Layer: 0
  m_Name: right_leg5
  m_TagString: Untagged
  m_Icon: {fileID: 0}
  m_NavMeshLayer: 0
  m_StaticEditorFlags: 0
  m_IsActive: 1
--- !u!1 &156672
GameObject:
  m_ObjectHideFlags: 1
  m_PrefabParentObject: {fileID: 0}
  m_PrefabInternal: {fileID: 100100000}
  serializedVersion: 4
  m_Component:
  - 4: {fileID: 406316}
  m_Layer: 0
  m_Name: tail1
  m_TagString: Untagged
  m_Icon: {fileID: 0}
  m_NavMeshLayer: 0
  m_StaticEditorFlags: 0
  m_IsActive: 1
--- !u!1 &160824
GameObject:
  m_ObjectHideFlags: 1
  m_PrefabParentObject: {fileID: 0}
  m_PrefabInternal: {fileID: 100100000}
  serializedVersion: 4
  m_Component:
  - 4: {fileID: 484238}
  m_Layer: 0
  m_Name: right_leg3
  m_TagString: Untagged
  m_Icon: {fileID: 0}
  m_NavMeshLayer: 0
  m_StaticEditorFlags: 0
  m_IsActive: 1
--- !u!1 &161380
GameObject:
  m_ObjectHideFlags: 1
  m_PrefabParentObject: {fileID: 0}
  m_PrefabInternal: {fileID: 100100000}
  serializedVersion: 4
  m_Component:
  - 4: {fileID: 486332}
  m_Layer: 0
  m_Name: left_leg5
  m_TagString: Untagged
  m_Icon: {fileID: 0}
  m_NavMeshLayer: 0
  m_StaticEditorFlags: 0
  m_IsActive: 1
--- !u!1 &162420
GameObject:
  m_ObjectHideFlags: 1
  m_PrefabParentObject: {fileID: 0}
  m_PrefabInternal: {fileID: 100100000}
  serializedVersion: 4
  m_Component:
  - 4: {fileID: 423546}
  m_Layer: 0
  m_Name: spine7
  m_TagString: Untagged
  m_Icon: {fileID: 0}
  m_NavMeshLayer: 0
  m_StaticEditorFlags: 0
  m_IsActive: 1
--- !u!1 &163482
GameObject:
  m_ObjectHideFlags: 1
  m_PrefabParentObject: {fileID: 0}
  m_PrefabInternal: {fileID: 100100000}
  serializedVersion: 4
  m_Component:
  - 4: {fileID: 453132}
  m_Layer: 0
  m_Name: spine4
  m_TagString: Untagged
  m_Icon: {fileID: 0}
  m_NavMeshLayer: 0
  m_StaticEditorFlags: 0
  m_IsActive: 1
--- !u!1 &167292
GameObject:
  m_ObjectHideFlags: 1
  m_PrefabParentObject: {fileID: 0}
  m_PrefabInternal: {fileID: 100100000}
  serializedVersion: 4
  m_Component:
  - 4: {fileID: 494522}
  m_Layer: 0
  m_Name: tail3
  m_TagString: Untagged
  m_Icon: {fileID: 0}
  m_NavMeshLayer: 0
  m_StaticEditorFlags: 0
  m_IsActive: 1
--- !u!1 &169064
GameObject:
  m_ObjectHideFlags: 1
  m_PrefabParentObject: {fileID: 0}
  m_PrefabInternal: {fileID: 100100000}
  serializedVersion: 4
  m_Component:
  - 4: {fileID: 488256}
  m_Layer: 0
  m_Name: spine2
  m_TagString: Untagged
  m_Icon: {fileID: 0}
  m_NavMeshLayer: 0
  m_StaticEditorFlags: 0
  m_IsActive: 1
--- !u!1 &170604
GameObject:
  m_ObjectHideFlags: 1
  m_PrefabParentObject: {fileID: 0}
  m_PrefabInternal: {fileID: 100100000}
  serializedVersion: 4
  m_Component:
  - 4: {fileID: 422532}
  - 65: {fileID: 6586290}
  - 114: {fileID: 11437668}
  m_Layer: 0
  m_Name: LaegooRunArea
  m_TagString: Untagged
  m_Icon: {fileID: 0}
  m_NavMeshLayer: 0
  m_StaticEditorFlags: 0
  m_IsActive: 1
--- !u!1 &171222
GameObject:
  m_ObjectHideFlags: 1
  m_PrefabParentObject: {fileID: 0}
  m_PrefabInternal: {fileID: 100100000}
  serializedVersion: 4
  m_Component:
  - 4: {fileID: 417888}
  m_Layer: 0
  m_Name: right_leg3
  m_TagString: Untagged
  m_Icon: {fileID: 0}
  m_NavMeshLayer: 0
  m_StaticEditorFlags: 0
  m_IsActive: 1
--- !u!1 &172120
GameObject:
  m_ObjectHideFlags: 1
  m_PrefabParentObject: {fileID: 0}
  m_PrefabInternal: {fileID: 100100000}
  serializedVersion: 4
  m_Component:
  - 4: {fileID: 487164}
  m_Layer: 0
  m_Name: left_leg4
  m_TagString: Untagged
  m_Icon: {fileID: 0}
  m_NavMeshLayer: 0
  m_StaticEditorFlags: 0
  m_IsActive: 1
--- !u!1 &174012
GameObject:
  m_ObjectHideFlags: 1
  m_PrefabParentObject: {fileID: 0}
  m_PrefabInternal: {fileID: 100100000}
  serializedVersion: 4
  m_Component:
  - 4: {fileID: 477964}
  m_Layer: 0
  m_Name: spine6
  m_TagString: Untagged
  m_Icon: {fileID: 0}
  m_NavMeshLayer: 0
  m_StaticEditorFlags: 0
  m_IsActive: 1
--- !u!1 &176736
GameObject:
  m_ObjectHideFlags: 1
  m_PrefabParentObject: {fileID: 0}
  m_PrefabInternal: {fileID: 100100000}
  serializedVersion: 4
  m_Component:
  - 4: {fileID: 400874}
  m_Layer: 0
  m_Name: left_leg3
  m_TagString: Untagged
  m_Icon: {fileID: 0}
  m_NavMeshLayer: 0
  m_StaticEditorFlags: 0
  m_IsActive: 1
--- !u!1 &178160
GameObject:
  m_ObjectHideFlags: 1
  m_PrefabParentObject: {fileID: 0}
  m_PrefabInternal: {fileID: 100100000}
  serializedVersion: 4
  m_Component:
  - 4: {fileID: 488354}
  - 95: {fileID: 9548328}
  m_Layer: 0
  m_Name: Graphics
  m_TagString: Untagged
  m_Icon: {fileID: 0}
  m_NavMeshLayer: 0
  m_StaticEditorFlags: 0
  m_IsActive: 1
--- !u!1 &180656
GameObject:
  m_ObjectHideFlags: 1
  m_PrefabParentObject: {fileID: 0}
  m_PrefabInternal: {fileID: 100100000}
  serializedVersion: 4
  m_Component:
  - 4: {fileID: 428166}
  m_Layer: 0
  m_Name: spine7
  m_TagString: Untagged
  m_Icon: {fileID: 0}
  m_NavMeshLayer: 0
  m_StaticEditorFlags: 0
  m_IsActive: 1
--- !u!1 &184454
GameObject:
  m_ObjectHideFlags: 1
  m_PrefabParentObject: {fileID: 0}
  m_PrefabInternal: {fileID: 100100000}
  serializedVersion: 4
  m_Component:
  - 4: {fileID: 458384}
  m_Layer: 0
  m_Name: root
  m_TagString: Untagged
  m_Icon: {fileID: 0}
  m_NavMeshLayer: 0
  m_StaticEditorFlags: 0
  m_IsActive: 1
--- !u!1 &185944
GameObject:
  m_ObjectHideFlags: 1
  m_PrefabParentObject: {fileID: 0}
  m_PrefabInternal: {fileID: 100100000}
  serializedVersion: 4
  m_Component:
  - 4: {fileID: 456098}
  m_Layer: 0
  m_Name: left_leg2
  m_TagString: Untagged
  m_Icon: {fileID: 0}
  m_NavMeshLayer: 0
  m_StaticEditorFlags: 0
  m_IsActive: 1
--- !u!1 &188278
GameObject:
  m_ObjectHideFlags: 1
  m_PrefabParentObject: {fileID: 0}
  m_PrefabInternal: {fileID: 100100000}
  serializedVersion: 4
  m_Component:
  - 4: {fileID: 472216}
  m_Layer: 0
  m_Name: spine5
  m_TagString: Untagged
  m_Icon: {fileID: 0}
  m_NavMeshLayer: 0
  m_StaticEditorFlags: 0
  m_IsActive: 1
--- !u!1 &191336
GameObject:
  m_ObjectHideFlags: 1
  m_PrefabParentObject: {fileID: 0}
  m_PrefabInternal: {fileID: 100100000}
  serializedVersion: 4
  m_Component:
  - 4: {fileID: 435284}
  m_Layer: 0
  m_Name: right_leg2
  m_TagString: Untagged
  m_Icon: {fileID: 0}
  m_NavMeshLayer: 0
  m_StaticEditorFlags: 0
  m_IsActive: 1
--- !u!1 &191578
GameObject:
  m_ObjectHideFlags: 1
  m_PrefabParentObject: {fileID: 0}
  m_PrefabInternal: {fileID: 100100000}
  serializedVersion: 4
  m_Component:
  - 4: {fileID: 402476}
  m_Layer: 0
  m_Name: left_leg4
  m_TagString: Untagged
  m_Icon: {fileID: 0}
  m_NavMeshLayer: 0
  m_StaticEditorFlags: 0
  m_IsActive: 1
--- !u!1 &191906
GameObject:
  m_ObjectHideFlags: 1
  m_PrefabParentObject: {fileID: 0}
  m_PrefabInternal: {fileID: 100100000}
  serializedVersion: 4
  m_Component:
  - 4: {fileID: 431248}
  m_Layer: 0
  m_Name: left_leg5
  m_TagString: Untagged
  m_Icon: {fileID: 0}
  m_NavMeshLayer: 0
  m_StaticEditorFlags: 0
  m_IsActive: 1
--- !u!1 &192328
GameObject:
  m_ObjectHideFlags: 1
  m_PrefabParentObject: {fileID: 0}
  m_PrefabInternal: {fileID: 100100000}
  serializedVersion: 4
  m_Component:
  - 4: {fileID: 442398}
  - 137: {fileID: 13753024}
  m_Layer: 12
  m_Name: laegoo
  m_TagString: Untagged
  m_Icon: {fileID: 0}
  m_NavMeshLayer: 0
  m_StaticEditorFlags: 0
  m_IsActive: 1
--- !u!1 &192454
GameObject:
  m_ObjectHideFlags: 1
  m_PrefabParentObject: {fileID: 0}
  m_PrefabInternal: {fileID: 100100000}
  serializedVersion: 4
  m_Component:
  - 4: {fileID: 462378}
  m_Layer: 0
  m_Name: spine1
  m_TagString: Untagged
  m_Icon: {fileID: 0}
  m_NavMeshLayer: 0
  m_StaticEditorFlags: 0
  m_IsActive: 1
--- !u!1 &199586
GameObject:
  m_ObjectHideFlags: 1
  m_PrefabParentObject: {fileID: 0}
  m_PrefabInternal: {fileID: 100100000}
  serializedVersion: 4
  m_Component:
  - 4: {fileID: 464612}
  m_Layer: 0
  m_Name: right_leg2
  m_TagString: Untagged
  m_Icon: {fileID: 0}
  m_NavMeshLayer: 0
  m_StaticEditorFlags: 0
  m_IsActive: 1
--- !u!4 &400874
Transform:
  m_ObjectHideFlags: 1
  m_PrefabParentObject: {fileID: 0}
  m_PrefabInternal: {fileID: 100100000}
  m_GameObject: {fileID: 176736}
  m_LocalRotation: {x: 0.70059234, y: 0.7055641, z: 0.026508514, w: 0.10318482}
  m_LocalPosition: {x: -0.920038, y: -1.2562011e-16, z: -1.5851196e-17}
  m_LocalScale: {x: 1, y: 1, z: 1}
  m_Children:
  - {fileID: 487164}
  m_Father: {fileID: 498644}
  m_RootOrder: 0
--- !u!4 &402008
Transform:
  m_ObjectHideFlags: 1
  m_PrefabParentObject: {fileID: 0}
  m_PrefabInternal: {fileID: 100100000}
  m_GameObject: {fileID: 102110}
  m_LocalRotation: {x: 0, y: -0.70710665, z: 0, w: 0.70710695}
  m_LocalPosition: {x: 104.77, y: 0.01, z: 8.9}
  m_LocalScale: {x: 1, y: 1, z: 1}
  m_Children: []
  m_Father: {fileID: 479652}
  m_RootOrder: 2
--- !u!4 &402476
Transform:
  m_ObjectHideFlags: 1
  m_PrefabParentObject: {fileID: 0}
  m_PrefabInternal: {fileID: 100100000}
  m_GameObject: {fileID: 191578}
  m_LocalRotation: {x: 0.043309677, y: 0.053063773, z: -0.3183039, w: 0.9455111}
  m_LocalPosition: {x: -0.94894964, y: 2.6224585e-16, z: 7.9322644e-17}
  m_LocalScale: {x: 1, y: 1, z: 1}
  m_Children:
  - {fileID: 486332}
  m_Father: {fileID: 428958}
  m_RootOrder: 0
--- !u!4 &405464
Transform:
  m_ObjectHideFlags: 1
  m_PrefabParentObject: {fileID: 0}
  m_PrefabInternal: {fileID: 100100000}
  m_GameObject: {fileID: 141470}
  m_LocalRotation: {x: 0, y: 0, z: 0, w: 1}
  m_LocalPosition: {x: -7.9466863, y: 1.6816149, z: 123.04001}
  m_LocalScale: {x: 1, y: 1, z: 1}
  m_Children:
  - {fileID: 479652}
  - {fileID: 435382}
  m_Father: {fileID: 0}
  m_RootOrder: 0
--- !u!4 &406316
Transform:
  m_ObjectHideFlags: 1
  m_PrefabParentObject: {fileID: 0}
  m_PrefabInternal: {fileID: 100100000}
  m_GameObject: {fileID: 156672}
  m_LocalRotation: {x: -0.0021921336, y: -0.055509534, z: -0.039399423, w: 0.9976781}
  m_LocalPosition: {x: -0.45463187, y: -3.5527136e-17, z: -3.9443044e-33}
  m_LocalScale: {x: 1, y: 1, z: 1}
  m_Children:
  - {fileID: 412878}
  m_Father: {fileID: 458384}
  m_RootOrder: 3
--- !u!4 &412878
Transform:
  m_ObjectHideFlags: 1
  m_PrefabParentObject: {fileID: 0}
  m_PrefabInternal: {fileID: 100100000}
  m_GameObject: {fileID: 144252}
  m_LocalRotation: {x: -0.0009129573, y: -0.056690782, z: -0.016076166, w: 0.9982619}
  m_LocalPosition: {x: -0.4602604, y: 7.81597e-16, z: 6.132447e-18}
  m_LocalScale: {x: 1, y: 1, z: 1}
  m_Children:
  - {fileID: 475548}
  m_Father: {fileID: 406316}
  m_RootOrder: 0
--- !u!4 &415636
Transform:
  m_ObjectHideFlags: 1
  m_PrefabParentObject: {fileID: 0}
  m_PrefabInternal: {fileID: 100100000}
  m_GameObject: {fileID: 139944}
  m_LocalRotation: {x: -0.01935123, y: 0.6637876, z: 0.021863412, w: 0.74735105}
  m_LocalPosition: {x: -0.41993144, y: 0.011334847, z: 3.4333428e-17}
  m_LocalScale: {x: 1, y: 1, z: 1}
  m_Children: []
  m_Father: {fileID: 475548}
  m_RootOrder: 0
--- !u!4 &417888
Transform:
  m_ObjectHideFlags: 1
  m_PrefabParentObject: {fileID: 0}
  m_PrefabInternal: {fileID: 100100000}
  m_GameObject: {fileID: 171222}
  m_LocalRotation: {x: 0.700666, y: 0.70555335, z: -0.026581457, w: -0.10273854}
  m_LocalPosition: {x: -0.9200402, y: 1.1781406e-16, z: 1.5848049e-16}
  m_LocalScale: {x: 1, y: 1, z: 1}
  m_Children:
  - {fileID: 444646}
  m_Father: {fileID: 435284}
  m_RootOrder: 0
--- !u!4 &422532
Transform:
  m_ObjectHideFlags: 1
  m_PrefabParentObject: {fileID: 0}
  m_PrefabInternal: {fileID: 100100000}
  m_GameObject: {fileID: 170604}
  m_LocalRotation: {x: 0, y: -0.70710665, z: 0, w: 0.70710695}
  m_LocalPosition: {x: 104.77, y: 0.01, z: 8.9}
  m_LocalScale: {x: 1, y: 1, z: 1}
  m_Children: []
  m_Father: {fileID: 435382}
  m_RootOrder: 2
--- !u!4 &422690
Transform:
  m_ObjectHideFlags: 1
  m_PrefabParentObject: {fileID: 0}
  m_PrefabInternal: {fileID: 100100000}
  m_GameObject: {fileID: 140048}
  m_LocalRotation: {x: 0.6315762, y: 0.7677019, z: 0.03662075, w: 0.10200096}
  m_LocalPosition: {x: 0.03792946, y: -0.17869322, z: 0.24745917}
  m_LocalScale: {x: 1, y: 1, z: 1}
  m_Children:
  - {fileID: 456098}
  m_Father: {fileID: 489370}
  m_RootOrder: 0
--- !u!4 &423546
Transform:
  m_ObjectHideFlags: 1
  m_PrefabParentObject: {fileID: 0}
  m_PrefabInternal: {fileID: 100100000}
  m_GameObject: {fileID: 162420}
  m_LocalRotation: {x: 0.29476008, y: 0.9555713, z: -4.046302e-17, w: -7.6560714e-17}
  m_LocalPosition: {x: -0.5620614, y: -1.1864531e-16, z: -1.941131e-17}
  m_LocalScale: {x: 1, y: 1, z: 1}
  m_Children: []
  m_Father: {fileID: 477964}
  m_RootOrder: 0
--- !u!4 &427942
Transform:
  m_ObjectHideFlags: 1
  m_PrefabParentObject: {fileID: 0}
  m_PrefabInternal: {fileID: 100100000}
  m_GameObject: {fileID: 150248}
  m_LocalRotation: {x: 0, y: 0, z: 0, w: 1}
  m_LocalPosition: {x: 65.76, y: -0, z: -12.31}
  m_LocalScale: {x: 1, y: 1, z: 1}
  m_Children:
  - {fileID: 475310}
  - {fileID: 458384}
  m_Father: {fileID: 479652}
  m_RootOrder: 1
--- !u!4 &428166
Transform:
  m_ObjectHideFlags: 1
  m_PrefabParentObject: {fileID: 0}
  m_PrefabInternal: {fileID: 100100000}
  m_GameObject: {fileID: 180656}
  m_LocalRotation: {x: 0.29476008, y: 0.9555713, z: -4.046302e-17, w: -7.6560714e-17}
  m_LocalPosition: {x: -0.5620614, y: -1.1864531e-16, z: -1.941131e-17}
  m_LocalScale: {x: 1, y: 1, z: 1}
  m_Children: []
  m_Father: {fileID: 444034}
  m_RootOrder: 0
--- !u!4 &428958
Transform:
  m_ObjectHideFlags: 1
  m_PrefabParentObject: {fileID: 0}
  m_PrefabInternal: {fileID: 100100000}
  m_GameObject: {fileID: 131176}
  m_LocalRotation: {x: 0.70059234, y: 0.7055641, z: 0.026508514, w: 0.10318482}
  m_LocalPosition: {x: -0.920038, y: -1.2562011e-16, z: -1.5851196e-17}
  m_LocalScale: {x: 1, y: 1, z: 1}
  m_Children:
  - {fileID: 402476}
  m_Father: {fileID: 456098}
  m_RootOrder: 0
--- !u!4 &431248
Transform:
  m_ObjectHideFlags: 1
  m_PrefabParentObject: {fileID: 0}
  m_PrefabInternal: {fileID: 100100000}
  m_GameObject: {fileID: 191906}
  m_LocalRotation: {x: -0.0024991625, y: -0.013741765, z: -0.1789137, w: 0.9837656}
  m_LocalPosition: {x: -0.298497, y: 1.18208676e-17, z: 4.704674e-17}
  m_LocalScale: {x: 1, y: 1, z: 1}
  m_Children: []
  m_Father: {fileID: 487164}
  m_RootOrder: 0
--- !u!4 &435284
Transform:
  m_ObjectHideFlags: 1
  m_PrefabParentObject: {fileID: 0}
  m_PrefabInternal: {fileID: 100100000}
  m_GameObject: {fileID: 191336}
  m_LocalRotation: {x: 0.7125514, y: 0.6862187, z: -0.03644119, w: 0.14158562}
  m_LocalPosition: {x: -0.6886592, y: -1.2512338e-16, z: 5.3290704e-17}
  m_LocalScale: {x: 1, y: 1, z: 1}
  m_Children:
  - {fileID: 417888}
  m_Father: {fileID: 457078}
  m_RootOrder: 0
--- !u!4 &435382
Transform:
  m_ObjectHideFlags: 1
  m_PrefabParentObject: {fileID: 0}
  m_PrefabInternal: {fileID: 100100000}
  m_GameObject: {fileID: 140586}
  m_LocalRotation: {x: 0, y: 0.70710665, z: 0, w: 0.70710695}
  m_LocalPosition: {x: -1.0533137, y: -2.6816149, z: 51.759995}
  m_LocalScale: {x: 1, y: 1, z: 1}
  m_Children:
  - {fileID: 488582}
  - {fileID: 488354}
  - {fileID: 422532}
  m_Father: {fileID: 405464}
  m_RootOrder: 1
--- !u!4 &442398
Transform:
  m_ObjectHideFlags: 1
  m_PrefabParentObject: {fileID: 0}
  m_PrefabInternal: {fileID: 100100000}
  m_GameObject: {fileID: 192328}
  m_LocalRotation: {x: 0, y: 0, z: 0, w: 1}
  m_LocalPosition: {x: 0, y: 0, z: 0}
  m_LocalScale: {x: 1, y: 1, z: 1}
  m_Children: []
  m_Father: {fileID: 488354}
  m_RootOrder: 0
--- !u!4 &444034
Transform:
  m_ObjectHideFlags: 1
  m_PrefabParentObject: {fileID: 0}
  m_PrefabInternal: {fileID: 100100000}
  m_GameObject: {fileID: 129798}
  m_LocalRotation: {x: 3.596934e-16, y: 1.2041468e-16, z: 0.46104252, w: 0.8873781}
  m_LocalPosition: {x: -0.4136234, y: -7.105427e-17, z: -6.322621e-17}
  m_LocalScale: {x: 1, y: 1, z: 1}
  m_Children:
  - {fileID: 428166}
  m_Father: {fileID: 465386}
  m_RootOrder: 0
--- !u!4 &444646
Transform:
  m_ObjectHideFlags: 1
  m_PrefabParentObject: {fileID: 0}
  m_PrefabInternal: {fileID: 100100000}
  m_GameObject: {fileID: 143208}
  m_LocalRotation: {x: -0.043309458, y: -0.053063467, z: -0.3183034, w: 0.9455113}
  m_LocalPosition: {x: -0.94894934, y: 3.7432226e-16, z: -1.8743112e-16}
  m_LocalScale: {x: 1, y: 1, z: 1}
  m_Children:
  - {fileID: 497076}
  m_Father: {fileID: 417888}
  m_RootOrder: 0
--- !u!4 &445860
Transform:
  m_ObjectHideFlags: 1
  m_PrefabParentObject: {fileID: 0}
  m_PrefabInternal: {fileID: 100100000}
  m_GameObject: {fileID: 124278}
  m_LocalRotation: {x: -0.7071068, y: -0.000000059604645, z: -0.00000008940697, w: -0.70710677}
  m_LocalPosition: {x: 65.76, y: 11.9, z: -12.31}
  m_LocalScale: {x: 1, y: 1, z: 1}
  m_Children: []
  m_Father: {fileID: 479652}
  m_RootOrder: 0
--- !u!4 &446538
Transform:
  m_ObjectHideFlags: 1
  m_PrefabParentObject: {fileID: 0}
  m_PrefabInternal: {fileID: 100100000}
  m_GameObject: {fileID: 101144}
  m_LocalRotation: {x: -2.500324e-19, y: 3.4819294e-17, z: -0.07484353, w: 0.9971953}
  m_LocalPosition: {x: -0.45194128, y: -3.1974422e-16, z: -4.309229e-17}
  m_LocalScale: {x: 1, y: 1, z: 1}
  m_Children:
  - {fileID: 453466}
  m_Father: {fileID: 462378}
  m_RootOrder: 0
--- !u!4 &450714
Transform:
  m_ObjectHideFlags: 1
  m_PrefabParentObject: {fileID: 0}
  m_PrefabInternal: {fileID: 100100000}
  m_GameObject: {fileID: 125832}
  m_LocalRotation: {x: 0.6315762, y: 0.7677019, z: 0.03662075, w: 0.10200096}
  m_LocalPosition: {x: 0.03792946, y: -0.17869322, z: 0.24745917}
  m_LocalScale: {x: 1, y: 1, z: 1}
  m_Children:
  - {fileID: 498644}
  m_Father: {fileID: 458384}
  m_RootOrder: 0
--- !u!4 &453132
Transform:
  m_ObjectHideFlags: 1
  m_PrefabParentObject: {fileID: 0}
  m_PrefabInternal: {fileID: 100100000}
  m_GameObject: {fileID: 163482}
  m_LocalRotation: {x: -2.1161218e-18, y: -5.8942634e-17, z: -0.035878267, w: 0.9993562}
  m_LocalPosition: {x: -0.48155525, y: 3.745026e-16, z: -6.488803e-17}
  m_LocalScale: {x: 1, y: 1, z: 1}
  m_Children:
  - {fileID: 465386}
  m_Father: {fileID: 453466}
  m_RootOrder: 0
--- !u!4 &453466
Transform:
  m_ObjectHideFlags: 1
  m_PrefabParentObject: {fileID: 0}
  m_PrefabInternal: {fileID: 100100000}
  m_GameObject: {fileID: 133860}
  m_LocalRotation: {x: 4.1973265e-17, y: 4.4418896e-18, z: -0.05967898, w: 0.99821764}
  m_LocalPosition: {x: -0.3277095, y: -3.6476097e-17, z: -4.0045875e-17}
  m_LocalScale: {x: 1, y: 1, z: 1}
  m_Children:
  - {fileID: 453132}
  m_Father: {fileID: 446538}
  m_RootOrder: 0
--- !u!4 &456098
Transform:
  m_ObjectHideFlags: 1
  m_PrefabParentObject: {fileID: 0}
  m_PrefabInternal: {fileID: 100100000}
  m_GameObject: {fileID: 185944}
  m_LocalRotation: {x: 0.7125503, y: 0.68622, z: 0.036441468, w: -0.14158493}
  m_LocalPosition: {x: -0.6886592, y: -2.9994318e-16, z: -5.781144e-17}
  m_LocalScale: {x: 1, y: 1, z: 1}
  m_Children:
  - {fileID: 428958}
  m_Father: {fileID: 422690}
  m_RootOrder: 0
--- !u!4 &457078
Transform:
  m_ObjectHideFlags: 1
  m_PrefabParentObject: {fileID: 0}
  m_PrefabInternal: {fileID: 100100000}
  m_GameObject: {fileID: 102752}
  m_LocalRotation: {x: 0.63149166, y: 0.7677118, z: -0.036614195, w: -0.102451175}
  m_LocalPosition: {x: 0.037930384, y: -0.17868921, z: -0.24745898}
  m_LocalScale: {x: 1, y: 1, z: 1}
  m_Children:
  - {fileID: 435284}
  m_Father: {fileID: 489370}
  m_RootOrder: 1
--- !u!4 &458384
Transform:
  m_ObjectHideFlags: 1
  m_PrefabParentObject: {fileID: 0}
  m_PrefabInternal: {fileID: 100100000}
  m_GameObject: {fileID: 184454}
  m_LocalRotation: {x: -0.11378725, y: -0.6978915, z: 0.11378725, w: 0.6978915}
  m_LocalPosition: {x: -1.9721522e-33, y: 2.192779, z: -0.3608704}
  m_LocalScale: {x: 0.99999994, y: 1, z: 1}
  m_Children:
  - {fileID: 450714}
  - {fileID: 494858}
  - {fileID: 462378}
  - {fileID: 406316}
  m_Father: {fileID: 427942}
  m_RootOrder: 1
--- !u!4 &458772
Transform:
  m_ObjectHideFlags: 1
  m_PrefabParentObject: {fileID: 0}
  m_PrefabInternal: {fileID: 100100000}
  m_GameObject: {fileID: 113158}
  m_LocalRotation: {x: 0.9837165, y: -0.17890519, z: 0.016893888, w: 0.0030724346}
  m_LocalPosition: {x: -0.29849684, y: 9.611111e-17, z: 9.15089e-17}
  m_LocalScale: {x: 1, y: 1, z: 1}
  m_Children: []
  m_Father: {fileID: 466520}
  m_RootOrder: 0
--- !u!4 &462378
Transform:
  m_ObjectHideFlags: 1
  m_PrefabParentObject: {fileID: 0}
  m_PrefabInternal: {fileID: 100100000}
  m_GameObject: {fileID: 192454}
  m_LocalRotation: {x: 0.08222285, y: 0.996614, z: -5.599031e-17, w: -6.60597e-17}
  m_LocalPosition: {x: 0.4836192, y: -0.11423548, z: -1.5853358e-17}
  m_LocalScale: {x: 1, y: 1, z: 1}
  m_Children:
  - {fileID: 446538}
  m_Father: {fileID: 458384}
  m_RootOrder: 2
--- !u!4 &464612
Transform:
  m_ObjectHideFlags: 1
  m_PrefabParentObject: {fileID: 0}
  m_PrefabInternal: {fileID: 100100000}
  m_GameObject: {fileID: 199586}
  m_LocalRotation: {x: 0.7125514, y: 0.6862187, z: -0.03644119, w: 0.14158562}
  m_LocalPosition: {x: -0.6886592, y: -1.2512338e-16, z: 5.3290704e-17}
  m_LocalScale: {x: 1, y: 1, z: 1}
  m_Children:
  - {fileID: 484238}
  m_Father: {fileID: 494858}
  m_RootOrder: 0
--- !u!4 &465094
Transform:
  m_ObjectHideFlags: 1
  m_PrefabParentObject: {fileID: 0}
  m_PrefabInternal: {fileID: 100100000}
  m_GameObject: {fileID: 152744}
  m_LocalRotation: {x: -0.01935123, y: 0.6637876, z: 0.021863412, w: 0.74735105}
  m_LocalPosition: {x: -0.41993144, y: 0.011334847, z: 3.4333428e-17}
  m_LocalScale: {x: 1, y: 1, z: 1}
  m_Children: []
  m_Father: {fileID: 494522}
  m_RootOrder: 0
--- !u!4 &465386
Transform:
  m_ObjectHideFlags: 1
  m_PrefabParentObject: {fileID: 0}
  m_PrefabInternal: {fileID: 100100000}
  m_GameObject: {fileID: 149062}
  m_LocalRotation: {x: 5.743846e-17, y: 2.3509214e-17, z: -0.07508426, w: 0.9971772}
  m_LocalPosition: {x: -0.39928716, y: 4.607448e-16, z: -5.64489e-17}
  m_LocalScale: {x: 1, y: 1, z: 1}
  m_Children:
  - {fileID: 444034}
  m_Father: {fileID: 453132}
  m_RootOrder: 0
--- !u!4 &466520
Transform:
  m_ObjectHideFlags: 1
  m_PrefabParentObject: {fileID: 0}
  m_PrefabInternal: {fileID: 100100000}
  m_GameObject: {fileID: 104136}
  m_LocalRotation: {x: -0.043309458, y: -0.053063467, z: -0.3183034, w: 0.9455113}
  m_LocalPosition: {x: -0.94894934, y: 3.7432226e-16, z: -1.8743112e-16}
  m_LocalScale: {x: 1, y: 1, z: 1}
  m_Children:
  - {fileID: 458772}
  m_Father: {fileID: 484238}
  m_RootOrder: 0
--- !u!4 &468810
Transform:
  m_ObjectHideFlags: 1
  m_PrefabParentObject: {fileID: 0}
  m_PrefabInternal: {fileID: 100100000}
  m_GameObject: {fileID: 103104}
  m_LocalRotation: {x: 0.08222285, y: 0.996614, z: -5.599031e-17, w: -6.60597e-17}
  m_LocalPosition: {x: 0.4836192, y: -0.11423548, z: -1.5853358e-17}
  m_LocalScale: {x: 1, y: 1, z: 1}
  m_Children:
  - {fileID: 488256}
  m_Father: {fileID: 489370}
  m_RootOrder: 2
--- !u!4 &470166
Transform:
  m_ObjectHideFlags: 1
  m_PrefabParentObject: {fileID: 0}
  m_PrefabInternal: {fileID: 100100000}
  m_GameObject: {fileID: 133108}
  m_LocalRotation: {x: -0.0021921336, y: -0.055509534, z: -0.039399423, w: 0.9976781}
  m_LocalPosition: {x: -0.45463187, y: -3.5527136e-17, z: -3.9443044e-33}
  m_LocalScale: {x: 1, y: 1, z: 1}
  m_Children:
  - {fileID: 474530}
  m_Father: {fileID: 489370}
  m_RootOrder: 3
--- !u!4 &472216
Transform:
  m_ObjectHideFlags: 1
  m_PrefabParentObject: {fileID: 0}
  m_PrefabInternal: {fileID: 100100000}
  m_GameObject: {fileID: 188278}
  m_LocalRotation: {x: 5.743846e-17, y: 2.3509214e-17, z: -0.07508426, w: 0.9971772}
  m_LocalPosition: {x: -0.39928716, y: 4.607448e-16, z: -5.64489e-17}
  m_LocalScale: {x: 1, y: 1, z: 1}
  m_Children:
  - {fileID: 477964}
  m_Father: {fileID: 498344}
  m_RootOrder: 0
--- !u!4 &474530
Transform:
  m_ObjectHideFlags: 1
  m_PrefabParentObject: {fileID: 0}
  m_PrefabInternal: {fileID: 100100000}
  m_GameObject: {fileID: 136602}
  m_LocalRotation: {x: -0.0009129573, y: -0.056690782, z: -0.016076166, w: 0.9982619}
  m_LocalPosition: {x: -0.4602604, y: 7.81597e-16, z: 6.132447e-18}
  m_LocalScale: {x: 1, y: 1, z: 1}
  m_Children:
  - {fileID: 494522}
  m_Father: {fileID: 470166}
  m_RootOrder: 0
--- !u!4 &475310
Transform:
  m_ObjectHideFlags: 1
  m_PrefabParentObject: {fileID: 0}
  m_PrefabInternal: {fileID: 100100000}
  m_GameObject: {fileID: 107740}
  m_LocalRotation: {x: 0, y: 0, z: 0, w: 1}
  m_LocalPosition: {x: 0, y: 0, z: 0}
  m_LocalScale: {x: 1, y: 1, z: 1}
  m_Children: []
  m_Father: {fileID: 427942}
  m_RootOrder: 0
--- !u!4 &475548
Transform:
  m_ObjectHideFlags: 1
  m_PrefabParentObject: {fileID: 0}
  m_PrefabInternal: {fileID: 100100000}
  m_GameObject: {fileID: 114432}
  m_LocalRotation: {x: -0.006874157, y: -0.06140533, z: -0.11103972, w: 0.9918933}
  m_LocalPosition: {x: -0.6804247, y: 8.5152926e-16, z: 1.3660982e-17}
  m_LocalScale: {x: 1, y: 1, z: 1}
  m_Children:
  - {fileID: 415636}
  m_Father: {fileID: 412878}
  m_RootOrder: 0
--- !u!4 &477936
Transform:
  m_ObjectHideFlags: 1
  m_PrefabParentObject: {fileID: 0}
  m_PrefabInternal: {fileID: 100100000}
  m_GameObject: {fileID: 110776}
  m_LocalRotation: {x: 4.1973265e-17, y: 4.4418896e-18, z: -0.05967898, w: 0.99821764}
  m_LocalPosition: {x: -0.3277095, y: -3.6476097e-17, z: -4.0045875e-17}
  m_LocalScale: {x: 1, y: 1, z: 1}
  m_Children:
  - {fileID: 498344}
  m_Father: {fileID: 488256}
  m_RootOrder: 0
--- !u!4 &477964
Transform:
  m_ObjectHideFlags: 1
  m_PrefabParentObject: {fileID: 0}
  m_PrefabInternal: {fileID: 100100000}
  m_GameObject: {fileID: 174012}
  m_LocalRotation: {x: 3.596934e-16, y: 1.2041468e-16, z: 0.46104252, w: 0.8873781}
  m_LocalPosition: {x: -0.4136234, y: -7.105427e-17, z: -6.322621e-17}
  m_LocalScale: {x: 1, y: 1, z: 1}
  m_Children:
  - {fileID: 423546}
  m_Father: {fileID: 472216}
  m_RootOrder: 0
--- !u!4 &479652
Transform:
  m_ObjectHideFlags: 1
  m_PrefabParentObject: {fileID: 0}
  m_PrefabInternal: {fileID: 100100000}
  m_GameObject: {fileID: 149564}
  m_LocalRotation: {x: 0, y: 0.70710665, z: 0, w: 0.70710695}
  m_LocalPosition: {x: -1.0533137, y: -2.6816149, z: 51.759995}
  m_LocalScale: {x: 1, y: 1, z: 1}
  m_Children:
  - {fileID: 445860}
  - {fileID: 427942}
  - {fileID: 402008}
  m_Father: {fileID: 405464}
  m_RootOrder: 0
--- !u!4 &484238
Transform:
  m_ObjectHideFlags: 1
  m_PrefabParentObject: {fileID: 0}
  m_PrefabInternal: {fileID: 100100000}
  m_GameObject: {fileID: 160824}
  m_LocalRotation: {x: 0.700666, y: 0.70555335, z: -0.026581457, w: -0.10273854}
  m_LocalPosition: {x: -0.9200402, y: 1.1781406e-16, z: 1.5848049e-16}
  m_LocalScale: {x: 1, y: 1, z: 1}
  m_Children:
  - {fileID: 466520}
  m_Father: {fileID: 464612}
  m_RootOrder: 0
--- !u!4 &486332
Transform:
  m_ObjectHideFlags: 1
  m_PrefabParentObject: {fileID: 0}
  m_PrefabInternal: {fileID: 100100000}
  m_GameObject: {fileID: 161380}
  m_LocalRotation: {x: -0.0024991625, y: -0.013741765, z: -0.1789137, w: 0.9837656}
  m_LocalPosition: {x: -0.298497, y: 1.18208676e-17, z: 4.704674e-17}
  m_LocalScale: {x: 1, y: 1, z: 1}
  m_Children: []
  m_Father: {fileID: 402476}
  m_RootOrder: 0
--- !u!4 &487164
Transform:
  m_ObjectHideFlags: 1
  m_PrefabParentObject: {fileID: 0}
  m_PrefabInternal: {fileID: 100100000}
  m_GameObject: {fileID: 172120}
  m_LocalRotation: {x: 0.043309677, y: 0.053063773, z: -0.3183039, w: 0.9455111}
  m_LocalPosition: {x: -0.94894964, y: 2.6224585e-16, z: 7.9322644e-17}
  m_LocalScale: {x: 1, y: 1, z: 1}
  m_Children:
  - {fileID: 431248}
  m_Father: {fileID: 400874}
  m_RootOrder: 0
--- !u!4 &488256
Transform:
  m_ObjectHideFlags: 1
  m_PrefabParentObject: {fileID: 0}
  m_PrefabInternal: {fileID: 100100000}
  m_GameObject: {fileID: 169064}
  m_LocalRotation: {x: -2.500324e-19, y: 3.4819294e-17, z: -0.07484353, w: 0.9971953}
  m_LocalPosition: {x: -0.45194128, y: -3.1974422e-16, z: -4.309229e-17}
  m_LocalScale: {x: 1, y: 1, z: 1}
  m_Children:
  - {fileID: 477936}
  m_Father: {fileID: 468810}
  m_RootOrder: 0
--- !u!4 &488354
Transform:
  m_ObjectHideFlags: 1
  m_PrefabParentObject: {fileID: 0}
  m_PrefabInternal: {fileID: 100100000}
  m_GameObject: {fileID: 178160}
  m_LocalRotation: {x: 0, y: 0, z: 0, w: 1}
  m_LocalPosition: {x: 62.7, y: 0, z: -9.59}
  m_LocalScale: {x: 0.75, y: 0.75, z: 0.75}
  m_Children:
  - {fileID: 442398}
  - {fileID: 489370}
  m_Father: {fileID: 435382}
  m_RootOrder: 1
--- !u!4 &488582
Transform:
  m_ObjectHideFlags: 1
  m_PrefabParentObject: {fileID: 0}
  m_PrefabInternal: {fileID: 100100000}
  m_GameObject: {fileID: 113768}
  m_LocalRotation: {x: -0.7071068, y: -0.000000059604645, z: -0.00000008940697, w: -0.70710677}
  m_LocalPosition: {x: 62.7, y: 11.9, z: -9.59}
  m_LocalScale: {x: 0.75, y: 0.75, z: 0.75}
  m_Children: []
  m_Father: {fileID: 435382}
  m_RootOrder: 0
--- !u!4 &489370
Transform:
  m_ObjectHideFlags: 1
  m_PrefabParentObject: {fileID: 0}
  m_PrefabInternal: {fileID: 100100000}
  m_GameObject: {fileID: 104080}
  m_LocalRotation: {x: -0.11378725, y: -0.6978915, z: 0.11378725, w: 0.6978915}
  m_LocalPosition: {x: -1.9721522e-33, y: 2.192779, z: -0.3608704}
  m_LocalScale: {x: 0.99999994, y: 1, z: 1}
  m_Children:
  - {fileID: 422690}
  - {fileID: 457078}
  - {fileID: 468810}
  - {fileID: 470166}
  m_Father: {fileID: 488354}
  m_RootOrder: 1
--- !u!4 &494522
Transform:
  m_ObjectHideFlags: 1
  m_PrefabParentObject: {fileID: 0}
  m_PrefabInternal: {fileID: 100100000}
  m_GameObject: {fileID: 167292}
  m_LocalRotation: {x: -0.006874157, y: -0.06140533, z: -0.11103972, w: 0.9918933}
  m_LocalPosition: {x: -0.6804247, y: 8.5152926e-16, z: 1.3660982e-17}
  m_LocalScale: {x: 1, y: 1, z: 1}
  m_Children:
  - {fileID: 465094}
  m_Father: {fileID: 474530}
  m_RootOrder: 0
--- !u!4 &494858
Transform:
  m_ObjectHideFlags: 1
  m_PrefabParentObject: {fileID: 0}
  m_PrefabInternal: {fileID: 100100000}
  m_GameObject: {fileID: 138204}
  m_LocalRotation: {x: 0.63149166, y: 0.7677118, z: -0.036614195, w: -0.102451175}
  m_LocalPosition: {x: 0.037930384, y: -0.17868921, z: -0.24745898}
  m_LocalScale: {x: 1, y: 1, z: 1}
  m_Children:
  - {fileID: 464612}
  m_Father: {fileID: 458384}
  m_RootOrder: 1
--- !u!4 &497076
Transform:
  m_ObjectHideFlags: 1
  m_PrefabParentObject: {fileID: 0}
  m_PrefabInternal: {fileID: 100100000}
  m_GameObject: {fileID: 154362}
  m_LocalRotation: {x: 0.9837165, y: -0.17890519, z: 0.016893888, w: 0.0030724346}
  m_LocalPosition: {x: -0.29849684, y: 9.611111e-17, z: 9.15089e-17}
  m_LocalScale: {x: 1, y: 1, z: 1}
  m_Children: []
  m_Father: {fileID: 444646}
  m_RootOrder: 0
--- !u!4 &498344
Transform:
  m_ObjectHideFlags: 1
  m_PrefabParentObject: {fileID: 0}
  m_PrefabInternal: {fileID: 100100000}
  m_GameObject: {fileID: 146910}
  m_LocalRotation: {x: -2.1161218e-18, y: -5.8942634e-17, z: -0.035878267, w: 0.9993562}
  m_LocalPosition: {x: -0.48155525, y: 3.745026e-16, z: -6.488803e-17}
  m_LocalScale: {x: 1, y: 1, z: 1}
  m_Children:
  - {fileID: 472216}
  m_Father: {fileID: 477936}
  m_RootOrder: 0
--- !u!4 &498644
Transform:
  m_ObjectHideFlags: 1
  m_PrefabParentObject: {fileID: 0}
  m_PrefabInternal: {fileID: 100100000}
  m_GameObject: {fileID: 148806}
  m_LocalRotation: {x: 0.7125503, y: 0.68622, z: 0.036441468, w: -0.14158493}
  m_LocalPosition: {x: -0.6886592, y: -2.9994318e-16, z: -5.781144e-17}
  m_LocalScale: {x: 1, y: 1, z: 1}
  m_Children:
  - {fileID: 400874}
  m_Father: {fileID: 450714}
  m_RootOrder: 0
--- !u!65 &6586290
BoxCollider:
  m_ObjectHideFlags: 1
  m_PrefabParentObject: {fileID: 0}
  m_PrefabInternal: {fileID: 100100000}
  m_GameObject: {fileID: 170604}
  m_Material: {fileID: 0}
  m_IsTrigger: 1
  m_Enabled: 1
  serializedVersion: 2
  m_Size: {x: 10, y: 6, z: 1}
  m_Center: {x: 0, y: 3, z: 0}
--- !u!65 &6591544
BoxCollider:
  m_ObjectHideFlags: 1
  m_PrefabParentObject: {fileID: 0}
  m_PrefabInternal: {fileID: 100100000}
  m_GameObject: {fileID: 102110}
  m_Material: {fileID: 0}
  m_IsTrigger: 1
  m_Enabled: 1
  serializedVersion: 2
  m_Size: {x: 10, y: 6, z: 1}
  m_Center: {x: 0, y: 3, z: 0}
--- !u!95 &9513068
Animator:
  serializedVersion: 3
  m_ObjectHideFlags: 1
  m_PrefabParentObject: {fileID: 0}
  m_PrefabInternal: {fileID: 100100000}
  m_GameObject: {fileID: 150248}
  m_Enabled: 1
  m_Avatar: {fileID: 9000000, guid: 1059743637da3b44cb286481bb19a03f, type: 3}
  m_Controller: {fileID: 9100000, guid: f75c3ef6b96cd974491b51e89f261b1d, type: 2}
  m_CullingMode: 1
  m_UpdateMode: 0
  m_ApplyRootMotion: 0
  m_LinearVelocityBlending: 0
  m_WarningMessage: 
  m_HasTransformHierarchy: 1
  m_AllowConstantClipSamplingOptimization: 1
--- !u!95 &9548328
Animator:
  serializedVersion: 3
  m_ObjectHideFlags: 1
  m_PrefabParentObject: {fileID: 0}
  m_PrefabInternal: {fileID: 100100000}
  m_GameObject: {fileID: 178160}
  m_Enabled: 1
  m_Avatar: {fileID: 9000000, guid: 1059743637da3b44cb286481bb19a03f, type: 3}
  m_Controller: {fileID: 9100000, guid: f75c3ef6b96cd974491b51e89f261b1d, type: 2}
  m_CullingMode: 1
  m_UpdateMode: 0
  m_ApplyRootMotion: 0
  m_LinearVelocityBlending: 0
  m_WarningMessage: 
  m_HasTransformHierarchy: 1
  m_AllowConstantClipSamplingOptimization: 1
--- !u!114 &11405318
MonoBehaviour:
  m_ObjectHideFlags: 1
  m_PrefabParentObject: {fileID: 0}
  m_PrefabInternal: {fileID: 100100000}
  m_GameObject: {fileID: 140586}
  m_Enabled: 1
  m_EditorHideFlags: 0
  m_Script: {fileID: 11500000, guid: c00d5186082e140488ae1e4733aa9eb3, type: 3}
  m_Name: 
  m_EditorClassIdentifier: 
  associatedPoint: {fileID: 0}
  alwaysVisible: 0
--- !u!114 &11417922
MonoBehaviour:
  m_ObjectHideFlags: 1
  m_PrefabParentObject: {fileID: 0}
  m_PrefabInternal: {fileID: 100100000}
  m_GameObject: {fileID: 149564}
  m_Enabled: 1
  m_EditorHideFlags: 0
  m_Script: {fileID: 11500000, guid: d011e4604afe7e54c823742df602be2f, type: 3}
  m_Name: 
  m_EditorClassIdentifier: 
  lives: 1
  score: -100
  addMultiplierHit: 0
  isCritical: 0
  isDetectableThreat: 0
  threatTarget: {fileID: 0}
  entityRenderer: {fileID: 0}
  hitEffect: {fileID: 120114, guid: dcc6fd9fe71687544a07fc1bcefbe71f, type: 2}
  critEffect: {fileID: 195050, guid: 07d6c41d965ea9647b31708f4eba546e, type: 2}
  entityRagdoll: {fileID: 0}
  topEntityBone: {fileID: 0}
  force: 500
  entityAnimator: {fileID: 9513068}
  speed: 20
  willRun: 1
  goRun: 0
--- !u!114 &11434886
MonoBehaviour:
  m_ObjectHideFlags: 1
  m_PrefabParentObject: {fileID: 0}
  m_PrefabInternal: {fileID: 100100000}
  m_GameObject: {fileID: 149564}
  m_Enabled: 1
  m_EditorHideFlags: 0
  m_Script: {fileID: 11500000, guid: 7f905a6a77c2e314aab428853af0c551, type: 3}
  m_Name: 
  m_EditorClassIdentifier: 
  isPhysicsObstacle: 0
--- !u!114 &11436370
MonoBehaviour:
  m_ObjectHideFlags: 1
  m_PrefabParentObject: {fileID: 0}
  m_PrefabInternal: {fileID: 100100000}
  m_GameObject: {fileID: 149564}
  m_Enabled: 1
  m_EditorHideFlags: 0
  m_Script: {fileID: 11500000, guid: c00d5186082e140488ae1e4733aa9eb3, type: 3}
  m_Name: 
  m_EditorClassIdentifier: 
  associatedPoint: {fileID: 0}
  alwaysVisible: 0
--- !u!114 &11436514
MonoBehaviour:
  m_ObjectHideFlags: 1
  m_PrefabParentObject: {fileID: 0}
  m_PrefabInternal: {fileID: 100100000}
  m_GameObject: {fileID: 102110}
  m_Enabled: 1
  m_EditorHideFlags: 0
  m_Script: {fileID: 11500000, guid: c11c19307704bd74fae70ad857620bee, type: 3}
  m_Name: 
  m_EditorClassIdentifier: 
  laegoo: {fileID: 11417922}
--- !u!114 &11437668
MonoBehaviour:
  m_ObjectHideFlags: 1
  m_PrefabParentObject: {fileID: 0}
  m_PrefabInternal: {fileID: 100100000}
  m_GameObject: {fileID: 170604}
  m_Enabled: 1
  m_EditorHideFlags: 0
  m_Script: {fileID: 11500000, guid: c11c19307704bd74fae70ad857620bee, type: 3}
  m_Name: 
  m_EditorClassIdentifier: 
  laegoo: {fileID: 11462060}
--- !u!114 &11442292
MonoBehaviour:
  m_ObjectHideFlags: 1
  m_PrefabParentObject: {fileID: 0}
  m_PrefabInternal: {fileID: 100100000}
  m_GameObject: {fileID: 140586}
  m_Enabled: 1
  m_EditorHideFlags: 0
  m_Script: {fileID: 11500000, guid: 7f905a6a77c2e314aab428853af0c551, type: 3}
  m_Name: 
  m_EditorClassIdentifier: 
  isPhysicsObstacle: 0
--- !u!114 &11462060
MonoBehaviour:
  m_ObjectHideFlags: 1
  m_PrefabParentObject: {fileID: 0}
  m_PrefabInternal: {fileID: 100100000}
  m_GameObject: {fileID: 140586}
  m_Enabled: 1
  m_EditorHideFlags: 0
  m_Script: {fileID: 11500000, guid: d011e4604afe7e54c823742df602be2f, type: 3}
  m_Name: 
  m_EditorClassIdentifier: 
  lives: 1
  score: -100
  addMultiplierHit: 0
  isCritical: 0
  isDetectableThreat: 0
  threatTarget: {fileID: 0}
  entityRenderer: {fileID: 0}
  hitEffect: {fileID: 120114, guid: dcc6fd9fe71687544a07fc1bcefbe71f, type: 2}
  critEffect: {fileID: 195050, guid: 07d6c41d965ea9647b31708f4eba546e, type: 2}
  entityRagdoll: {fileID: 0}
  topEntityBone: {fileID: 0}
  force: 500
  entityAnimator: {fileID: 9548328}
  speed: 15
  willRun: 1
  goRun: 0
--- !u!119 &11936134
Projector:
  m_ObjectHideFlags: 1
  m_PrefabParentObject: {fileID: 0}
  m_PrefabInternal: {fileID: 100100000}
  m_GameObject: {fileID: 124278}
  m_Enabled: 1
  serializedVersion: 2
  m_NearClipPlane: 0.1
  m_FarClipPlane: 75
  m_FieldOfView: 25
  m_AspectRatio: 1
  m_Orthographic: 0
  m_OrthographicSize: 10
  m_Material: {fileID: 2100000, guid: e8b03c5b40aadf3428acb98fbd5197a8, type: 2}
  m_IgnoreLayers:
    serializedVersion: 2
    m_Bits: 4096
--- !u!119 &11945672
Projector:
  m_ObjectHideFlags: 1
  m_PrefabParentObject: {fileID: 0}
  m_PrefabInternal: {fileID: 100100000}
  m_GameObject: {fileID: 113768}
  m_Enabled: 1
  serializedVersion: 2
  m_NearClipPlane: 0.1
  m_FarClipPlane: 75
  m_FieldOfView: 25
  m_AspectRatio: 1
  m_Orthographic: 0
  m_OrthographicSize: 10
  m_Material: {fileID: 2100000, guid: e8b03c5b40aadf3428acb98fbd5197a8, type: 2}
  m_IgnoreLayers:
    serializedVersion: 2
    m_Bits: 4096
--- !u!135 &13526098
SphereCollider:
  m_ObjectHideFlags: 1
  m_PrefabParentObject: {fileID: 0}
  m_PrefabInternal: {fileID: 100100000}
  m_GameObject: {fileID: 149564}
  m_Material: {fileID: 0}
  m_IsTrigger: 1
  m_Enabled: 1
  serializedVersion: 2
  m_Radius: 1.75
  m_Center: {x: 0, y: 1.5, z: 0}
--- !u!135 &13560316
SphereCollider:
  m_ObjectHideFlags: 1
  m_PrefabParentObject: {fileID: 0}
  m_PrefabInternal: {fileID: 100100000}
  m_GameObject: {fileID: 140586}
  m_Material: {fileID: 0}
  m_IsTrigger: 1
  m_Enabled: 1
  serializedVersion: 2
  m_Radius: 1.75
  m_Center: {x: 0, y: 1.5, z: 0}
--- !u!137 &13753024
SkinnedMeshRenderer:
  m_ObjectHideFlags: 1
  m_PrefabParentObject: {fileID: 0}
  m_PrefabInternal: {fileID: 100100000}
  m_GameObject: {fileID: 192328}
  m_Enabled: 1
  m_CastShadows: 1
  m_ReceiveShadows: 1
  m_Materials:
  - {fileID: 2100000, guid: 0047d29b973e64c46bc32b254f6b1f12, type: 2}
  m_SubsetIndices: 
  m_StaticBatchRoot: {fileID: 0}
  m_UseLightProbes: 1
  m_ReflectionProbeUsage: 1
  m_ProbeAnchor: {fileID: 0}
  m_ScaleInLightmap: 1
  m_PreserveUVs: 0
  m_IgnoreNormalsForChartDetection: 0
  m_ImportantGI: 0
  m_MinimumChartSize: 4
  m_AutoUVMaxDistance: 0.5
  m_AutoUVMaxAngle: 89
  m_LightmapParameters: {fileID: 0}
  m_SortingLayerID: 0
  m_SortingOrder: 0
  serializedVersion: 2
  m_Quality: 0
  m_UpdateWhenOffscreen: 0
  m_Mesh: {fileID: 4300000, guid: 1059743637da3b44cb286481bb19a03f, type: 3}
  m_Bones:
  - {fileID: 489370}
  - {fileID: 470166}
  - {fileID: 474530}
  - {fileID: 494522}
  - {fileID: 465094}
  - {fileID: 468810}
  - {fileID: 488256}
  - {fileID: 477936}
  - {fileID: 498344}
  - {fileID: 472216}
  - {fileID: 477964}
  - {fileID: 423546}
  - {fileID: 422690}
  - {fileID: 456098}
  - {fileID: 428958}
  - {fileID: 402476}
  - {fileID: 486332}
  - {fileID: 457078}
  - {fileID: 435284}
  - {fileID: 417888}
  - {fileID: 444646}
  - {fileID: 497076}
  m_BlendShapeWeights: []
  m_RootBone: {fileID: 489370}
  m_AABB:
    m_Center: {x: 0.44626284, y: -0.72723997, z: 0.0005299449}
    m_Extent: {x: 2.8406453, y: 1.6926645, z: 0.8869311}
  m_DirtyAABB: 0
--- !u!137 &13761718
SkinnedMeshRenderer:
  m_ObjectHideFlags: 1
  m_PrefabParentObject: {fileID: 0}
  m_PrefabInternal: {fileID: 100100000}
  m_GameObject: {fileID: 107740}
  m_Enabled: 1
  m_CastShadows: 1
  m_ReceiveShadows: 1
  m_Materials:
  - {fileID: 2100000, guid: 0047d29b973e64c46bc32b254f6b1f12, type: 2}
  m_SubsetIndices: 
  m_StaticBatchRoot: {fileID: 0}
  m_UseLightProbes: 1
  m_ReflectionProbeUsage: 1
  m_ProbeAnchor: {fileID: 0}
  m_ScaleInLightmap: 1
  m_PreserveUVs: 0
  m_IgnoreNormalsForChartDetection: 0
  m_ImportantGI: 0
  m_MinimumChartSize: 4
  m_AutoUVMaxDistance: 0.5
  m_AutoUVMaxAngle: 89
  m_LightmapParameters: {fileID: 0}
  m_SortingLayerID: 0
  m_SortingOrder: 0
  serializedVersion: 2
  m_Quality: 0
  m_UpdateWhenOffscreen: 0
  m_Mesh: {fileID: 4300000, guid: 1059743637da3b44cb286481bb19a03f, type: 3}
  m_Bones:
  - {fileID: 458384}
  - {fileID: 406316}
  - {fileID: 412878}
  - {fileID: 475548}
  - {fileID: 415636}
  - {fileID: 462378}
  - {fileID: 446538}
  - {fileID: 453466}
  - {fileID: 453132}
  - {fileID: 465386}
  - {fileID: 444034}
  - {fileID: 428166}
  - {fileID: 450714}
  - {fileID: 498644}
  - {fileID: 400874}
  - {fileID: 487164}
  - {fileID: 431248}
  - {fileID: 494858}
  - {fileID: 464612}
  - {fileID: 484238}
  - {fileID: 466520}
  - {fileID: 458772}
  m_BlendShapeWeights: []
  m_RootBone: {fileID: 458384}
  m_AABB:
    m_Center: {x: 0.44626284, y: -0.72723997, z: 0.0005299449}
    m_Extent: {x: 2.8406453, y: 1.6926645, z: 0.8869311}
  m_DirtyAABB: 0
--- !u!1001 &100100000
Prefab:
  m_ObjectHideFlags: 1
  serializedVersion: 2
  m_Modification:
    m_TransformParent: {fileID: 0}
    m_Modifications: []
    m_RemovedComponents: []
  m_ParentPrefab: {fileID: 0}
  m_RootGameObject: {fileID: 141470}
  m_IsPrefabParent: 1
