%YAML 1.1
%TAG !u! tag:unity3d.com,2011:
--- !u!21 &2100000
Material:
  serializedVersion: 6
  m_ObjectHideFlags: 0
  m_PrefabParentObject: {fileID: 0}
  m_PrefabInternal: {fileID: 0}
  m_Name: PremiumHologramCilinder
  m_Shader: {fileID: 4800000, guid: 2255bcb6293fb77408a305ef814606e1, type: 3}
  m_ShaderKeywords: _EMISSION
  m_LightmapFlags: 1
  m_EnableInstancingVariants: 0
  m_DoubleSidedGI: 0
  m_CustomRenderQueue: -1
  stringTagMap: {}
  disabledShaderPasses: []
  m_SavedProperties:
    serializedVersion: 3
    m_TexEnvs:
    - _Bands:
        m_Texture: {fileID: 2800000, guid: 739dff9a1da9fd34a89c34cb7397f6b0, type: 3}
        m_Scale: {x: 1, y: 1}
        m_Offset: {x: 0, y: 0}
    - _BumpMap:
        m_Texture: {fileID: 0}
        m_Scale: {x: 1, y: 1}
        m_Offset: {x: 0, y: 0}
    - _DetailAlbedoMap:
        m_Texture: {fileID: 0}
        m_Scale: {x: 1, y: 1}
        m_Offset: {x: 0, y: 0}
    - _DetailMask:
        m_Texture: {fileID: 0}
        m_Scale: {x: 1, y: 1}
        m_Offset: {x: 0, y: 0}
    - _DetailNormalMap:
        m_Texture: {fileID: 0}
        m_Scale: {x: 1, y: 1}
        m_Offset: {x: 0, y: 0}
    - _EmissionMap:
        m_Texture: {fileID: 0}
        m_Scale: {x: 1, y: 1}
        m_Offset: {x: 0, y: 0}
    - _MainTex:
        m_Texture: {fileID: 0}
        m_Scale: {x: 1, y: 1}
        m_Offset: {x: 0, y: 0}
    - _MetallicGlossMap:
        m_Texture: {fileID: 0}
        m_Scale: {x: 1, y: 1}
        m_Offset: {x: 0, y: 0}
    - _OcclusionMap:
        m_Texture: {fileID: 0}
        m_Scale: {x: 1, y: 1}
        m_Offset: {x: 0, y: 0}
    - _OverlayBands:
        m_Texture: {fileID: 2800000, guid: 74bd3d4d5d48b684faa5dcb8d10db3d1, type: 3}
        m_Scale: {x: 1, y: 1}
        m_Offset: {x: 0, y: 0}
    - _ParallaxMap:
        m_Texture: {fileID: 0}
        m_Scale: {x: 1, y: 1}
        m_Offset: {x: 0, y: 0}
    - _ScrollBands:
        m_Texture: {fileID: 2800000, guid: 71aa452c30a4d7a4e9f0d9a8e8ba4dde, type: 3}
        m_Scale: {x: 1, y: 1}
        m_Offset: {x: 0, y: 0}
    m_Floats:
    - _BandingVelocity: 30
    - _BandsTiling: 150
    - _BumpScale: 1
    - _CenterReference: 6.8
    - _ClipRadius: 25.3
    - _Cutoff: 0.5
    - _DetailNormalMapScale: 1
    - _DstBlend: 0
    - _FadeFactor: 1
    - _GlobalAlpha: 1
    - _GlossMapScale: 1
    - _Glossiness: 0.5
    - _GlossyReflections: 1
    - _HeightFadePower: 0.91
    - _HeightFadeScale: 1
    - _HeightMargin: 1.25
    - _InvFade: 1
    - _Metallic: 0
    - _MinOpacity: 0.41
    - _Mode: 0
    - _OcclusionStrength: 1
    - _OverlayBandsOffset: 0.5
    - _Parallax: 0.02
    - _Power: 2.345593
    - _Scale: 1.25
    - _SmoothnessTextureChannel: 0
    - _SpecularHighlights: 1
    - _SrcBlend: 1
    - _UVSec: 0
    - _VisPower: 0.66
    - _VisRadius: 106.19
    - _VisScale: 0.7
    - _ZWrite: 1
    m_Colors:
    - _Color: {r: 0.161, g: 0.161, b: 0.776, a: 1}
    - _EmissionColor: {r: 0, g: 0, b: 0, a: 1}
    - _MarginColor: {r: 0, g: 1, b: 1, a: 1}
    - _TintColor: {r: 0.5, g: 0.5, b: 0.5, a: 0.5}
