%YAML 1.1
%TAG !u! tag:unity3d.com,2011:
--- !u!1045 &1
EditorBuildSettings:
  m_ObjectHideFlags: 0
  serializedVersion: 2
  m_Scenes:
  - enabled: 1
    path: Assets/Scenes/Menu/Intro.unity
    guid: 07b2641b722d65f4f96bee32b6661357
  - enabled: 1
    path: Assets/Scenes/Menu/Intro3.unity
    guid: 2cbf17347b3a0b14fbd4bc5429e103c6
  - enabled: 1
    path: Assets/Scenes/Menu/MenuPrincipal.unity
    guid: 453bb1e67974bfe41b237bf1ed67a79b
  - enabled: 1
    path: Assets/Scenes/Publicidad.unity
    guid: 90100727d11c4a748a59a4a1a95a808c
  - enabled: 1
    path: Assets/Scenes/Design/Final_Levels_City/CityAPK/NewTutorials/tutorial1_special_1.unity
    guid: 366363089b4c1544b8a692db93671bb3
  - enabled: 1
    path: Assets/Scenes/Design/Final_Levels_City/CityAPK/NewTutorials/tutorial2_special_2.unity
    guid: b3b91c0324488264ca3e9c368d952380
  - enabled: 1
    path: Assets/Scenes/Design/Final_Levels_City/CityAPK/NewTutorials/tutorial3_special_3.unity
    guid: d23292330fc56464095fcc8d413a584c
  - enabled: 1
    path: Assets/Scenes/Design/Final_Levels_City/CityAPK/NewTutorials/tutorial4_special_4.unity
    guid: 82d31ae3c61169849aa86482986e121c
  - enabled: 1
    path: Assets/Scenes/Menu/Intro2.unity
    guid: 26ed963eb6445db468bc80c03d6c6048
  - enabled: 1
    path: Assets/Scenes/Design/Final_Levels_City/CityAPK/city1.unity
    guid: 22d69477b407c754c9659869016621fd
  - enabled: 1
    path: Assets/Scenes/Design/Final_Levels_City/CityAPK/city2.unity
    guid: 2f163ff4f57b03145af35b22445b0eec
  - enabled: 1
    path: Assets/Scenes/Design/Final_Levels_City/CityAPK/city3.unity
    guid: 7564a092ffcfe664c8fe754505422adf
  - enabled: 1
    path: Assets/Scenes/Design/Final_Levels_City/CityAPK/city4.unity
    guid: 464f62452dac9654795372f7e902776f
  - enabled: 1
    path: Assets/Scenes/Design/Final_Levels_City/CityAPK/city5.unity
    guid: 6bbccee9fefb0254197ba942f79b69c2
  - enabled: 1
    path: Assets/Scenes/Design/Final_Levels_City/CityAPK/city6.unity
    guid: 0dc80938dca500f4a942a09d0d54dd71
  - enabled: 1
    path: Assets/Scenes/Design/Final_Levels_City/CityAPK/city7.unity
    guid: 95c4d7f0caf70814d8281229ee72bb9e
  - enabled: 1
    path: Assets/Scenes/Design/Final_Levels_City/CityAPK/city8.unity
    guid: efe73c8b7e5cbf64a8451c319fbb8596
  - enabled: 1
    path: Assets/Scenes/Design/Final_Levels_City/CityAPK/city9.unity
    guid: 3761be51cd523e94abceace1fdeacd4d
  - enabled: 1
    path: Assets/Scenes/Design/Final_Levels_City/CityAPK/city10.unity
    guid: 65df5fd60791b3e4b96ec8e3e74c02b6
  - enabled: 1
    path: Assets/Scenes/Design/Final_Levels_City/CityAPK/city11.unity
    guid: 5350ed848cf95264283f64674a1b4dab
  - enabled: 1
    path: Assets/Scenes/Design/Final_Levels_City/CityAPK/city12.unity
    guid: 394922bafd9adae4ea5ac0bf97399bae
  - enabled: 1
    path: Assets/Scenes/Design/Final_Levels_City/CityAPK/city13.unity
    guid: 2a2b9df12414eec4a837c0091cf425aa
  - enabled: 1
    path: Assets/Scenes/Design/Final_Levels_City/CityAPK/city14.unity
    guid: fde42df44a6d3ed41bced9bb5591e35c
  - enabled: 1
    path: Assets/Scenes/Design/Final_Levels_City/CityAPK/city15.unity
    guid: 13b63a5681399734d877489de79ffe3d
  - enabled: 1
    path: Assets/Scenes/Design/Final_Levels_City/CityAPK/MINIlevels/city_special_11.unity
    guid: 289a1f1b764e76e4994375aea52fb31b
  - enabled: 1
    path: Assets/Scenes/Design/Final_Levels_City/CityAPK/MINIlevels/city_special_12.unity
    guid: 1fe6672160fcced449933b7a8e94b88b
  - enabled: 1
    path: Assets/Scenes/Design/Final_Levels_City/CityAPK/MINIlevels/city_special_13.unity
    guid: 97724a7d283cccb4cb55610c7818bd76
  - enabled: 1
    path: Assets/Scenes/Design/Final_Levels_City/CityAPK/MINIlevels/city_special_14.unity
    guid: a7c5a5adc171c574d8cb00074337f495
  - enabled: 1
    path: Assets/Scenes/Design/Final_Levels_City/CityAPK/MINIlevels/city_special_15.unity
    guid: a17180b9932f31c429e167e3a304a37a
  - enabled: 1
    path: Assets/Scenes/Design/Final_Levels_City/CityAPK/MINIlevels/city_special_16.unity
    guid: a1db67abbcf18d34bb4bdc56ddbb84d1
  - enabled: 1
    path: Assets/Scenes/Design/Final_Levels_City/CityAPK/MINIlevels/city_special_17.unity
    guid: 5839978e9e16a2e46bea5e8e4150e14f
  - enabled: 1
    path: Assets/Scenes/Design/Final_Levels_City/CityAPK/MINIlevels/city_special_18.unity
    guid: c88d18a49e8f4fe4f9feefe6aaf16515
  - enabled: 1
    path: Assets/Scenes/Design/Final_Levels_City/CityAPK/MINIlevels/city_special_19.unity
    guid: 15a5a22fbc2e00c44bdf9ff1d6ed3f68
  - enabled: 1
    path: Assets/Scenes/Design/Final_Levels_City/CityAPK/MINIlevels/city_special_20.unity
    guid: 67a141101d0622146b620953ff777e2a
  - enabled: 1
    path: Assets/Scenes/Design/Final_Levels_Desert/DesertAPK/desert01.unity
    guid: 4cec4aa110aff784cb4cc7acb2af749f
  - enabled: 1
    path: Assets/Scenes/Design/Final_Levels_Desert/DesertAPK/desert02.unity
    guid: a379fc4934c631b41af486c0c0efeca0
  - enabled: 1
    path: Assets/Scenes/Design/Final_Levels_Desert/DesertAPK/desert03.unity
    guid: f2c7743de4ac0d34eb1cba1b040a1cc1
  - enabled: 1
    path: Assets/Scenes/Design/Final_Levels_Desert/DesertAPK/desert04.unity
    guid: 7073bdfb188d9c9449c65fc6066d846e
  - enabled: 1
    path: Assets/Scenes/Design/Final_Levels_Desert/DesertAPK/desert05.unity
    guid: d0703433d3dfd6144a166d2d89bfe7dd
  - enabled: 1
    path: Assets/Scenes/Design/Final_Levels_Desert/DesertAPK/desert06.unity
    guid: 836eef081a6e5a640b7043d2c2b986f7
  - enabled: 1
    path: Assets/Scenes/Design/Final_Levels_Desert/DesertAPK/desert07.unity
    guid: 46f8df65dc6eb604885e209969751329
  - enabled: 1
    path: Assets/Scenes/Design/Final_Levels_Desert/DesertAPK/desert08.unity
    guid: 9b0797c40b121364f8497c13ceb098bf
  - enabled: 1
    path: Assets/Scenes/Design/Final_Levels_Desert/DesertAPK/desert09.unity
    guid: 00e9c4516b54f7343927386842db8b85
  - enabled: 1
    path: Assets/Scenes/Design/Final_Levels_Desert/DesertAPK/desert10.unity
    guid: bf05ee5361449480d8234d46e113aa7e
  - enabled: 1
    path: Assets/Scenes/Design/Final_Levels_Desert/DesertAPK/desert11.unity
    guid: 8957a23c0c0e4f646abd0998f0ab13f8
  - enabled: 1
    path: Assets/Scenes/Design/Final_Levels_Desert/DesertAPK/desert12.unity
    guid: 21cf3dedf4be39d4f9854493d05feab8
  - enabled: 1
    path: Assets/Scenes/Design/Final_Levels_Desert/DesertAPK/desert13.unity
    guid: bf2e38f7ca7184646b4e0cf5f7e2493f
  - enabled: 1
    path: Assets/Scenes/Design/Final_Levels_Desert/DesertAPK/desert14.unity
    guid: 025c2716f09397b429dab07e85285054
  - enabled: 1
    path: Assets/Scenes/Design/Final_Levels_Desert/DesertAPK/desert15.unity
    guid: e729ae98d8f8e410aa06c63518a864a4
  - enabled: 1
    path: Assets/Scenes/Design/Final_Levels_Desert/DesertAPK/MiniLevels/desert_special_31.unity
    guid: 6e4cecebbb6a1ac4295bf4cec145bc4a
  - enabled: 1
    path: Assets/Scenes/Design/Final_Levels_Desert/DesertAPK/MiniLevels/desert_special_32.unity
    guid: 1d6f2cafd2fde0143aea29b4359e8670
  - enabled: 1
    path: Assets/Scenes/Design/Final_Levels_Desert/DesertAPK/MiniLevels/desert_special_33.unity
    guid: fcce4ba6957006a40a01681c717db26b
  - enabled: 1
    path: Assets/Scenes/Design/Final_Levels_Desert/DesertAPK/MiniLevels/desert_special_34.unity
    guid: 79811ee282aaf914ba7e348d682bba5b
  - enabled: 1
    path: Assets/Scenes/Design/Final_Levels_Desert/DesertAPK/MiniLevels/desert_special_35.unity
    guid: 7ff11c82ba14ebc4ca57b0edec4d32e2
  - enabled: 1
    path: Assets/Scenes/Design/Final_Levels_Desert/DesertAPK/MiniLevels/desert_special_36.unity
    guid: 864039efa3b34fa488db8e5ec922b52f
  - enabled: 1
    path: Assets/Scenes/Design/Final_Levels_Desert/DesertAPK/MiniLevels/desert_special_37.unity
    guid: 4c886755371e8224fa2276575931e8bd
  - enabled: 1
    path: Assets/Scenes/Design/Final_Levels_Desert/DesertAPK/MiniLevels/desertteaser_special_30.unity
    guid: 523d4231cef93a64abfb005738df1b32
  - enabled: 1
    path: Assets/Scenes/Design/Final_Levels_Snow/SnowAPK/snow01.unity
    guid: 20248752df1e4f741806e5ca28a20288
  - enabled: 1
    path: Assets/Scenes/Design/Final_Levels_Snow/SnowAPK/snow02.unity
    guid: 137f30683d74588498d44211e92fc3ca
  - enabled: 1
    path: Assets/Scenes/Design/Final_Levels_Snow/SnowAPK/snow03.unity
    guid: 57b828c07c4296241a1665e9a60ca000
  - enabled: 1
    path: Assets/Scenes/Design/Final_Levels_Snow/SnowAPK/snow04.unity
    guid: b9fbdb2acb27a594ead702b4aa2b8f6d
  - enabled: 1
    path: Assets/Scenes/Design/Final_Levels_Snow/SnowAPK/snow05.unity
    guid: f0825fe708cc36a46965e3f7a1d4a2e4
  - enabled: 1
    path: Assets/Scenes/Design/Final_Levels_Snow/SnowAPK/snow06.unity
    guid: 184a3f2cabc696c41b892877f16750ec
  - enabled: 1
    path: Assets/Scenes/Design/Final_Levels_Snow/SnowAPK/snow07.unity
    guid: 9c122af08ad62ca43bcd286a452b4f6d
  - enabled: 1
    path: Assets/Scenes/Design/Final_Levels_Snow/SnowAPK/snow08.unity
    guid: 9a1b6a46c0d235a4fb29ad46ab375348
  - enabled: 1
    path: Assets/Scenes/Design/Final_Levels_Snow/SnowAPK/snow09.unity
    guid: 8f97713aba8000045abf50884f8ab0a9
  - enabled: 1
    path: Assets/Scenes/Design/Final_Levels_Snow/SnowAPK/snow10.unity
    guid: 02071f665cf868944ada2284e8eeaf9d
  - enabled: 1
    path: Assets/Scenes/Design/Final_Levels_Snow/SnowAPK/snow11.unity
    guid: b9d081b2f7cd48444978d2de48ddda75
  - enabled: 1
    path: Assets/Scenes/Design/Final_Levels_Snow/SnowAPK/snow12.unity
    guid: 33bf6b7d62b5ced4180d128ad0046459
  - enabled: 1
    path: Assets/Scenes/Design/Final_Levels_Snow/SnowAPK/snow13.unity
    guid: 00f52f9f2c194c048b97fdd22a9e6ebb
  - enabled: 1
    path: Assets/Scenes/Design/Final_Levels_Snow/SnowAPK/snow14.unity
    guid: d9071d0124e7a9e47a34d33daaf7a4d1
  - enabled: 1
    path: Assets/Scenes/Design/Final_Levels_Snow/SnowAPK/snow15.unity
    guid: c53fdf35cbea58a499daed1e5b5ee28e
  - enabled: 1
    path: Assets/Scenes/Design/Final_Levels_Snow/SnowAPK/MiniLevels/snow_special_51.unity
    guid: 1eebd7538e4989847ab07c2e67e32135
  - enabled: 1
    path: Assets/Scenes/Design/Final_Levels_Snow/SnowAPK/MiniLevels/snow_special_52.unity
    guid: 57020bb406b08884694eadb37a5cb0d7
  - enabled: 1
    path: Assets/Scenes/Design/Final_Levels_Snow/SnowAPK/MiniLevels/snow_special_53.unity
    guid: 94cc0fd97de08964ba30e44492a34cc4
  - enabled: 1
    path: Assets/Scenes/Design/Final_Levels_Snow/SnowAPK/MiniLevels/snow_special_54.unity
    guid: 6f2044e4b35b1ba479fa3eddaad9d96c
  - enabled: 1
    path: Assets/Scenes/Design/Final_Levels_Snow/SnowAPK/MiniLevels/snow_special_55.unity
    guid: 83504bcfcae83724ca81d6df1c39f8f6
  - enabled: 1
    path: Assets/Scenes/Design/Final_Levels_Snow/SnowAPK/MiniLevels/snow_special_56.unity
    guid: 4cdfd06ad7eece34d947d09495fc7223
  - enabled: 1
    path: Assets/Scenes/Design/Final_Levels_Snow/SnowAPK/MiniLevels/snow_special_57.unity
    guid: b4ebe6dd1fd83084ca5a42232f1383b4
  - enabled: 1
    path: Assets/Scenes/Design/Final_Levels_Snow/SnowAPK/MiniLevels/snowteaser_special_50.unity
    guid: fdcaca2dc91a6ca4b8b2ec03370be58a
  - enabled: 1
    path: Assets/Scenes/LoadScreen.unity
    guid: e1a0cf0dd2285c443ad273e4957a4e57
