%YAML 1.1
%TAG !u! tag:unity3d.com,2011:
--- !u!78 &1
TagManager:
  serializedVersion: 2
  tags:
  - CameraArm
  - MovementTouchFocus
  - ThreatDetectionArea
  - HUD
  - ScreenEffects
  - ScoreController
  - ThreatManager
  - NotBone
  - GameManager
  - EnemyInfoManager
  - MasterLight
  - ChronoController
  - FogPlane
  - AnalyticsManager
  - HeightSpot
  layers:
  - Default
  - TransparentFX
  - Ignore Raycast
  - 
  - Water
  - UI
  - 
  - 
  - Shootable
  - Projectile
  - Touchable
  - ControlArea
  - PlayerGraphics
  - IdolShootable
  - 
  - 
  - 
  - 
  - 
  - 
  - FakeMount
  - 
  - 
  - 
  - 
  - 
  - 
  - 
  - 
  - 
  - 
  - Untouchable
  m_SortingLayers:
  - name: Default
    uniqueID: 0
    locked: 0
