%YAML 1.1
%TAG !u! tag:unity3d.com,2011:
--- !u!29 &1
SceneSettings:
  m_ObjectHideFlags: 0
  m_PVSData: 
  m_PVSObjectsArray: []
  m_PVSPortalsArray: []
  m_OcclusionBakeSettings:
    smallestOccluder: 5
    smallestHole: 0.25
    backfaceThreshold: 100
--- !u!104 &2
RenderSettings:
  m_ObjectHideFlags: 0
  serializedVersion: 7
  m_Fog: 0
  m_FogColor: {r: 0.5, g: 0.5, b: 0.5, a: 1}
  m_FogMode: 3
  m_FogDensity: 0.01
  m_LinearFogStart: 0
  m_LinearFogEnd: 300
  m_AmbientSkyColor: {r: 0.212, g: 0.227, b: 0.259, a: 1}
  m_AmbientEquatorColor: {r: 0.114, g: 0.125, b: 0.133, a: 1}
  m_AmbientGroundColor: {r: 0.047, g: 0.043, b: 0.035, a: 1}
  m_AmbientIntensity: 1
  m_AmbientMode: 0
  m_SkyboxMaterial: {fileID: 2100000, guid: 3b54ab90850c045908dfebfe425f301a, type: 2}
  m_HaloStrength: 0.5
  m_FlareStrength: 1
  m_FlareFadeSpeed: 3
  m_HaloTexture: {fileID: 0}
  m_SpotCookie: {fileID: 10001, guid: 0000000000000000e000000000000000, type: 0}
  m_DefaultReflectionMode: 0
  m_DefaultReflectionResolution: 128
  m_ReflectionBounces: 1
  m_ReflectionIntensity: 1
  m_CustomReflection: {fileID: 0}
  m_Sun: {fileID: 1824458277}
  m_IndirectSpecularColor: {r: 0.6479511, g: 0.6479511, b: 0.6479511, a: 1}
--- !u!157 &3
LightmapSettings:
  m_ObjectHideFlags: 0
  serializedVersion: 7
  m_GIWorkflowMode: 0
  m_GISettings:
    serializedVersion: 2
    m_BounceScale: 1
    m_IndirectOutputScale: 1
    m_AlbedoBoost: 1
    m_TemporalCoherenceThreshold: 1
    m_EnvironmentLightingMode: 0
    m_EnableBakedLightmaps: 1
    m_EnableRealtimeLightmaps: 1
  m_LightmapEditorSettings:
    serializedVersion: 4
    m_Resolution: 2
    m_BakeResolution: 40
    m_TextureWidth: 1024
    m_TextureHeight: 1024
    m_AO: 0
    m_AOMaxDistance: 1
    m_CompAOExponent: 0
    m_CompAOExponentDirect: 0
    m_Padding: 2
    m_LightmapParameters: {fileID: 0}
    m_LightmapsBakeMode: 1
    m_TextureCompression: 1
    m_DirectLightInLightProbes: 1
    m_FinalGather: 0
    m_FinalGatherFiltering: 1
    m_FinalGatherRayCount: 1024
    m_ReflectionCompression: 2
  m_LightingDataAsset: {fileID: 0}
  m_RuntimeCPUUsage: 25
--- !u!196 &4
NavMeshSettings:
  serializedVersion: 2
  m_ObjectHideFlags: 0
  m_BuildSettings:
    serializedVersion: 2
    agentRadius: 0.5
    agentHeight: 2
    agentSlope: 45
    agentClimb: 0.4
    ledgeDropHeight: 0
    maxJumpAcrossDistance: 0
    accuratePlacement: 0
    minRegionArea: 2
    cellSize: 0.16666667
    manualCellSize: 0
  m_NavMeshData: {fileID: 0}
--- !u!1001 &72228895
Prefab:
  m_ObjectHideFlags: 0
  serializedVersion: 2
  m_Modification:
    m_TransformParent: {fileID: 346160000}
    m_Modifications:
    - target: {fileID: 400000, guid: 87b70b92195974d9dacc05039e07b8cf, type: 2}
      propertyPath: m_LocalPosition.x
      value: .0599999987
      objectReference: {fileID: 0}
    - target: {fileID: 400000, guid: 87b70b92195974d9dacc05039e07b8cf, type: 2}
      propertyPath: m_LocalPosition.y
      value: .00800000038
      objectReference: {fileID: 0}
    - target: {fileID: 400000, guid: 87b70b92195974d9dacc05039e07b8cf, type: 2}
      propertyPath: m_LocalPosition.z
      value: 0
      objectReference: {fileID: 0}
    - target: {fileID: 400000, guid: 87b70b92195974d9dacc05039e07b8cf, type: 2}
      propertyPath: m_LocalRotation.x
      value: 0
      objectReference: {fileID: 0}
    - target: {fileID: 400000, guid: 87b70b92195974d9dacc05039e07b8cf, type: 2}
      propertyPath: m_LocalRotation.y
      value: 0
      objectReference: {fileID: 0}
    - target: {fileID: 400000, guid: 87b70b92195974d9dacc05039e07b8cf, type: 2}
      propertyPath: m_LocalRotation.z
      value: .446197838
      objectReference: {fileID: 0}
    - target: {fileID: 400000, guid: 87b70b92195974d9dacc05039e07b8cf, type: 2}
      propertyPath: m_LocalRotation.w
      value: .894934356
      objectReference: {fileID: 0}
    - target: {fileID: 400000, guid: 87b70b92195974d9dacc05039e07b8cf, type: 2}
      propertyPath: m_RootOrder
      value: 3
      objectReference: {fileID: 0}
    - target: {fileID: 2348764, guid: 87b70b92195974d9dacc05039e07b8cf, type: 2}
      propertyPath: m_Materials.Array.data[0]
      value: 
      objectReference: {fileID: 2100000, guid: 0a58941bbd115a7011005aba44295342, type: 2}
    m_RemovedComponents: []
  m_ParentPrefab: {fileID: 100100000, guid: 87b70b92195974d9dacc05039e07b8cf, type: 2}
  m_IsPrefabParent: 0
--- !u!1 &140478799
GameObject:
  m_ObjectHideFlags: 0
  m_PrefabParentObject: {fileID: 0}
  m_PrefabInternal: {fileID: 0}
  serializedVersion: 4
  m_Component:
  - 4: {fileID: 140478801}
  - 215: {fileID: 140478800}
  m_Layer: 0
  m_Name: Reflection Probe
  m_TagString: Untagged
  m_Icon: {fileID: 0}
  m_NavMeshLayer: 0
  m_StaticEditorFlags: 0
  m_IsActive: 1
--- !u!215 &140478800
ReflectionProbe:
  m_ObjectHideFlags: 0
  m_PrefabParentObject: {fileID: 0}
  m_PrefabInternal: {fileID: 0}
  m_GameObject: {fileID: 140478799}
  m_Enabled: 1
  serializedVersion: 2
  m_Type: 0
  m_Mode: 0
  m_RefreshMode: 1
  m_TimeSlicingMode: 0
  m_Resolution: 128
  m_UpdateFrequency: 0
  m_BoxSize: {x: 100, y: 100, z: 100}
  m_BoxOffset: {x: 0, y: 0, z: 0}
  m_NearClip: 0.3
  m_FarClip: 1000
  m_ShadowDistance: 100
  m_ClearFlags: 1
  m_BackGroundColor: {r: 0.19215687, g: 0.3019608, b: 0.4745098, a: 0}
  m_CullingMask:
    serializedVersion: 2
    m_Bits: 0
  m_IntensityMultiplier: 1
  m_BlendDistance: 1
  m_HDR: 1
  m_BoxProjection: 0
  m_RenderDynamicObjects: 0
  m_UseOcclusionCulling: 1
  m_Importance: 1
  m_CustomBakedTexture: {fileID: 0}
--- !u!4 &140478801
Transform:
  m_ObjectHideFlags: 0
  m_PrefabParentObject: {fileID: 0}
  m_PrefabInternal: {fileID: 0}
  m_GameObject: {fileID: 140478799}
  m_LocalRotation: {x: 0, y: 0, z: 0, w: 1}
  m_LocalPosition: {x: 2, y: 2, z: 0}
  m_LocalScale: {x: 1, y: 1, z: 1}
  m_LocalEulerAnglesHint: {x: 0, y: 0, z: 0}
  m_Children: []
  m_Father: {fileID: 0}
  m_RootOrder: 2
--- !u!1001 &146980484
Prefab:
  m_ObjectHideFlags: 0
  serializedVersion: 2
  m_Modification:
    m_TransformParent: {fileID: 346160000}
    m_Modifications:
    - target: {fileID: 400000, guid: 5f22e3f6398904100923beb02c73de13, type: 2}
      propertyPath: m_LocalPosition.x
      value: -.0199999996
      objectReference: {fileID: 0}
    - target: {fileID: 400000, guid: 5f22e3f6398904100923beb02c73de13, type: 2}
      propertyPath: m_LocalPosition.y
      value: .00400000019
      objectReference: {fileID: 0}
    - target: {fileID: 400000, guid: 5f22e3f6398904100923beb02c73de13, type: 2}
      propertyPath: m_LocalPosition.z
      value: 0
      objectReference: {fileID: 0}
    - target: {fileID: 400000, guid: 5f22e3f6398904100923beb02c73de13, type: 2}
      propertyPath: m_LocalRotation.x
      value: 0
      objectReference: {fileID: 0}
    - target: {fileID: 400000, guid: 5f22e3f6398904100923beb02c73de13, type: 2}
      propertyPath: m_LocalRotation.y
      value: 0
      objectReference: {fileID: 0}
    - target: {fileID: 400000, guid: 5f22e3f6398904100923beb02c73de13, type: 2}
      propertyPath: m_LocalRotation.z
      value: 0
      objectReference: {fileID: 0}
    - target: {fileID: 400000, guid: 5f22e3f6398904100923beb02c73de13, type: 2}
      propertyPath: m_LocalRotation.w
      value: 1
      objectReference: {fileID: 0}
    - target: {fileID: 400000, guid: 5f22e3f6398904100923beb02c73de13, type: 2}
      propertyPath: m_RootOrder
      value: 2
      objectReference: {fileID: 0}
    - target: {fileID: 2356856, guid: 5f22e3f6398904100923beb02c73de13, type: 2}
      propertyPath: m_Materials.Array.data[0]
      value: 
      objectReference: {fileID: 2100000, guid: 0a58941bbd115a7011005aba44295342, type: 2}
    m_RemovedComponents: []
  m_ParentPrefab: {fileID: 100100000, guid: 5f22e3f6398904100923beb02c73de13, type: 2}
  m_IsPrefabParent: 0
--- !u!4 &154806035 stripped
Transform:
  m_PrefabParentObject: {fileID: 400000, guid: 08563ec9bc5724f43a79b8a80c275cd3, type: 2}
  m_PrefabInternal: {fileID: 325319426}
--- !u!4 &166459659 stripped
Transform:
  m_PrefabParentObject: {fileID: 400000, guid: 08563ec9bc5724f43a79b8a80c275cd3, type: 2}
  m_PrefabInternal: {fileID: 348221167}
--- !u!4 &186199565 stripped
Transform:
  m_PrefabParentObject: {fileID: 400000, guid: 5f22e3f6398904100923beb02c73de13, type: 2}
  m_PrefabInternal: {fileID: 146980484}
--- !u!1001 &214583906
Prefab:
  m_ObjectHideFlags: 0
  serializedVersion: 2
  m_Modification:
    m_TransformParent: {fileID: 714061927}
    m_Modifications:
    - target: {fileID: 400000, guid: 5f22e3f6398904100923beb02c73de13, type: 2}
      propertyPath: m_LocalPosition.x
      value: -.0199999996
      objectReference: {fileID: 0}
    - target: {fileID: 400000, guid: 5f22e3f6398904100923beb02c73de13, type: 2}
      propertyPath: m_LocalPosition.y
      value: .00400000019
      objectReference: {fileID: 0}
    - target: {fileID: 400000, guid: 5f22e3f6398904100923beb02c73de13, type: 2}
      propertyPath: m_LocalPosition.z
      value: 0
      objectReference: {fileID: 0}
    - target: {fileID: 400000, guid: 5f22e3f6398904100923beb02c73de13, type: 2}
      propertyPath: m_LocalRotation.x
      value: 0
      objectReference: {fileID: 0}
    - target: {fileID: 400000, guid: 5f22e3f6398904100923beb02c73de13, type: 2}
      propertyPath: m_LocalRotation.y
      value: 0
      objectReference: {fileID: 0}
    - target: {fileID: 400000, guid: 5f22e3f6398904100923beb02c73de13, type: 2}
      propertyPath: m_LocalRotation.z
      value: 0
      objectReference: {fileID: 0}
    - target: {fileID: 400000, guid: 5f22e3f6398904100923beb02c73de13, type: 2}
      propertyPath: m_LocalRotation.w
      value: 1
      objectReference: {fileID: 0}
    - target: {fileID: 400000, guid: 5f22e3f6398904100923beb02c73de13, type: 2}
      propertyPath: m_RootOrder
      value: 2
      objectReference: {fileID: 0}
    - target: {fileID: 2356856, guid: 5f22e3f6398904100923beb02c73de13, type: 2}
      propertyPath: m_Materials.Array.data[0]
      value: 
      objectReference: {fileID: 2100000, guid: 6981dccdbd114a7011005aba44295342, type: 2}
    m_RemovedComponents: []
  m_ParentPrefab: {fileID: 100100000, guid: 5f22e3f6398904100923beb02c73de13, type: 2}
  m_IsPrefabParent: 0
--- !u!1001 &300019780
Prefab:
  m_ObjectHideFlags: 0
  serializedVersion: 2
  m_Modification:
    m_TransformParent: {fileID: 714061927}
    m_Modifications:
    - target: {fileID: 400000, guid: 87b70b92195974d9dacc05039e07b8cf, type: 2}
      propertyPath: m_LocalPosition.x
      value: .0599999987
      objectReference: {fileID: 0}
    - target: {fileID: 400000, guid: 87b70b92195974d9dacc05039e07b8cf, type: 2}
      propertyPath: m_LocalPosition.y
      value: .00800000038
      objectReference: {fileID: 0}
    - target: {fileID: 400000, guid: 87b70b92195974d9dacc05039e07b8cf, type: 2}
      propertyPath: m_LocalPosition.z
      value: 0
      objectReference: {fileID: 0}
    - target: {fileID: 400000, guid: 87b70b92195974d9dacc05039e07b8cf, type: 2}
      propertyPath: m_LocalRotation.x
      value: 0
      objectReference: {fileID: 0}
    - target: {fileID: 400000, guid: 87b70b92195974d9dacc05039e07b8cf, type: 2}
      propertyPath: m_LocalRotation.y
      value: 0
      objectReference: {fileID: 0}
    - target: {fileID: 400000, guid: 87b70b92195974d9dacc05039e07b8cf, type: 2}
      propertyPath: m_LocalRotation.z
      value: .446197838
      objectReference: {fileID: 0}
    - target: {fileID: 400000, guid: 87b70b92195974d9dacc05039e07b8cf, type: 2}
      propertyPath: m_LocalRotation.w
      value: .894934356
      objectReference: {fileID: 0}
    - target: {fileID: 400000, guid: 87b70b92195974d9dacc05039e07b8cf, type: 2}
      propertyPath: m_RootOrder
      value: 3
      objectReference: {fileID: 0}
    - target: {fileID: 2348764, guid: 87b70b92195974d9dacc05039e07b8cf, type: 2}
      propertyPath: m_Materials.Array.data[0]
      value: 
      objectReference: {fileID: 2100000, guid: 6981dccdbd114a7011005aba44295342, type: 2}
    m_RemovedComponents: []
  m_ParentPrefab: {fileID: 100100000, guid: 87b70b92195974d9dacc05039e07b8cf, type: 2}
  m_IsPrefabParent: 0
--- !u!1001 &325319426
Prefab:
  m_ObjectHideFlags: 0
  serializedVersion: 2
  m_Modification:
    m_TransformParent: {fileID: 714061927}
    m_Modifications:
    - target: {fileID: 400000, guid: 08563ec9bc5724f43a79b8a80c275cd3, type: 2}
      propertyPath: m_LocalPosition.x
      value: .0199999996
      objectReference: {fileID: 0}
    - target: {fileID: 400000, guid: 08563ec9bc5724f43a79b8a80c275cd3, type: 2}
      propertyPath: m_LocalPosition.y
      value: .00749999983
      objectReference: {fileID: 0}
    - target: {fileID: 400000, guid: 08563ec9bc5724f43a79b8a80c275cd3, type: 2}
      propertyPath: m_LocalPosition.z
      value: 0
      objectReference: {fileID: 0}
    - target: {fileID: 400000, guid: 08563ec9bc5724f43a79b8a80c275cd3, type: 2}
      propertyPath: m_LocalRotation.x
      value: 0
      objectReference: {fileID: 0}
    - target: {fileID: 400000, guid: 08563ec9bc5724f43a79b8a80c275cd3, type: 2}
      propertyPath: m_LocalRotation.y
      value: 0
      objectReference: {fileID: 0}
    - target: {fileID: 400000, guid: 08563ec9bc5724f43a79b8a80c275cd3, type: 2}
      propertyPath: m_LocalRotation.z
      value: 0
      objectReference: {fileID: 0}
    - target: {fileID: 400000, guid: 08563ec9bc5724f43a79b8a80c275cd3, type: 2}
      propertyPath: m_LocalRotation.w
      value: 1
      objectReference: {fileID: 0}
    - target: {fileID: 400000, guid: 08563ec9bc5724f43a79b8a80c275cd3, type: 2}
      propertyPath: m_RootOrder
      value: 1
      objectReference: {fileID: 0}
    - target: {fileID: 2330452, guid: 08563ec9bc5724f43a79b8a80c275cd3, type: 2}
      propertyPath: m_Materials.Array.data[0]
      value: 
      objectReference: {fileID: 2100000, guid: 6981dccdbd114a7011005aba44295342, type: 2}
    m_RemovedComponents: []
  m_ParentPrefab: {fileID: 100100000, guid: 08563ec9bc5724f43a79b8a80c275cd3, type: 2}
  m_IsPrefabParent: 0
--- !u!1 &346159999
GameObject:
  m_ObjectHideFlags: 0
  m_PrefabParentObject: {fileID: 0}
  m_PrefabInternal: {fileID: 0}
  serializedVersion: 4
  m_Component:
  - 4: {fileID: 346160000}
  m_Layer: 0
  m_Name: Turquoise Gems
  m_TagString: Untagged
  m_Icon: {fileID: 0}
  m_NavMeshLayer: 0
  m_StaticEditorFlags: 0
  m_IsActive: 1
--- !u!4 &346160000
Transform:
  m_ObjectHideFlags: 0
  m_PrefabParentObject: {fileID: 0}
  m_PrefabInternal: {fileID: 0}
  m_GameObject: {fileID: 346159999}
  m_LocalRotation: {x: 0, y: -0.10452847, z: 0, w: 0.9945219}
  m_LocalPosition: {x: 0, y: 0, z: 0.06}
  m_LocalScale: {x: 1, y: 1, z: 1}
  m_LocalEulerAnglesHint: {x: 0, y: 0, z: 0}
  m_Children:
  - {fileID: 392548755}
  - {fileID: 166459659}
  - {fileID: 186199565}
  - {fileID: 1987203040}
  m_Father: {fileID: 906471583}
  m_RootOrder: 3
--- !u!1001 &348221167
Prefab:
  m_ObjectHideFlags: 0
  serializedVersion: 2
  m_Modification:
    m_TransformParent: {fileID: 346160000}
    m_Modifications:
    - target: {fileID: 400000, guid: 08563ec9bc5724f43a79b8a80c275cd3, type: 2}
      propertyPath: m_LocalPosition.x
      value: .0199999996
      objectReference: {fileID: 0}
    - target: {fileID: 400000, guid: 08563ec9bc5724f43a79b8a80c275cd3, type: 2}
      propertyPath: m_LocalPosition.y
      value: .00749999983
      objectReference: {fileID: 0}
    - target: {fileID: 400000, guid: 08563ec9bc5724f43a79b8a80c275cd3, type: 2}
      propertyPath: m_LocalPosition.z
      value: 0
      objectReference: {fileID: 0}
    - target: {fileID: 400000, guid: 08563ec9bc5724f43a79b8a80c275cd3, type: 2}
      propertyPath: m_LocalRotation.x
      value: 0
      objectReference: {fileID: 0}
    - target: {fileID: 400000, guid: 08563ec9bc5724f43a79b8a80c275cd3, type: 2}
      propertyPath: m_LocalRotation.y
      value: 0
      objectReference: {fileID: 0}
    - target: {fileID: 400000, guid: 08563ec9bc5724f43a79b8a80c275cd3, type: 2}
      propertyPath: m_LocalRotation.z
      value: 0
      objectReference: {fileID: 0}
    - target: {fileID: 400000, guid: 08563ec9bc5724f43a79b8a80c275cd3, type: 2}
      propertyPath: m_LocalRotation.w
      value: 1
      objectReference: {fileID: 0}
    - target: {fileID: 400000, guid: 08563ec9bc5724f43a79b8a80c275cd3, type: 2}
      propertyPath: m_RootOrder
      value: 1
      objectReference: {fileID: 0}
    - target: {fileID: 2330452, guid: 08563ec9bc5724f43a79b8a80c275cd3, type: 2}
      propertyPath: m_Materials.Array.data[0]
      value: 
      objectReference: {fileID: 2100000, guid: 0a58941bbd115a7011005aba44295342, type: 2}
    m_RemovedComponents: []
  m_ParentPrefab: {fileID: 100100000, guid: 08563ec9bc5724f43a79b8a80c275cd3, type: 2}
  m_IsPrefabParent: 0
--- !u!4 &392548755 stripped
Transform:
  m_PrefabParentObject: {fileID: 400002, guid: d89ce53ebd114a7011005aba44295342, type: 2}
  m_PrefabInternal: {fileID: 1692039704}
--- !u!1001 &459662930
Prefab:
  m_ObjectHideFlags: 0
  serializedVersion: 2
  m_Modification:
    m_TransformParent: {fileID: 1973914807}
    m_Modifications:
    - target: {fileID: 400000, guid: 87b70b92195974d9dacc05039e07b8cf, type: 2}
      propertyPath: m_LocalPosition.x
      value: 0.06
      objectReference: {fileID: 0}
    - target: {fileID: 400000, guid: 87b70b92195974d9dacc05039e07b8cf, type: 2}
      propertyPath: m_LocalPosition.y
      value: 0.008
      objectReference: {fileID: 0}
    - target: {fileID: 400000, guid: 87b70b92195974d9dacc05039e07b8cf, type: 2}
      propertyPath: m_LocalPosition.z
      value: 0
      objectReference: {fileID: 0}
    - target: {fileID: 400000, guid: 87b70b92195974d9dacc05039e07b8cf, type: 2}
      propertyPath: m_LocalRotation.x
      value: 0
      objectReference: {fileID: 0}
    - target: {fileID: 400000, guid: 87b70b92195974d9dacc05039e07b8cf, type: 2}
      propertyPath: m_LocalRotation.y
      value: 0
      objectReference: {fileID: 0}
    - target: {fileID: 400000, guid: 87b70b92195974d9dacc05039e07b8cf, type: 2}
      propertyPath: m_LocalRotation.z
      value: 0.4461978
      objectReference: {fileID: 0}
    - target: {fileID: 400000, guid: 87b70b92195974d9dacc05039e07b8cf, type: 2}
      propertyPath: m_LocalRotation.w
      value: 0.89493436
      objectReference: {fileID: 0}
    - target: {fileID: 400000, guid: 87b70b92195974d9dacc05039e07b8cf, type: 2}
      propertyPath: m_RootOrder
      value: 3
      objectReference: {fileID: 0}
    - target: {fileID: 2348764, guid: 87b70b92195974d9dacc05039e07b8cf, type: 2}
      propertyPath: m_Materials.Array.data[0]
      value: 
      objectReference: {fileID: 2100000, guid: c2bc5d37bd115a7011005aba44295342, type: 2}
    - target: {fileID: 2348764, guid: 87b70b92195974d9dacc05039e07b8cf, type: 2}
      propertyPath: m_CastShadows
      value: 0
      objectReference: {fileID: 0}
    - target: {fileID: 2348764, guid: 87b70b92195974d9dacc05039e07b8cf, type: 2}
      propertyPath: m_MotionVectors
      value: 0
      objectReference: {fileID: 0}
    - target: {fileID: 2348764, guid: 87b70b92195974d9dacc05039e07b8cf, type: 2}
      propertyPath: m_ReceiveShadows
      value: 0
      objectReference: {fileID: 0}
    - target: {fileID: 2348764, guid: 87b70b92195974d9dacc05039e07b8cf, type: 2}
      propertyPath: m_LightProbeUsage
      value: 0
      objectReference: {fileID: 0}
    m_RemovedComponents: []
  m_ParentPrefab: {fileID: 100100000, guid: 87b70b92195974d9dacc05039e07b8cf, type: 2}
  m_IsPrefabParent: 0
--- !u!1 &539338205
GameObject:
  m_ObjectHideFlags: 0
  m_PrefabParentObject: {fileID: 0}
  m_PrefabInternal: {fileID: 0}
  serializedVersion: 4
  m_Component:
  - 4: {fileID: 539338206}
  m_Layer: 0
  m_Name: Camera Pivot
  m_TagString: Untagged
  m_Icon: {fileID: 0}
  m_NavMeshLayer: 0
  m_StaticEditorFlags: 0
  m_IsActive: 1
--- !u!4 &539338206
Transform:
  m_ObjectHideFlags: 0
  m_PrefabParentObject: {fileID: 0}
  m_PrefabInternal: {fileID: 0}
  m_GameObject: {fileID: 539338205}
  m_LocalRotation: {x: 0.19996414, y: 0.37361234, z: -0.082827866, w: 0.90197986}
  m_LocalPosition: {x: 0, y: 0, z: 0}
  m_LocalScale: {x: 1, y: 1, z: 1}
  m_LocalEulerAnglesHint: {x: 0, y: 0, z: 0}
  m_Children:
  - {fileID: 1214707426}
  m_Father: {fileID: 0}
  m_RootOrder: 0
--- !u!1001 &610163148
Prefab:
  m_ObjectHideFlags: 0
  serializedVersion: 2
  m_Modification:
    m_TransformParent: {fileID: 714061927}
    m_Modifications:
    - target: {fileID: 400002, guid: d89ce53ebd114a7011005aba44295342, type: 2}
      propertyPath: m_LocalPosition.x
      value: -.0599999987
      objectReference: {fileID: 0}
    - target: {fileID: 400002, guid: d89ce53ebd114a7011005aba44295342, type: 2}
      propertyPath: m_LocalPosition.y
      value: .00300000003
      objectReference: {fileID: 0}
    - target: {fileID: 400002, guid: d89ce53ebd114a7011005aba44295342, type: 2}
      propertyPath: m_LocalPosition.z
      value: 0
      objectReference: {fileID: 0}
    - target: {fileID: 400002, guid: d89ce53ebd114a7011005aba44295342, type: 2}
      propertyPath: m_LocalRotation.x
      value: 0
      objectReference: {fileID: 0}
    - target: {fileID: 400002, guid: d89ce53ebd114a7011005aba44295342, type: 2}
      propertyPath: m_LocalRotation.y
      value: 0
      objectReference: {fileID: 0}
    - target: {fileID: 400002, guid: d89ce53ebd114a7011005aba44295342, type: 2}
      propertyPath: m_LocalRotation.z
      value: 0
      objectReference: {fileID: 0}
    - target: {fileID: 400002, guid: d89ce53ebd114a7011005aba44295342, type: 2}
      propertyPath: m_LocalRotation.w
      value: 1
      objectReference: {fileID: 0}
    - target: {fileID: 400002, guid: d89ce53ebd114a7011005aba44295342, type: 2}
      propertyPath: m_RootOrder
      value: 0
      objectReference: {fileID: 0}
    - target: {fileID: 400002, guid: d89ce53ebd114a7011005aba44295342, type: 2}
      propertyPath: m_LocalScale.x
      value: .800000012
      objectReference: {fileID: 0}
    - target: {fileID: 400002, guid: d89ce53ebd114a7011005aba44295342, type: 2}
      propertyPath: m_LocalScale.y
      value: .800000012
      objectReference: {fileID: 0}
    - target: {fileID: 400002, guid: d89ce53ebd114a7011005aba44295342, type: 2}
      propertyPath: m_LocalScale.z
      value: .800000012
      objectReference: {fileID: 0}
    - target: {fileID: 2386458, guid: d89ce53ebd114a7011005aba44295342, type: 2}
      propertyPath: m_Materials.Array.data[0]
      value: 
      objectReference: {fileID: 2100000, guid: 6981dccdbd114a7011005aba44295342, type: 2}
    m_RemovedComponents: []
  m_ParentPrefab: {fileID: 100100000, guid: d89ce53ebd114a7011005aba44295342, type: 2}
  m_IsPrefabParent: 0
--- !u!4 &668694838 stripped
Transform:
  m_PrefabParentObject: {fileID: 400002, guid: d89ce53ebd114a7011005aba44295342, type: 2}
  m_PrefabInternal: {fileID: 610163148}
--- !u!1 &714061926
GameObject:
  m_ObjectHideFlags: 0
  m_PrefabParentObject: {fileID: 0}
  m_PrefabInternal: {fileID: 0}
  serializedVersion: 4
  m_Component:
  - 4: {fileID: 714061927}
  m_Layer: 0
  m_Name: Purple Gems
  m_TagString: Untagged
  m_Icon: {fileID: 0}
  m_NavMeshLayer: 0
  m_StaticEditorFlags: 0
  m_IsActive: 1
--- !u!4 &714061927
Transform:
  m_ObjectHideFlags: 0
  m_PrefabParentObject: {fileID: 0}
  m_PrefabInternal: {fileID: 0}
  m_GameObject: {fileID: 714061926}
  m_LocalRotation: {x: 0, y: -0.0348995, z: 0, w: 0.99939084}
  m_LocalPosition: {x: 0, y: 0, z: 0.02}
  m_LocalScale: {x: 1, y: 1, z: 1}
  m_LocalEulerAnglesHint: {x: 0, y: 0, z: 0}
  m_Children:
  - {fileID: 668694838}
  - {fileID: 154806035}
  - {fileID: 1993858701}
  - {fileID: 1142046415}
  m_Father: {fileID: 906471583}
  m_RootOrder: 2
--- !u!1001 &755453565
Prefab:
  m_ObjectHideFlags: 0
  serializedVersion: 2
  m_Modification:
    m_TransformParent: {fileID: 1973914807}
    m_Modifications:
    - target: {fileID: 400002, guid: d89ce53ebd114a7011005aba44295342, type: 2}
      propertyPath: m_LocalPosition.x
      value: -0.06
      objectReference: {fileID: 0}
    - target: {fileID: 400002, guid: d89ce53ebd114a7011005aba44295342, type: 2}
      propertyPath: m_LocalPosition.y
      value: 0.003
      objectReference: {fileID: 0}
    - target: {fileID: 400002, guid: d89ce53ebd114a7011005aba44295342, type: 2}
      propertyPath: m_LocalPosition.z
      value: 0
      objectReference: {fileID: 0}
    - target: {fileID: 400002, guid: d89ce53ebd114a7011005aba44295342, type: 2}
      propertyPath: m_LocalRotation.x
      value: 0
      objectReference: {fileID: 0}
    - target: {fileID: 400002, guid: d89ce53ebd114a7011005aba44295342, type: 2}
      propertyPath: m_LocalRotation.y
      value: 0
      objectReference: {fileID: 0}
    - target: {fileID: 400002, guid: d89ce53ebd114a7011005aba44295342, type: 2}
      propertyPath: m_LocalRotation.z
      value: 0
      objectReference: {fileID: 0}
    - target: {fileID: 400002, guid: d89ce53ebd114a7011005aba44295342, type: 2}
      propertyPath: m_LocalRotation.w
      value: 1
      objectReference: {fileID: 0}
    - target: {fileID: 400002, guid: d89ce53ebd114a7011005aba44295342, type: 2}
      propertyPath: m_RootOrder
      value: 0
      objectReference: {fileID: 0}
    - target: {fileID: 400002, guid: d89ce53ebd114a7011005aba44295342, type: 2}
      propertyPath: m_LocalScale.x
      value: 0.8
      objectReference: {fileID: 0}
    - target: {fileID: 400002, guid: d89ce53ebd114a7011005aba44295342, type: 2}
      propertyPath: m_LocalScale.y
      value: 0.8
      objectReference: {fileID: 0}
    - target: {fileID: 400002, guid: d89ce53ebd114a7011005aba44295342, type: 2}
      propertyPath: m_LocalScale.z
      value: 0.8
      objectReference: {fileID: 0}
    - target: {fileID: 2386458, guid: d89ce53ebd114a7011005aba44295342, type: 2}
      propertyPath: m_Materials.Array.data[0]
      value: 
      objectReference: {fileID: 2100000, guid: c2bc5d37bd115a7011005aba44295342, type: 2}
    m_RemovedComponents: []
  m_ParentPrefab: {fileID: 100100000, guid: d89ce53ebd114a7011005aba44295342, type: 2}
  m_IsPrefabParent: 0
--- !u!4 &770102367 stripped
Transform:
  m_PrefabParentObject: {fileID: 400002, guid: d89ce53ebd114a7011005aba44295342, type: 2}
  m_PrefabInternal: {fileID: 1041617445}
--- !u!1 &906471582
GameObject:
  m_ObjectHideFlags: 0
  m_PrefabParentObject: {fileID: 0}
  m_PrefabInternal: {fileID: 0}
  serializedVersion: 4
  m_Component:
  - 4: {fileID: 906471583}
  m_Layer: 0
  m_Name: Gems
  m_TagString: Untagged
  m_Icon: {fileID: 0}
  m_NavMeshLayer: 0
  m_StaticEditorFlags: 0
  m_IsActive: 1
--- !u!4 &906471583
Transform:
  m_ObjectHideFlags: 0
  m_PrefabParentObject: {fileID: 0}
  m_PrefabInternal: {fileID: 0}
  m_GameObject: {fileID: 906471582}
  m_LocalRotation: {x: 0, y: 0, z: 0, w: 1}
  m_LocalPosition: {x: -0.05, y: 0.05, z: 0}
  m_LocalScale: {x: 10, y: 10, z: 10}
  m_LocalEulerAnglesHint: {x: 0, y: 0, z: 0}
  m_Children:
  - {fileID: 2121243077}
  - {fileID: 1973914807}
  - {fileID: 714061927}
  - {fileID: 346160000}
  m_Father: {fileID: 0}
  m_RootOrder: 4
--- !u!1001 &983826131
Prefab:
  m_ObjectHideFlags: 0
  serializedVersion: 2
  m_Modification:
    m_TransformParent: {fileID: 0}
    m_Modifications:
    - target: {fileID: 400000, guid: 87b70b92195974d9dacc05039e07b8cf, type: 2}
      propertyPath: m_LocalPosition.x
      value: -1.3877852
      objectReference: {fileID: 0}
    - target: {fileID: 400000, guid: 87b70b92195974d9dacc05039e07b8cf, type: 2}
      propertyPath: m_LocalPosition.y
      value: 1.0469999
      objectReference: {fileID: 0}
    - target: {fileID: 400000, guid: 87b70b92195974d9dacc05039e07b8cf, type: 2}
      propertyPath: m_LocalPosition.z
      value: -1.396259
      objectReference: {fileID: 0}
    - target: {fileID: 400000, guid: 87b70b92195974d9dacc05039e07b8cf, type: 2}
      propertyPath: m_LocalRotation.x
      value: -0
      objectReference: {fileID: 0}
    - target: {fileID: 400000, guid: 87b70b92195974d9dacc05039e07b8cf, type: 2}
      propertyPath: m_LocalRotation.y
      value: 0.933084
      objectReference: {fileID: 0}
    - target: {fileID: 400000, guid: 87b70b92195974d9dacc05039e07b8cf, type: 2}
      propertyPath: m_LocalRotation.z
      value: -0
      objectReference: {fileID: 0}
    - target: {fileID: 400000, guid: 87b70b92195974d9dacc05039e07b8cf, type: 2}
      propertyPath: m_LocalRotation.w
      value: -0.3596587
      objectReference: {fileID: 0}
    - target: {fileID: 400000, guid: 87b70b92195974d9dacc05039e07b8cf, type: 2}
      propertyPath: m_RootOrder
      value: 5
      objectReference: {fileID: 0}
    - target: {fileID: 2348764, guid: 87b70b92195974d9dacc05039e07b8cf, type: 2}
      propertyPath: m_ReflectionProbeUsage
      value: 1
      objectReference: {fileID: 0}
    - target: {fileID: 490328, guid: 87b70b92195974d9dacc05039e07b8cf, type: 2}
      propertyPath: m_LocalRotation.x
      value: -0.7071068
      objectReference: {fileID: 0}
    - target: {fileID: 490328, guid: 87b70b92195974d9dacc05039e07b8cf, type: 2}
      propertyPath: m_LocalRotation.w
      value: 0.7071068
      objectReference: {fileID: 0}
    - target: {fileID: 490328, guid: 87b70b92195974d9dacc05039e07b8cf, type: 2}
      propertyPath: m_LocalPosition.y
      value: 0
      objectReference: {fileID: 0}
    - target: {fileID: 490328, guid: 87b70b92195974d9dacc05039e07b8cf, type: 2}
      propertyPath: m_LocalEulerAnglesHint.x
      value: -90
      objectReference: {fileID: 0}
    - target: {fileID: 400000, guid: 87b70b92195974d9dacc05039e07b8cf, type: 2}
      propertyPath: m_LocalScale.x
      value: 10
      objectReference: {fileID: 0}
    - target: {fileID: 400000, guid: 87b70b92195974d9dacc05039e07b8cf, type: 2}
      propertyPath: m_LocalScale.y
      value: 10
      objectReference: {fileID: 0}
    - target: {fileID: 400000, guid: 87b70b92195974d9dacc05039e07b8cf, type: 2}
      propertyPath: m_LocalScale.z
      value: 10
      objectReference: {fileID: 0}
    - target: {fileID: 400000, guid: 87b70b92195974d9dacc05039e07b8cf, type: 2}
      propertyPath: m_LocalEulerAnglesHint.y
      value: -497.71002
      objectReference: {fileID: 0}
    m_RemovedComponents: []
  m_ParentPrefab: {fileID: 100100000, guid: 87b70b92195974d9dacc05039e07b8cf, type: 2}
  m_IsPrefabParent: 0
--- !u!1001 &1024668930
Prefab:
  m_ObjectHideFlags: 0
  serializedVersion: 2
  m_Modification:
    m_TransformParent: {fileID: 1973914807}
    m_Modifications:
    - target: {fileID: 400000, guid: 5f22e3f6398904100923beb02c73de13, type: 2}
      propertyPath: m_LocalPosition.x
      value: -0.02
      objectReference: {fileID: 0}
    - target: {fileID: 400000, guid: 5f22e3f6398904100923beb02c73de13, type: 2}
      propertyPath: m_LocalPosition.y
      value: 0.004
      objectReference: {fileID: 0}
    - target: {fileID: 400000, guid: 5f22e3f6398904100923beb02c73de13, type: 2}
      propertyPath: m_LocalPosition.z
      value: 0
      objectReference: {fileID: 0}
    - target: {fileID: 400000, guid: 5f22e3f6398904100923beb02c73de13, type: 2}
      propertyPath: m_LocalRotation.x
      value: 0
      objectReference: {fileID: 0}
    - target: {fileID: 400000, guid: 5f22e3f6398904100923beb02c73de13, type: 2}
      propertyPath: m_LocalRotation.y
      value: 0
      objectReference: {fileID: 0}
    - target: {fileID: 400000, guid: 5f22e3f6398904100923beb02c73de13, type: 2}
      propertyPath: m_LocalRotation.z
      value: 0
      objectReference: {fileID: 0}
    - target: {fileID: 400000, guid: 5f22e3f6398904100923beb02c73de13, type: 2}
      propertyPath: m_LocalRotation.w
      value: 1
      objectReference: {fileID: 0}
    - target: {fileID: 400000, guid: 5f22e3f6398904100923beb02c73de13, type: 2}
      propertyPath: m_RootOrder
      value: 2
      objectReference: {fileID: 0}
    - target: {fileID: 2356856, guid: 5f22e3f6398904100923beb02c73de13, type: 2}
      propertyPath: m_Materials.Array.data[0]
      value: 
      objectReference: {fileID: 2100000, guid: c2bc5d37bd115a7011005aba44295342, type: 2}
    m_RemovedComponents: []
  m_ParentPrefab: {fileID: 100100000, guid: 5f22e3f6398904100923beb02c73de13, type: 2}
  m_IsPrefabParent: 0
--- !u!1001 &1041617445
Prefab:
  m_ObjectHideFlags: 0
  serializedVersion: 2
  m_Modification:
    m_TransformParent: {fileID: 2121243077}
    m_Modifications:
    - target: {fileID: 400002, guid: d89ce53ebd114a7011005aba44295342, type: 2}
      propertyPath: m_LocalPosition.x
      value: -0.06
      objectReference: {fileID: 0}
    - target: {fileID: 400002, guid: d89ce53ebd114a7011005aba44295342, type: 2}
      propertyPath: m_LocalPosition.y
      value: 0.003
      objectReference: {fileID: 0}
    - target: {fileID: 400002, guid: d89ce53ebd114a7011005aba44295342, type: 2}
      propertyPath: m_LocalPosition.z
      value: 0
      objectReference: {fileID: 0}
    - target: {fileID: 400002, guid: d89ce53ebd114a7011005aba44295342, type: 2}
      propertyPath: m_LocalRotation.x
      value: 0
      objectReference: {fileID: 0}
    - target: {fileID: 400002, guid: d89ce53ebd114a7011005aba44295342, type: 2}
      propertyPath: m_LocalRotation.y
      value: 0
      objectReference: {fileID: 0}
    - target: {fileID: 400002, guid: d89ce53ebd114a7011005aba44295342, type: 2}
      propertyPath: m_LocalRotation.z
      value: 0
      objectReference: {fileID: 0}
    - target: {fileID: 400002, guid: d89ce53ebd114a7011005aba44295342, type: 2}
      propertyPath: m_LocalRotation.w
      value: 1
      objectReference: {fileID: 0}
    - target: {fileID: 400002, guid: d89ce53ebd114a7011005aba44295342, type: 2}
      propertyPath: m_RootOrder
      value: 0
      objectReference: {fileID: 0}
    - target: {fileID: 400002, guid: d89ce53ebd114a7011005aba44295342, type: 2}
      propertyPath: m_LocalScale.x
      value: 0.8
      objectReference: {fileID: 0}
    - target: {fileID: 400002, guid: d89ce53ebd114a7011005aba44295342, type: 2}
      propertyPath: m_LocalScale.y
      value: 0.8
      objectReference: {fileID: 0}
    - target: {fileID: 400002, guid: d89ce53ebd114a7011005aba44295342, type: 2}
      propertyPath: m_LocalScale.z
      value: 0.8
      objectReference: {fileID: 0}
    m_RemovedComponents: []
  m_ParentPrefab: {fileID: 100100000, guid: d89ce53ebd114a7011005aba44295342, type: 2}
  m_IsPrefabParent: 0
--- !u!4 &1121215305 stripped
Transform:
  m_PrefabParentObject: {fileID: 400000, guid: 5f22e3f6398904100923beb02c73de13, type: 2}
  m_PrefabInternal: {fileID: 1692678847}
--- !u!4 &1142046415 stripped
Transform:
  m_PrefabParentObject: {fileID: 400000, guid: 87b70b92195974d9dacc05039e07b8cf, type: 2}
  m_PrefabInternal: {fileID: 300019780}
--- !u!1 &1214707420
GameObject:
  m_ObjectHideFlags: 0
  m_PrefabParentObject: {fileID: 0}
  m_PrefabInternal: {fileID: 0}
  serializedVersion: 4
  m_Component:
  - 4: {fileID: 1214707426}
  - 20: {fileID: 1214707425}
  - 92: {fileID: 1214707424}
  - 124: {fileID: 1214707423}
  - 81: {fileID: 1214707422}
  - 114: {fileID: 1214707421}
  m_Layer: 0
  m_Name: Main Camera
  m_TagString: MainCamera
  m_Icon: {fileID: 0}
  m_NavMeshLayer: 0
  m_StaticEditorFlags: 0
  m_IsActive: 1
--- !u!114 &1214707421
MonoBehaviour:
  m_ObjectHideFlags: 0
  m_PrefabParentObject: {fileID: 0}
  m_PrefabInternal: {fileID: 0}
  m_GameObject: {fileID: 1214707420}
  m_Enabled: 0
  m_EditorHideFlags: 0
  m_Script: {fileID: 11500000, guid: 0735508b0e607489898e2fb8d27caee8, type: 3}
  m_Name: 
  m_EditorClassIdentifier: 
  degreesPerSecond: 10
--- !u!81 &1214707422
AudioListener:
  m_ObjectHideFlags: 0
  m_PrefabParentObject: {fileID: 0}
  m_PrefabInternal: {fileID: 0}
  m_GameObject: {fileID: 1214707420}
  m_Enabled: 1
--- !u!124 &1214707423
Behaviour:
  m_ObjectHideFlags: 0
  m_PrefabParentObject: {fileID: 0}
  m_PrefabInternal: {fileID: 0}
  m_GameObject: {fileID: 1214707420}
  m_Enabled: 1
--- !u!92 &1214707424
Behaviour:
  m_ObjectHideFlags: 0
  m_PrefabParentObject: {fileID: 0}
  m_PrefabInternal: {fileID: 0}
  m_GameObject: {fileID: 1214707420}
  m_Enabled: 1
--- !u!20 &1214707425
Camera:
  m_ObjectHideFlags: 0
  m_PrefabParentObject: {fileID: 0}
  m_PrefabInternal: {fileID: 0}
  m_GameObject: {fileID: 1214707420}
  m_Enabled: 1
  serializedVersion: 2
  m_ClearFlags: 1
  m_BackGroundColor: {r: 0.19215687, g: 0.3019608, b: 0.4745098, a: 0.019607844}
  m_NormalizedViewPortRect:
    serializedVersion: 2
    x: 0
    y: 0
    width: 1
    height: 1
  near clip plane: 0.3
  far clip plane: 1000
  field of view: 20
  orthographic: 0
  orthographic size: 5
  m_Depth: -1
  m_CullingMask:
    serializedVersion: 2
    m_Bits: 4294967295
  m_RenderingPath: -1
  m_TargetTexture: {fileID: 0}
  m_TargetDisplay: 0
  m_TargetEye: 3
  m_HDR: 0
  m_OcclusionCulling: 1
  m_StereoConvergence: 10
  m_StereoSeparation: 0.022
  m_StereoMirrorMode: 0
--- !u!4 &1214707426
Transform:
  m_ObjectHideFlags: 0
  m_PrefabParentObject: {fileID: 0}
  m_PrefabInternal: {fileID: 0}
  m_GameObject: {fileID: 1214707420}
  m_LocalRotation: {x: 0, y: 0, z: 0, w: 1}
  m_LocalPosition: {x: 0, y: 0, z: -4}
  m_LocalScale: {x: 1, y: 1, z: 1}
  m_LocalEulerAnglesHint: {x: 0, y: 0, z: 0}
  m_Children: []
  m_Father: {fileID: 539338206}
  m_RootOrder: 0
--- !u!1 &1362422906
GameObject:
  m_ObjectHideFlags: 0
  m_PrefabParentObject: {fileID: 0}
  m_PrefabInternal: {fileID: 0}
  serializedVersion: 4
  m_Component:
  - 4: {fileID: 1362422911}
  - 33: {fileID: 1362422910}
  - 64: {fileID: 1362422909}
  - 23: {fileID: 1362422908}
  - 114: {fileID: 1362422907}
  m_Layer: 0
  m_Name: Quad (1)
  m_TagString: Untagged
  m_Icon: {fileID: 0}
  m_NavMeshLayer: 0
  m_StaticEditorFlags: 0
  m_IsActive: 1
--- !u!114 &1362422907
MonoBehaviour:
  m_ObjectHideFlags: 0
  m_PrefabParentObject: {fileID: 0}
  m_PrefabInternal: {fileID: 0}
  m_GameObject: {fileID: 1362422906}
  m_Enabled: 1
  m_EditorHideFlags: 0
  m_Script: {fileID: 11500000, guid: 7a664ad4ddbea17409921955b5954f14, type: 3}
  m_Name: 
  m_EditorClassIdentifier: 
--- !u!23 &1362422908
MeshRenderer:
  m_ObjectHideFlags: 0
  m_PrefabParentObject: {fileID: 0}
  m_PrefabInternal: {fileID: 0}
  m_GameObject: {fileID: 1362422906}
  m_Enabled: 1
  m_CastShadows: 0
  m_ReceiveShadows: 0
  m_MotionVectors: 0
  m_LightProbeUsage: 0
  m_ReflectionProbeUsage: 0
  m_Materials:
  - {fileID: 2100000, guid: 8ba85ceaf5a870145860e2c92244188b, type: 2}
  m_SubsetIndices: 
  m_StaticBatchRoot: {fileID: 0}
  m_ProbeAnchor: {fileID: 0}
  m_LightProbeVolumeOverride: {fileID: 0}
  m_ScaleInLightmap: 1
  m_PreserveUVs: 1
  m_IgnoreNormalsForChartDetection: 0
  m_ImportantGI: 0
  m_SelectedWireframeHidden: 0
  m_MinimumChartSize: 4
  m_AutoUVMaxDistance: 0.5
  m_AutoUVMaxAngle: 89
  m_LightmapParameters: {fileID: 0}
  m_SortingLayerID: 0
  m_SortingOrder: 0
--- !u!64 &1362422909
MeshCollider:
  m_ObjectHideFlags: 0
  m_PrefabParentObject: {fileID: 0}
  m_PrefabInternal: {fileID: 0}
  m_GameObject: {fileID: 1362422906}
  m_Material: {fileID: 0}
  m_IsTrigger: 0
  m_Enabled: 1
  serializedVersion: 2
  m_Convex: 0
  m_Mesh: {fileID: 10210, guid: 0000000000000000e000000000000000, type: 0}
--- !u!33 &1362422910
MeshFilter:
  m_ObjectHideFlags: 0
  m_PrefabParentObject: {fileID: 0}
  m_PrefabInternal: {fileID: 0}
  m_GameObject: {fileID: 1362422906}
  m_Mesh: {fileID: 10210, guid: 0000000000000000e000000000000000, type: 0}
--- !u!4 &1362422911
Transform:
  m_ObjectHideFlags: 0
  m_PrefabParentObject: {fileID: 0}
  m_PrefabInternal: {fileID: 0}
  m_GameObject: {fileID: 1362422906}
  m_LocalRotation: {x: -0.19092837, y: 0.05488518, z: 0.01069288, w: 0.9800101}
  m_LocalPosition: {x: -0.00886, y: 0.00025, z: 0.00816}
  m_LocalScale: {x: 0.0030068597, y: 0.0030068608, z: 0.0030068608}
  m_LocalEulerAnglesHint: {x: 0, y: 21.457, z: 0}
  m_Children: []
  m_Father: {fileID: 1808485576}
  m_RootOrder: 2
--- !u!1 &1411955502
GameObject:
  m_ObjectHideFlags: 0
  m_PrefabParentObject: {fileID: 0}
  m_PrefabInternal: {fileID: 0}
  serializedVersion: 4
  m_Component:
  - 4: {fileID: 1411955504}
  - 114: {fileID: 1411955503}
  m_Layer: 0
  m_Name: Light Pivot
  m_TagString: Untagged
  m_Icon: {fileID: 0}
  m_NavMeshLayer: 0
  m_StaticEditorFlags: 0
  m_IsActive: 0
--- !u!114 &1411955503
MonoBehaviour:
  m_ObjectHideFlags: 0
  m_PrefabParentObject: {fileID: 0}
  m_PrefabInternal: {fileID: 0}
  m_GameObject: {fileID: 1411955502}
  m_Enabled: 1
  m_EditorHideFlags: 0
  m_Script: {fileID: 11500000, guid: 18ff8bad9ca6f4f29ab5526c0893ae7b, type: 3}
  m_Name: 
  m_EditorClassIdentifier: 
  lightSource: {fileID: 1824458277}
  minAngle: -15
  cycleDuration: 36
--- !u!4 &1411955504
Transform:
  m_ObjectHideFlags: 0
  m_PrefabParentObject: {fileID: 0}
  m_PrefabInternal: {fileID: 0}
  m_GameObject: {fileID: 1411955502}
  m_LocalRotation: {x: 0.17860618, y: 0.82139385, z: -0.3830223, w: 0.38302213}
  m_LocalPosition: {x: 0, y: 0, z: 0}
  m_LocalScale: {x: 1, y: 1, z: 1}
  m_LocalEulerAnglesHint: {x: 0, y: 0, z: 0}
  m_Children:
  - {fileID: 1824458278}
  m_Father: {fileID: 0}
  m_RootOrder: 1
--- !u!1 &1459482578
GameObject:
  m_ObjectHideFlags: 0
  m_PrefabParentObject: {fileID: 0}
  m_PrefabInternal: {fileID: 0}
  serializedVersion: 4
  m_Component:
  - 4: {fileID: 1459482583}
  - 33: {fileID: 1459482582}
  - 64: {fileID: 1459482581}
  - 23: {fileID: 1459482580}
  - 114: {fileID: 1459482579}
  m_Layer: 0
  m_Name: Quad
  m_TagString: Untagged
  m_Icon: {fileID: 0}
  m_NavMeshLayer: 0
  m_StaticEditorFlags: 0
  m_IsActive: 1
--- !u!114 &1459482579
MonoBehaviour:
  m_ObjectHideFlags: 0
  m_PrefabParentObject: {fileID: 0}
  m_PrefabInternal: {fileID: 0}
  m_GameObject: {fileID: 1459482578}
  m_Enabled: 1
  m_EditorHideFlags: 0
  m_Script: {fileID: 11500000, guid: 7a664ad4ddbea17409921955b5954f14, type: 3}
  m_Name: 
  m_EditorClassIdentifier: 
--- !u!23 &1459482580
MeshRenderer:
  m_ObjectHideFlags: 0
  m_PrefabParentObject: {fileID: 0}
  m_PrefabInternal: {fileID: 0}
  m_GameObject: {fileID: 1459482578}
  m_Enabled: 1
  m_CastShadows: 0
  m_ReceiveShadows: 0
  m_MotionVectors: 0
  m_LightProbeUsage: 0
  m_ReflectionProbeUsage: 0
  m_Materials:
  - {fileID: 2100000, guid: 8ba85ceaf5a870145860e2c92244188b, type: 2}
  m_SubsetIndices: 
  m_StaticBatchRoot: {fileID: 0}
  m_ProbeAnchor: {fileID: 0}
  m_LightProbeVolumeOverride: {fileID: 0}
  m_ScaleInLightmap: 1
  m_PreserveUVs: 1
  m_IgnoreNormalsForChartDetection: 0
  m_ImportantGI: 0
  m_SelectedWireframeHidden: 0
  m_MinimumChartSize: 4
  m_AutoUVMaxDistance: 0.5
  m_AutoUVMaxAngle: 89
  m_LightmapParameters: {fileID: 0}
  m_SortingLayerID: 0
  m_SortingOrder: 0
--- !u!64 &1459482581
MeshCollider:
  m_ObjectHideFlags: 0
  m_PrefabParentObject: {fileID: 0}
  m_PrefabInternal: {fileID: 0}
  m_GameObject: {fileID: 1459482578}
  m_Material: {fileID: 0}
  m_IsTrigger: 0
  m_Enabled: 1
  serializedVersion: 2
  m_Convex: 0
  m_Mesh: {fileID: 10210, guid: 0000000000000000e000000000000000, type: 0}
--- !u!33 &1459482582
MeshFilter:
  m_ObjectHideFlags: 0
  m_PrefabParentObject: {fileID: 0}
  m_PrefabInternal: {fileID: 0}
  m_GameObject: {fileID: 1459482578}
  m_Mesh: {fileID: 10210, guid: 0000000000000000e000000000000000, type: 0}
--- !u!4 &1459482583
Transform:
  m_ObjectHideFlags: 0
  m_PrefabParentObject: {fileID: 0}
  m_PrefabInternal: {fileID: 0}
  m_GameObject: {fileID: 1459482578}
  m_LocalRotation: {x: -0.18014427, y: 0.047347568, z: 0.008681654, w: 0.98246163}
  m_LocalPosition: {x: -0.008508722, y: -0.0039999965, z: -0.013845737}
  m_LocalScale: {x: 0.0030068597, y: 0.0030068608, z: 0.0030068608}
  m_LocalEulerAnglesHint: {x: 0, y: 21.457, z: 0}
  m_Children: []
  m_Father: {fileID: 1808485576}
  m_RootOrder: 1
--- !u!4 &1470649142 stripped
Transform:
  m_PrefabParentObject: {fileID: 400000, guid: 87b70b92195974d9dacc05039e07b8cf, type: 2}
  m_PrefabInternal: {fileID: 459662930}
--- !u!1001 &1586566723
Prefab:
  m_ObjectHideFlags: 0
  serializedVersion: 2
  m_Modification:
    m_TransformParent: {fileID: 1973914807}
    m_Modifications:
    - target: {fileID: 400000, guid: 08563ec9bc5724f43a79b8a80c275cd3, type: 2}
      propertyPath: m_LocalPosition.x
      value: 0.02
      objectReference: {fileID: 0}
    - target: {fileID: 400000, guid: 08563ec9bc5724f43a79b8a80c275cd3, type: 2}
      propertyPath: m_LocalPosition.y
      value: 0.0075
      objectReference: {fileID: 0}
    - target: {fileID: 400000, guid: 08563ec9bc5724f43a79b8a80c275cd3, type: 2}
      propertyPath: m_LocalPosition.z
      value: 0
      objectReference: {fileID: 0}
    - target: {fileID: 400000, guid: 08563ec9bc5724f43a79b8a80c275cd3, type: 2}
      propertyPath: m_LocalRotation.x
      value: 0
      objectReference: {fileID: 0}
    - target: {fileID: 400000, guid: 08563ec9bc5724f43a79b8a80c275cd3, type: 2}
      propertyPath: m_LocalRotation.y
      value: 0
      objectReference: {fileID: 0}
    - target: {fileID: 400000, guid: 08563ec9bc5724f43a79b8a80c275cd3, type: 2}
      propertyPath: m_LocalRotation.z
      value: 0
      objectReference: {fileID: 0}
    - target: {fileID: 400000, guid: 08563ec9bc5724f43a79b8a80c275cd3, type: 2}
      propertyPath: m_LocalRotation.w
      value: 1
      objectReference: {fileID: 0}
    - target: {fileID: 400000, guid: 08563ec9bc5724f43a79b8a80c275cd3, type: 2}
      propertyPath: m_RootOrder
      value: 1
      objectReference: {fileID: 0}
    - target: {fileID: 2330452, guid: 08563ec9bc5724f43a79b8a80c275cd3, type: 2}
      propertyPath: m_Materials.Array.data[0]
      value: 
      objectReference: {fileID: 2100000, guid: c2bc5d37bd115a7011005aba44295342, type: 2}
    m_RemovedComponents: []
  m_ParentPrefab: {fileID: 100100000, guid: 08563ec9bc5724f43a79b8a80c275cd3, type: 2}
  m_IsPrefabParent: 0
--- !u!1001 &1692039704
Prefab:
  m_ObjectHideFlags: 0
  serializedVersion: 2
  m_Modification:
    m_TransformParent: {fileID: 346160000}
    m_Modifications:
    - target: {fileID: 400002, guid: d89ce53ebd114a7011005aba44295342, type: 2}
      propertyPath: m_LocalPosition.x
      value: -.0599999987
      objectReference: {fileID: 0}
    - target: {fileID: 400002, guid: d89ce53ebd114a7011005aba44295342, type: 2}
      propertyPath: m_LocalPosition.y
      value: .00300000003
      objectReference: {fileID: 0}
    - target: {fileID: 400002, guid: d89ce53ebd114a7011005aba44295342, type: 2}
      propertyPath: m_LocalPosition.z
      value: 0
      objectReference: {fileID: 0}
    - target: {fileID: 400002, guid: d89ce53ebd114a7011005aba44295342, type: 2}
      propertyPath: m_LocalRotation.x
      value: 0
      objectReference: {fileID: 0}
    - target: {fileID: 400002, guid: d89ce53ebd114a7011005aba44295342, type: 2}
      propertyPath: m_LocalRotation.y
      value: 0
      objectReference: {fileID: 0}
    - target: {fileID: 400002, guid: d89ce53ebd114a7011005aba44295342, type: 2}
      propertyPath: m_LocalRotation.z
      value: 0
      objectReference: {fileID: 0}
    - target: {fileID: 400002, guid: d89ce53ebd114a7011005aba44295342, type: 2}
      propertyPath: m_LocalRotation.w
      value: 1
      objectReference: {fileID: 0}
    - target: {fileID: 400002, guid: d89ce53ebd114a7011005aba44295342, type: 2}
      propertyPath: m_RootOrder
      value: 0
      objectReference: {fileID: 0}
    - target: {fileID: 400002, guid: d89ce53ebd114a7011005aba44295342, type: 2}
      propertyPath: m_LocalScale.x
      value: .800000012
      objectReference: {fileID: 0}
    - target: {fileID: 400002, guid: d89ce53ebd114a7011005aba44295342, type: 2}
      propertyPath: m_LocalScale.y
      value: .800000012
      objectReference: {fileID: 0}
    - target: {fileID: 400002, guid: d89ce53ebd114a7011005aba44295342, type: 2}
      propertyPath: m_LocalScale.z
      value: .800000012
      objectReference: {fileID: 0}
    - target: {fileID: 2386458, guid: d89ce53ebd114a7011005aba44295342, type: 2}
      propertyPath: m_Materials.Array.data[0]
      value: 
      objectReference: {fileID: 2100000, guid: 0a58941bbd115a7011005aba44295342, type: 2}
    m_RemovedComponents: []
  m_ParentPrefab: {fileID: 100100000, guid: d89ce53ebd114a7011005aba44295342, type: 2}
  m_IsPrefabParent: 0
--- !u!1001 &1692678847
Prefab:
  m_ObjectHideFlags: 0
  serializedVersion: 2
  m_Modification:
    m_TransformParent: {fileID: 2121243077}
    m_Modifications:
    - target: {fileID: 400000, guid: 5f22e3f6398904100923beb02c73de13, type: 2}
      propertyPath: m_LocalPosition.x
      value: -0.02
      objectReference: {fileID: 0}
    - target: {fileID: 400000, guid: 5f22e3f6398904100923beb02c73de13, type: 2}
      propertyPath: m_LocalPosition.y
      value: 0.004
      objectReference: {fileID: 0}
    - target: {fileID: 400000, guid: 5f22e3f6398904100923beb02c73de13, type: 2}
      propertyPath: m_LocalPosition.z
      value: 0
      objectReference: {fileID: 0}
    - target: {fileID: 400000, guid: 5f22e3f6398904100923beb02c73de13, type: 2}
      propertyPath: m_LocalRotation.x
      value: 0
      objectReference: {fileID: 0}
    - target: {fileID: 400000, guid: 5f22e3f6398904100923beb02c73de13, type: 2}
      propertyPath: m_LocalRotation.y
      value: 0
      objectReference: {fileID: 0}
    - target: {fileID: 400000, guid: 5f22e3f6398904100923beb02c73de13, type: 2}
      propertyPath: m_LocalRotation.z
      value: 0
      objectReference: {fileID: 0}
    - target: {fileID: 400000, guid: 5f22e3f6398904100923beb02c73de13, type: 2}
      propertyPath: m_LocalRotation.w
      value: 1
      objectReference: {fileID: 0}
    - target: {fileID: 400000, guid: 5f22e3f6398904100923beb02c73de13, type: 2}
      propertyPath: m_RootOrder
      value: 2
      objectReference: {fileID: 0}
    m_RemovedComponents: []
  m_ParentPrefab: {fileID: 100100000, guid: 5f22e3f6398904100923beb02c73de13, type: 2}
  m_IsPrefabParent: 0
--- !u!4 &1704731600 stripped
Transform:
  m_PrefabParentObject: {fileID: 400000, guid: 5f22e3f6398904100923beb02c73de13, type: 2}
  m_PrefabInternal: {fileID: 1024668930}
--- !u!1 &1748472055
GameObject:
  m_ObjectHideFlags: 0
  m_PrefabParentObject: {fileID: 0}
  m_PrefabInternal: {fileID: 0}
  serializedVersion: 4
  m_Component:
  - 4: {fileID: 1748472058}
  - 33: {fileID: 1748472057}
  - 23: {fileID: 1748472056}
  - 65: {fileID: 1748472059}
  m_Layer: 0
  m_Name: Plate
  m_TagString: Untagged
  m_Icon: {fileID: 0}
  m_NavMeshLayer: 0
  m_StaticEditorFlags: 0
  m_IsActive: 1
--- !u!23 &1748472056
MeshRenderer:
  m_ObjectHideFlags: 0
  m_PrefabParentObject: {fileID: 0}
  m_PrefabInternal: {fileID: 0}
  m_GameObject: {fileID: 1748472055}
  m_Enabled: 1
  m_CastShadows: 1
  m_ReceiveShadows: 1
  m_MotionVectors: 1
  m_LightProbeUsage: 1
  m_ReflectionProbeUsage: 1
  m_Materials:
  - {fileID: 2100000, guid: b73aea060c4fc40deae77f9ddd8c0cb8, type: 2}
  m_SubsetIndices: 
  m_StaticBatchRoot: {fileID: 0}
  m_ProbeAnchor: {fileID: 0}
  m_LightProbeVolumeOverride: {fileID: 0}
  m_ScaleInLightmap: 1
  m_PreserveUVs: 1
  m_IgnoreNormalsForChartDetection: 0
  m_ImportantGI: 0
  m_SelectedWireframeHidden: 0
  m_MinimumChartSize: 4
  m_AutoUVMaxDistance: 0.5
  m_AutoUVMaxAngle: 89
  m_LightmapParameters: {fileID: 0}
  m_SortingLayerID: 0
  m_SortingOrder: 0
--- !u!33 &1748472057
MeshFilter:
  m_ObjectHideFlags: 0
  m_PrefabParentObject: {fileID: 0}
  m_PrefabInternal: {fileID: 0}
  m_GameObject: {fileID: 1748472055}
  m_Mesh: {fileID: 10206, guid: 0000000000000000e000000000000000, type: 0}
--- !u!4 &1748472058
Transform:
  m_ObjectHideFlags: 0
  m_PrefabParentObject: {fileID: 0}
  m_PrefabInternal: {fileID: 0}
  m_GameObject: {fileID: 1748472055}
  m_LocalRotation: {x: 0, y: 0, z: 0, w: 1}
  m_LocalPosition: {x: 0, y: 0.025, z: 0}
  m_LocalScale: {x: 8, y: 0.025, z: 8}
  m_LocalEulerAnglesHint: {x: 0, y: 0, z: 0}
  m_Children: []
  m_Father: {fileID: 0}
  m_RootOrder: 3
--- !u!65 &1748472059
BoxCollider:
  m_ObjectHideFlags: 0
  m_PrefabParentObject: {fileID: 0}
  m_PrefabInternal: {fileID: 0}
  m_GameObject: {fileID: 1748472055}
  m_Material: {fileID: 0}
  m_IsTrigger: 0
  m_Enabled: 1
  serializedVersion: 2
  m_Size: {x: 1.0000001, y: 2, z: 1.0000002}
  m_Center: {x: 0, y: 0, z: 0}
--- !u!4 &1751427596 stripped
Transform:
  m_PrefabParentObject: {fileID: 400000, guid: 08563ec9bc5724f43a79b8a80c275cd3, type: 2}
  m_PrefabInternal: {fileID: 1586566723}
--- !u!1001 &1758688970
Prefab:
  m_ObjectHideFlags: 0
  serializedVersion: 2
  m_Modification:
    m_TransformParent: {fileID: 2121243077}
    m_Modifications:
    - target: {fileID: 400000, guid: 08563ec9bc5724f43a79b8a80c275cd3, type: 2}
      propertyPath: m_LocalPosition.x
      value: 0.02
      objectReference: {fileID: 0}
    - target: {fileID: 400000, guid: 08563ec9bc5724f43a79b8a80c275cd3, type: 2}
      propertyPath: m_LocalPosition.y
      value: 0.0075
      objectReference: {fileID: 0}
    - target: {fileID: 400000, guid: 08563ec9bc5724f43a79b8a80c275cd3, type: 2}
      propertyPath: m_LocalPosition.z
      value: 0
      objectReference: {fileID: 0}
    - target: {fileID: 400000, guid: 08563ec9bc5724f43a79b8a80c275cd3, type: 2}
      propertyPath: m_LocalRotation.x
      value: 0
      objectReference: {fileID: 0}
    - target: {fileID: 400000, guid: 08563ec9bc5724f43a79b8a80c275cd3, type: 2}
      propertyPath: m_LocalRotation.y
      value: 0
      objectReference: {fileID: 0}
    - target: {fileID: 400000, guid: 08563ec9bc5724f43a79b8a80c275cd3, type: 2}
      propertyPath: m_LocalRotation.z
      value: 0
      objectReference: {fileID: 0}
    - target: {fileID: 400000, guid: 08563ec9bc5724f43a79b8a80c275cd3, type: 2}
      propertyPath: m_LocalRotation.w
      value: 1
      objectReference: {fileID: 0}
    - target: {fileID: 400000, guid: 08563ec9bc5724f43a79b8a80c275cd3, type: 2}
      propertyPath: m_RootOrder
      value: 1
      objectReference: {fileID: 0}
    m_RemovedComponents: []
  m_ParentPrefab: {fileID: 100100000, guid: 08563ec9bc5724f43a79b8a80c275cd3, type: 2}
  m_IsPrefabParent: 0
--- !u!4 &1808485576 stripped
Transform:
  m_PrefabParentObject: {fileID: 400000, guid: 87b70b92195974d9dacc05039e07b8cf, type: 2}
  m_PrefabInternal: {fileID: 983826131}
--- !u!1 &1824458276
GameObject:
  m_ObjectHideFlags: 0
  m_PrefabParentObject: {fileID: 0}
  m_PrefabInternal: {fileID: 0}
  serializedVersion: 4
  m_Component:
  - 4: {fileID: 1824458278}
  - 108: {fileID: 1824458277}
  m_Layer: 0
  m_Name: Spotlight
  m_TagString: Untagged
  m_Icon: {fileID: 0}
  m_NavMeshLayer: 0
  m_StaticEditorFlags: 0
  m_IsActive: 1
--- !u!108 &1824458277
Light:
  m_ObjectHideFlags: 0
  m_PrefabParentObject: {fileID: 0}
  m_PrefabInternal: {fileID: 0}
  m_GameObject: {fileID: 1824458276}
  m_Enabled: 1
  serializedVersion: 7
  m_Type: 0
  m_Color: {r: 1, g: 0.95686275, b: 0.8392157, a: 1}
  m_Intensity: 3
  m_Range: 20
  m_SpotAngle: 30
  m_CookieSize: 10
  m_Shadows:
    m_Type: 2
    m_Resolution: -1
    m_CustomResolution: -1
    m_Strength: 1
    m_Bias: 0.05
    m_NormalBias: 0.4
    m_NearPlane: 0.2
  m_Cookie: {fileID: 0}
  m_DrawHalo: 0
  m_Flare: {fileID: 0}
  m_RenderMode: 0
  m_CullingMask:
    serializedVersion: 2
    m_Bits: 4294967295
  m_Lightmapping: 4
  m_AreaSize: {x: 1, y: 1}
  m_BounceIntensity: 1
  m_ShadowRadius: 0
  m_ShadowAngle: 0
--- !u!4 &1824458278
Transform:
  m_ObjectHideFlags: 0
  m_PrefabParentObject: {fileID: 0}
  m_PrefabInternal: {fileID: 0}
  m_GameObject: {fileID: 1824458276}
  m_LocalRotation: {x: 0, y: 0, z: 0, w: 1}
  m_LocalPosition: {x: 0, y: 0, z: -4}
  m_LocalScale: {x: 1, y: 1, z: 1}
  m_LocalEulerAnglesHint: {x: 0, y: 0, z: 0}
  m_Children: []
  m_Father: {fileID: 1411955504}
  m_RootOrder: 0
--- !u!4 &1828286968 stripped
Transform:
  m_PrefabParentObject: {fileID: 400002, guid: d89ce53ebd114a7011005aba44295342, type: 2}
  m_PrefabInternal: {fileID: 755453565}
--- !u!1 &1973914806
GameObject:
  m_ObjectHideFlags: 0
  m_PrefabParentObject: {fileID: 0}
  m_PrefabInternal: {fileID: 0}
  serializedVersion: 4
  m_Component:
  - 4: {fileID: 1973914807}
  m_Layer: 0
  m_Name: Lavender Gems
  m_TagString: Untagged
  m_Icon: {fileID: 0}
  m_NavMeshLayer: 0
  m_StaticEditorFlags: 0
  m_IsActive: 1
--- !u!4 &1973914807
Transform:
  m_ObjectHideFlags: 0
  m_PrefabParentObject: {fileID: 0}
  m_PrefabInternal: {fileID: 0}
  m_GameObject: {fileID: 1973914806}
  m_LocalRotation: {x: 0, y: 0.0348995, z: 0, w: 0.99939084}
  m_LocalPosition: {x: 0, y: 0, z: -0.02}
  m_LocalScale: {x: 1, y: 1, z: 1}
  m_LocalEulerAnglesHint: {x: 0, y: 0, z: 0}
  m_Children:
  - {fileID: 1828286968}
  - {fileID: 1751427596}
  - {fileID: 1704731600}
  - {fileID: 1470649142}
  m_Father: {fileID: 906471583}
  m_RootOrder: 1
--- !u!4 &1987203040 stripped
Transform:
  m_PrefabParentObject: {fileID: 400000, guid: 87b70b92195974d9dacc05039e07b8cf, type: 2}
  m_PrefabInternal: {fileID: 72228895}
--- !u!4 &1993858701 stripped
Transform:
  m_PrefabParentObject: {fileID: 400000, guid: 5f22e3f6398904100923beb02c73de13, type: 2}
  m_PrefabInternal: {fileID: 214583906}
--- !u!4 &2038584608 stripped
Transform:
  m_PrefabParentObject: {fileID: 400000, guid: 08563ec9bc5724f43a79b8a80c275cd3, type: 2}
  m_PrefabInternal: {fileID: 1758688970}
--- !u!1 &2121243076
GameObject:
  m_ObjectHideFlags: 0
  m_PrefabParentObject: {fileID: 0}
  m_PrefabInternal: {fileID: 0}
  serializedVersion: 4
  m_Component:
  - 4: {fileID: 2121243077}
  m_Layer: 0
  m_Name: White Gems
  m_TagString: Untagged
  m_Icon: {fileID: 0}
  m_NavMeshLayer: 0
  m_StaticEditorFlags: 0
  m_IsActive: 1
--- !u!4 &2121243077
Transform:
  m_ObjectHideFlags: 0
  m_PrefabParentObject: {fileID: 0}
  m_PrefabInternal: {fileID: 0}
  m_GameObject: {fileID: 2121243076}
  m_LocalRotation: {x: 0, y: 0.10452847, z: 0, w: 0.9945219}
  m_LocalPosition: {x: 0, y: 0, z: -0.06}
  m_LocalScale: {x: 1, y: 1, z: 1}
  m_LocalEulerAnglesHint: {x: 0, y: 0, z: 0}
  m_Children:
  - {fileID: 770102367}
  - {fileID: 2038584608}
  - {fileID: 1121215305}
  m_Father: {fileID: 906471583}
  m_RootOrder: 0
--- !u!1 &2122626677
GameObject:
  m_ObjectHideFlags: 0
  m_PrefabParentObject: {fileID: 0}
  m_PrefabInternal: {fileID: 0}
  serializedVersion: 4
  m_Component:
  - 4: {fileID: 2122626682}
  - 33: {fileID: 2122626681}
  - 64: {fileID: 2122626680}
  - 23: {fileID: 2122626679}
  - 114: {fileID: 2122626678}
  m_Layer: 0
  m_Name: Quad (2)
  m_TagString: Untagged
  m_Icon: {fileID: 0}
  m_NavMeshLayer: 0
  m_StaticEditorFlags: 0
  m_IsActive: 1
--- !u!114 &2122626678
MonoBehaviour:
  m_ObjectHideFlags: 0
  m_PrefabParentObject: {fileID: 0}
  m_PrefabInternal: {fileID: 0}
  m_GameObject: {fileID: 2122626677}
  m_Enabled: 1
  m_EditorHideFlags: 0
  m_Script: {fileID: 11500000, guid: 7a664ad4ddbea17409921955b5954f14, type: 3}
  m_Name: 
  m_EditorClassIdentifier: 
--- !u!23 &2122626679
MeshRenderer:
  m_ObjectHideFlags: 0
  m_PrefabParentObject: {fileID: 0}
  m_PrefabInternal: {fileID: 0}
  m_GameObject: {fileID: 2122626677}
  m_Enabled: 1
  m_CastShadows: 0
  m_ReceiveShadows: 0
  m_MotionVectors: 0
  m_LightProbeUsage: 0
  m_ReflectionProbeUsage: 0
  m_Materials:
  - {fileID: 2100000, guid: 8ba85ceaf5a870145860e2c92244188b, type: 2}
  m_SubsetIndices: 
  m_StaticBatchRoot: {fileID: 0}
  m_ProbeAnchor: {fileID: 0}
  m_LightProbeVolumeOverride: {fileID: 0}
  m_ScaleInLightmap: 1
  m_PreserveUVs: 1
  m_IgnoreNormalsForChartDetection: 0
  m_ImportantGI: 0
  m_SelectedWireframeHidden: 0
  m_MinimumChartSize: 4
  m_AutoUVMaxDistance: 0.5
  m_AutoUVMaxAngle: 89
  m_LightmapParameters: {fileID: 0}
  m_SortingLayerID: 0
  m_SortingOrder: 0
--- !u!64 &2122626680
MeshCollider:
  m_ObjectHideFlags: 0
  m_PrefabParentObject: {fileID: 0}
  m_PrefabInternal: {fileID: 0}
  m_GameObject: {fileID: 2122626677}
  m_Material: {fileID: 0}
  m_IsTrigger: 0
  m_Enabled: 1
  serializedVersion: 2
  m_Convex: 0
  m_Mesh: {fileID: 10210, guid: 0000000000000000e000000000000000, type: 0}
--- !u!33 &2122626681
MeshFilter:
  m_ObjectHideFlags: 0
  m_PrefabParentObject: {fileID: 0}
  m_PrefabInternal: {fileID: 0}
  m_GameObject: {fileID: 2122626677}
  m_Mesh: {fileID: 10210, guid: 0000000000000000e000000000000000, type: 0}
--- !u!4 &2122626682
Transform:
  m_ObjectHideFlags: 0
  m_PrefabParentObject: {fileID: 0}
  m_PrefabInternal: {fileID: 0}
  m_GameObject: {fileID: 2122626677}
  m_LocalRotation: {x: -0.22467697, y: 0.013912318, z: 0.003208145, w: 0.9743287}
  m_LocalPosition: {x: 0.0040132888, y: -0.017499996, z: -0.0025350896}
  m_LocalScale: {x: 0.0030068597, y: 0.0030068608, z: 0.0030068608}
  m_LocalEulerAnglesHint: {x: 0, y: 21.457, z: 0}
  m_Children: []
  m_Father: {fileID: 1808485576}
  m_RootOrder: 3
