%YAML 1.1
%TAG !u! tag:unity3d.com,2011:
--- !u!21 &2100000
Material:
  serializedVersion: 6
  m_ObjectHideFlags: 0
  m_PrefabParentObject: {fileID: 0}
  m_PrefabInternal: {fileID: 0}
  m_Name: FakeFog
  m_Shader: {fileID: 4800000, guid: 74b57fa8c35e2ae4cbea740d4484d2fb, type: 3}
  m_ShaderKeywords: 
  m_LightmapFlags: 5
  m_EnableInstancingVariants: 0
  m_DoubleSidedGI: 0
  m_CustomRenderQueue: 3000
  stringTagMap: {}
  disabledShaderPasses: []
  m_SavedProperties:
    serializedVersion: 3
    m_TexEnvs:
    - _BumpMap:
        m_Texture: {fileID: 0}
        m_Scale: {x: 1, y: 1}
        m_Offset: {x: 0, y: 0}
    - _DetailAlbedoMap:
        m_Texture: {fileID: 0}
        m_Scale: {x: 1, y: 1}
        m_Offset: {x: 0, y: 0}
    - _DetailMask:
        m_Texture: {fileID: 0}
        m_Scale: {x: 1, y: 1}
        m_Offset: {x: 0, y: 0}
    - _DetailNormalMap:
        m_Texture: {fileID: 0}
        m_Scale: {x: 1, y: 1}
        m_Offset: {x: 0, y: 0}
    - _EmissionMap:
        m_Texture: {fileID: 0}
        m_Scale: {x: 1, y: 1}
        m_Offset: {x: 0, y: 0}
    - _MainTex:
        m_Texture: {fileID: 2800000, guid: 6ea28411818ebda41bae041c66913488, type: 3}
        m_Scale: {x: 3.76, y: 2.1}
        m_Offset: {x: 0, y: 0}
    - _MetallicGlossMap:
        m_Texture: {fileID: 0}
        m_Scale: {x: 1, y: 1}
        m_Offset: {x: 0, y: 0}
    - _OcclusionMap:
        m_Texture: {fileID: 0}
        m_Scale: {x: 1, y: 1}
        m_Offset: {x: 0, y: 0}
    - _ParallaxMap:
        m_Texture: {fileID: 0}
        m_Scale: {x: 1, y: 1}
        m_Offset: {x: 0, y: 0}
    m_Floats:
    - _BumpAmt: 10
    - _BumpScale: 1
    - _Cutoff: 0.5
    - _DetailNormalMapScale: 1
    - _DstBlend: 0
    - _FogFade: 0.0377
    - _FogHeightFade: 2
    - _GlobalFade: 0
    - _Glossiness: 0.5
    - _Metallic: 0
    - _MidHeight: -0.1
    - _Mode: 0
    - _MoveSpeedX: 2.5
    - _MoveSpeedY: -4
    - _OcclusionStrength: 1
    - _OpaqueHeightScale: 1.26
    - _Parallax: 0.02
    - _ScrollU: 0
    - _ScrollV: 0
    - _SoftFactor: 1
    - _SoftFade: 0.04
    - _SrcBlend: 1
    - _TopHeight: 0
    - _TransparentHeightScale: 1.77
    - _UVSec: 0
    - _ZWrite: 1
    m_Colors:
    - _Color: {r: 0.7352941, g: 0.5682496, b: 0.3568339, a: 1}
    - _EmisColor: {r: 0.2, g: 0.2, b: 0.2, a: 0}
    - _EmissionColor: {r: 0, g: 0, b: 0, a: 1}
