%YAML 1.1
%TAG !u! tag:unity3d.com,2011:
--- !u!1 &110982
GameObject:
  m_ObjectHideFlags: 0
  m_PrefabParentObject: {fileID: 0}
  m_PrefabInternal: {fileID: 100100000}
  serializedVersion: 4
  m_Component:
  - 4: {fileID: 475972}
  - 114: {fileID: 11416110}
  m_Layer: 0
  m_Name: GameManager
  m_TagString: GameManager
  m_Icon: {fileID: 0}
  m_NavMeshLayer: 0
  m_StaticEditorFlags: 0
  m_IsActive: 1
--- !u!4 &475972
Transform:
  m_ObjectHideFlags: 1
  m_PrefabParentObject: {fileID: 0}
  m_PrefabInternal: {fileID: 100100000}
  m_GameObject: {fileID: 110982}
  m_LocalRotation: {x: 0, y: 0, z: 0, w: 1}
  m_LocalPosition: {x: 0, y: 0, z: 0}
  m_LocalScale: {x: 1, y: 1, z: 1}
  m_LocalEulerAnglesHint: {x: 0, y: 0, z: 0}
  m_Children: []
  m_Father: {fileID: 0}
  m_RootOrder: 0
--- !u!114 &11416110
MonoBehaviour:
  m_ObjectHideFlags: 1
  m_PrefabParentObject: {fileID: 0}
  m_PrefabInternal: {fileID: 100100000}
  m_GameObject: {fileID: 110982}
  m_Enabled: 1
  m_EditorHideFlags: 0
  m_Script: {fileID: 11500000, guid: dd5627f7cc72c1849bbb65b5b072388d, type: 3}
  m_Name: 
  m_EditorClassIdentifier: 
  world: 0
  level: 1
  levelIdols:
  - {fileID: 0}
  - {fileID: 0}
  - {fileID: 0}
  - {fileID: 0}
  - {fileID: 0}
  - {fileID: 0}
  idolsCheck: 000000000000
  chronoLevel: 0
  specialLevel: 0
  specialLevelID: 0
  specialLevelRequisites:
    levelId: 0
    levelName: Special :D
    diamondReward: 1
    score: 0
    idols: 0
    weaponId: -1
    nextLevel: -1
  endPoint: 0
  checkpoints: []
  respawnLocation: {fileID: 0}
  twoStarsScore: 0
  twoStarsIdols: 0
  threeStarsScore: 0
  threeStarsIdols: 0
--- !u!1001 &100100000
Prefab:
  m_ObjectHideFlags: 1
  serializedVersion: 2
  m_Modification:
    m_TransformParent: {fileID: 0}
    m_Modifications: []
    m_RemovedComponents: []
  m_ParentPrefab: {fileID: 0}
  m_RootGameObject: {fileID: 110982}
  m_IsPrefabParent: 1
