%YAML 1.1
%TAG !u! tag:unity3d.com,2011:
--- !u!114 &11400000
MonoBehaviour:
  m_ObjectHideFlags: 0
  m_PrefabParentObject: {fileID: 0}
  m_PrefabInternal: {fileID: 0}
  m_GameObject: {fileID: 0}
  m_Enabled: 1
  m_EditorHideFlags: 0
  m_Script: {fileID: 11500000, guid: 0e91a0c009a69b444ba100e968275d4c, type: 3}
  m_Name: FogPreset
  m_EditorClassIdentifier: 
  fogPresets:
  - ambience: 0
    fogColor: {r: 0.73333335, g: 0.5647059, b: 0.3529412, a: 1}
  - ambience: 1
    fogColor: {r: 0.023529412, g: 0.18431373, b: 0.3137255, a: 1}
  - ambience: 2
    fogColor: {r: 0.2901961, g: 0.15294118, b: 0.09019608, a: 1}
  - ambience: 3
    fogColor: {r: 0.07450981, g: 0.12156863, b: 0.07450981, a: 1}
  - ambience: 4
    fogColor: {r: 0.25490198, g: 0.43137255, b: 0.2509804, a: 1}
  - ambience: 5
    fogColor: {r: 0.24313726, g: 0.5019608, b: 0.95686275, a: 1}
  - ambience: 6
    fogColor: {r: 0.09411766, g: 0.2784314, b: 0.29411766, a: 1}
  - ambience: 7
    fogColor: {r: 0.89411765, g: 0.98039216, b: 1, a: 1}
  - ambience: 8
    fogColor: {r: 0.17803851, g: 0.2292634, b: 0.27205884, a: 1}
  - ambience: 9
    fogColor: {r: 0.2901961, g: 0.35686275, b: 0.32941177, a: 1}
