%YAML 1.1
%TAG !u! tag:unity3d.com,2011:
--- !u!114 &11400000
MonoBehaviour:
  m_ObjectHideFlags: 0
  m_PrefabParentObject: {fileID: 0}
  m_PrefabInternal: {fileID: 0}
  m_GameObject: {fileID: 0}
  m_Enabled: 1
  m_EditorHideFlags: 0
  m_Script: {fileID: 11500000, guid: 01fefde40c9621e41b3672eec27d053f, type: 3}
  m_Name: PlayerMountSet
  m_EditorClassIdentifier: 
  mountSet:
  - mountType: 0
    playerMountAnimator: {fileID: 9100000, guid: ba2285920a08f904f811c14d4100f02d,
      type: 2}
    playerTargetHeight: 0
    mountRagdoll: {fileID: 133630, guid: 46b21540baef894439f6a53351265d3b, type: 2}
  - mountType: 1
    playerMountAnimator: {fileID: 9100000, guid: cd3d9176f23a04e459ae4b49e4b55749,
      type: 2}
    playerTargetHeight: 0.575
    mountRagdoll: {fileID: 1000013312168174, guid: 9a9f4644da341ba409e69a9872943b2d,
      type: 2}
  - mountType: 2
    playerMountAnimator: {fileID: 9100000, guid: ebf879ecda9e2a642921ddf1f3524f3a,
      type: 2}
    playerTargetHeight: 0.75
    mountRagdoll: {fileID: 1000013461863950, guid: 093e430ac6e8c824586389b38dc26129,
      type: 2}
  - mountType: 4
    playerMountAnimator: {fileID: 9100000, guid: b18f28eba98528f458f2fc60e4df19b4,
      type: 2}
    playerTargetHeight: 0.5
    mountRagdoll: {fileID: 1000010918719642, guid: 3dd52c63168788149935091226a58df9,
      type: 2}
  - mountType: 3
    playerMountAnimator: {fileID: 9100000, guid: 8948690787900c1429c33d9ed0b11554,
      type: 2}
    playerTargetHeight: -0.475
    mountRagdoll: {fileID: 1000011347835052, guid: 04663b96d9bdfca4d9cc85ac68a6625e,
      type: 2}
